{
    "form_0": {
        "num_coefficients": 1, 
        "has_cell_integrals": 1, 
        "has_exterior_facet_integrals": 0, 
        "has_interior_facet_integrals": 0, 
        "has_point_integrals": 0, 
        "num_cell_domains": 0, 
        "num_exterior_facet_domains": 0, 
        "num_interior_facet_domains": 0, 
        "num_point_domains": 0, 
        "finite_element_0": {
            "cell_shape": 1, 
            "space_dimension": 6, 
            "value_rank": 0, 
            "evaluate_basis:_0": [2.8610071678580171e+00], 
            "evaluate_basis:_1": [6.1881163893169173e+00], 
            "evaluate_basis:_2": [1.4984118131434853e+01], 
            "evaluate_basis:_3": [-2.0254997816349125e+01], 
            "evaluate_basis:_4": [-1.4710349887246432e+01], 
            "evaluate_basis:_5": [1.1932105742404252e+01], 
            "evaluate_basis_all": [2.8610071678580171e+00, 6.1881163893169173e+00, 1.4984118131434853e+01, -2.0254997816349125e+01, -1.4710349887246432e+01, 1.1932105742404252e+01], 
            "evaluate_basis_derivatives_0_0": [2.8610071678580171e+00], 
            "evaluate_basis_derivatives_0_1": [4.1830166325985907e-01, -1.1137281139441237e+01], 
            "evaluate_basis_derivatives_0_2": [2.9299184886074414e-02, -7.8009583790731085e-01, -7.8009552734581433e-01, 2.0770049714109000e+01], 
            "evaluate_basis_derivatives_1_0": [6.1881163893169173e+00], 
            "evaluate_basis_derivatives_1_1": [-1.6802284432419185e+01, 3.1931942336532431e+00], 
            "evaluate_basis_derivatives_1_2": [2.2359541075839978e+01, -4.2493243399802800e+00, -4.2493242137911515e+00, 8.0756367053772460e-01], 
            "evaluate_basis_derivatives_2_0": [1.4984118131434853e+01], 
            "evaluate_basis_derivatives_2_1": [-2.5052630170190362e+01, -2.0112674925364093e+01], 
            "evaluate_basis_derivatives_2_2": [2.0770050562393401e+01, 1.6674547634597520e+01, 1.6674547634597520e+01, 1.3386608664395190e+01], 
            "evaluate_basis_derivatives_3_0": [-2.0254997816349125e+01], 
            "evaluate_basis_derivatives_3_1": [4.2102045766998742e+01, 1.0339616415170878e+01], 
            "evaluate_basis_derivatives_3_2": [-4.3100292690195282e+01, -1.3205319095727823e+01, -1.3205318911355452e+01, 6.5758775909102241e+00], 
            "evaluate_basis_derivatives_4_0": [-1.4710349887246432e+01], 
            "evaluate_basis_derivatives_4_1": [1.2560631577397444e+01, 3.3544504833147194e+01], 
            "evaluate_basis_derivatives_4_2": [1.5601915654084806e+00, -2.0143776173467209e+01, -2.0143776357839585e+01, -3.3349094919700597e+01], 
            "evaluate_basis_derivatives_5_0": [1.1932105742404252e+01], 
            "evaluate_basis_derivatives_5_1": [-1.3226063771129475e+01, -1.5827359122238521e+01], 
            "evaluate_basis_derivatives_5_2": [-1.6187906851871934e+00, 2.1703967965189268e+01, 2.1703967528438628e+01, -8.1910056499146062e+00], 
            "evaluate_basis_derivatives_all_0": [2.8610071678580171e+00, 6.1881163893169173e+00, 1.4984118131434853e+01, -2.0254997816349125e+01, -1.4710349887246432e+01, 1.1932105742404252e+01], 
            "evaluate_basis_derivatives_all_1": [4.1830166325985907e-01, -1.1137281139441237e+01, -1.6802284432419185e+01, 3.1931942336532431e+00, -2.5052630170190362e+01, -2.0112674925364093e+01, 4.2102045766998742e+01, 1.0339616415170878e+01, 1.2560631577397444e+01, 3.3544504833147194e+01, -1.3226063771129475e+01, -1.5827359122238521e+01], 
            "evaluate_basis_derivatives_all_2": [2.9299184886074414e-02, -7.8009583790731085e-01, -7.8009552734581433e-01, 2.0770049714109000e+01, 2.2359541075839978e+01, -4.2493243399802800e+00, -4.2493242137911515e+00, 8.0756367053772460e-01, 2.0770050562393401e+01, 1.6674547634597520e+01, 1.6674547634597520e+01, 1.3386608664395190e+01, -4.3100292690195282e+01, -1.3205319095727823e+01, -1.3205318911355452e+01, 6.5758775909102241e+00, 1.5601915654084806e+00, -2.0143776173467209e+01, -2.0143776357839585e+01, -3.3349094919700597e+01, -1.6187906851871934e+00, 2.1703967965189268e+01, 2.1703967528438628e+01, -8.1910056499146062e+00], 
            "evaluate_dof_0": 3.0792300000000006e-01, 
            "evaluate_dof_1": 4.3028700000000003e-01, 
            "evaluate_dof_2": 7.7282099999999998e-01, 
            "evaluate_dof_3": 5.9984999999999999e-01, 
            "evaluate_dof_4": 5.3109000000000006e-01, 
            "evaluate_dof_5": 4.0552800000000000e-01, 
            "evaluate_dofs": [3.0792300000000006e-01, 4.3028700000000003e-01, 7.7282099999999998e-01, 5.9984999999999999e-01, 5.3109000000000006e-01, 4.0552800000000000e-01], 
            "interpolate_vertex_values": [3.0792300000000006e-01, 4.3028700000000003e-01, 7.7282099999999998e-01], 
            "num_sub_elements": 0, 
        },
        "finite_element_1": {
            "cell_shape": 1, 
            "space_dimension": 1, 
            "value_rank": 0, 
            "evaluate_basis:_0": [1.0000000000000000e+00], 
            "evaluate_basis_all": [1.0000000000000000e+00], 
            "evaluate_basis_derivatives_0_0": [1.0000000000000000e+00], 
            "evaluate_basis_derivatives_0_1": [0.0, 0.0], 
            "evaluate_basis_derivatives_0_2": [0.0, 0.0, 0.0, 0.0], 
            "evaluate_basis_derivatives_all_0": [1.0000000000000000e+00], 
            "evaluate_basis_derivatives_all_1": [0.0, 0.0], 
            "evaluate_basis_derivatives_all_2": [0.0, 0.0, 0.0, 0.0], 
            "evaluate_dof_0": 5.1498232303368663e-01, 
            "evaluate_dofs": [5.1498232303368663e-01], 
            "interpolate_vertex_values": [5.1498232303368663e-01, 5.1498232303368663e-01, 5.1498232303368663e-01], 
            "num_sub_elements": 0, 
        },
        "dofmap_0": {
            "needs_mesh_entities_0": 1, 
            "needs_mesh_entities_1": 1, 
            "needs_mesh_entities_2": 0, 
            "global_dimension": 20003, 
            "local_dimension": 6, 
            "geometric_dimension": 2, 
            "num_facet_dofs": 3, 
            "num_entity_dofs_0": 1, 
            "num_entity_dofs_1": 1, 
            "num_entity_dofs_2": 0, 
            "tabulate_dofs": [0, 0, 0, 10001, 10002, 10003], 
            "tabulate_facet_dofs_0": [1, 2, 3], 
            "tabulate_facet_dofs_1": [0, 2, 4], 
            "tabulate_facet_dofs_2": [0, 1, 5], 
            "tabulate_entity_dofs_0_0": [0], 
            "tabulate_entity_dofs_0_1": [1], 
            "tabulate_entity_dofs_0_2": [2], 
            "tabulate_entity_dofs_1_0": [3], 
            "tabulate_entity_dofs_1_1": [4], 
            "tabulate_entity_dofs_1_2": [5], 
            "tabulate_entity_dofs_2_0": [], 
            "tabulate_coordinates_0": [9.0300000000000002e-01, 3.4100000000000003e-01], 
            "tabulate_coordinates_1": [5.6100000000000005e-01, 7.6700000000000002e-01], 
            "tabulate_coordinates_2": [9.8699999999999999e-01, 7.8300000000000003e-01], 
            "tabulate_coordinates_3": [7.7400000000000002e-01, 7.7500000000000002e-01], 
            "tabulate_coordinates_4": [9.4500000000000006e-01, 5.6200000000000006e-01], 
            "tabulate_coordinates_5": [7.3199999999999998e-01, 5.5400000000000005e-01], 
            "num_sub_dofmaps": 0, 
        },
        "dofmap_1": {
            "needs_mesh_entities_0": 0, 
            "needs_mesh_entities_1": 0, 
            "needs_mesh_entities_2": 0, 
            "global_dimension": 1, 
            "local_dimension": 1, 
            "geometric_dimension": 2, 
            "num_facet_dofs": 0, 
            "num_entity_dofs_0": 0, 
            "num_entity_dofs_1": 0, 
            "num_entity_dofs_2": 1, 
            "tabulate_dofs": [0], 
            "tabulate_facet_dofs_0": [], 
            "tabulate_facet_dofs_1": [], 
            "tabulate_facet_dofs_2": [], 
            "tabulate_entity_dofs_0_0": [], 
            "tabulate_entity_dofs_0_1": [], 
            "tabulate_entity_dofs_0_2": [], 
            "tabulate_entity_dofs_1_0": [], 
            "tabulate_entity_dofs_1_1": [], 
            "tabulate_entity_dofs_1_2": [], 
            "tabulate_entity_dofs_2_0": [0], 
            "tabulate_coordinates_0": [8.1699999182999994e-01, 6.3033332703000000e-01], 
            "num_sub_dofmaps": 0, 
        },
        "default_cell_integral": 1, 
        "cell_integral": {
            "tabulate_tensor": [0.0, 0.0, 0.0, 3.1158000311579991e-03, 3.1158000311579991e-03, 3.1158000311579991e-03], 
        },
        "default_exterior_facet_integral": 0, 
        "default_interior_facet_integral": 0, 
        "default_point_integral": 0, 
    },
}
