{
    "form_0": {
        "num_coefficients": 1, 
        "has_cell_integrals": 1, 
        "has_exterior_facet_integrals": 0, 
        "has_interior_facet_integrals": 0, 
        "has_point_integrals": 0, 
        "num_cell_domains": 0, 
        "num_exterior_facet_domains": 0, 
        "num_interior_facet_domains": 0, 
        "num_point_domains": 0, 
        "finite_element_0": {
            "cell_shape": 1, 
            "space_dimension": 3, 
            "value_rank": 0, 
            "evaluate_basis:_0": [1.4718852622922429e+00], 
            "evaluate_basis:_1": [2.0266705413493233e+00], 
            "evaluate_basis:_2": [-2.4985557203629258e+00], 
            "evaluate_basis_all": [1.4718852622922429e+00, 2.0266705413493233e+00, -2.4985557203629258e+00], 
            "evaluate_basis_derivatives_0_0": [1.4718852622922429e+00], 
            "evaluate_basis_derivatives_0_1": [8.5585277568607676e-02, -2.2787085025842555e+00], 
            "evaluate_basis_derivatives_0_2": [0.0, 0.0, 0.0, 0.0], 
            "evaluate_basis_derivatives_1_0": [2.0266705413493233e+00], 
            "evaluate_basis_derivatives_1_1": [-2.3642938479375970e+00, 4.4932274890774304e-01], 
            "evaluate_basis_derivatives_1_2": [0.0, 0.0, 0.0, 0.0], 
            "evaluate_basis_derivatives_2_0": [-2.4985557203629258e+00], 
            "evaluate_basis_derivatives_2_1": [2.2787085020077340e+00, 1.8293856987949413e+00], 
            "evaluate_basis_derivatives_2_2": [0.0, 0.0, 0.0, 0.0], 
            "evaluate_basis_derivatives_all_0": [1.4718852622922429e+00, 2.0266705413493233e+00, -2.4985557203629258e+00], 
            "evaluate_basis_derivatives_all_1": [8.5585277568607676e-02, -2.2787085025842555e+00, -2.3642938479375970e+00, 4.4932274890774304e-01, 2.2787085020077340e+00, 1.8293856987949413e+00], 
            "evaluate_basis_derivatives_all_2": [0.0, 0.0, 0.0, 0.0, 0.0, 0.0, 0.0, 0.0, 0.0, 0.0, 0.0, 0.0], 
            "evaluate_dof_0": 3.0792300000000006e-01, 
            "evaluate_dof_1": 4.3028700000000003e-01, 
            "evaluate_dof_2": 7.7282099999999998e-01, 
            "evaluate_dofs": [3.0792300000000006e-01, 4.3028700000000003e-01, 7.7282099999999998e-01], 
            "interpolate_vertex_values": [3.0792300000000006e-01, 4.3028700000000003e-01, 7.7282099999999998e-01], 
            "num_sub_elements": 0, 
        },
        "finite_element_1": {
            "cell_shape": 1, 
            "space_dimension": 3, 
            "value_rank": 0, 
            "evaluate_basis:_0": [1.4718852622922429e+00], 
            "evaluate_basis:_1": [2.0266705413493233e+00], 
            "evaluate_basis:_2": [-2.4985557203629258e+00], 
            "evaluate_basis_all": [1.4718852622922429e+00, 2.0266705413493233e+00, -2.4985557203629258e+00], 
            "evaluate_basis_derivatives_0_0": [1.4718852622922429e+00], 
            "evaluate_basis_derivatives_0_1": [8.5585277568607676e-02, -2.2787085025842555e+00], 
            "evaluate_basis_derivatives_0_2": [0.0, 0.0, 0.0, 0.0], 
            "evaluate_basis_derivatives_1_0": [2.0266705413493233e+00], 
            "evaluate_basis_derivatives_1_1": [-2.3642938479375970e+00, 4.4932274890774304e-01], 
            "evaluate_basis_derivatives_1_2": [0.0, 0.0, 0.0, 0.0], 
            "evaluate_basis_derivatives_2_0": [-2.4985557203629258e+00], 
            "evaluate_basis_derivatives_2_1": [2.2787085020077340e+00, 1.8293856987949413e+00], 
            "evaluate_basis_derivatives_2_2": [0.0, 0.0, 0.0, 0.0], 
            "evaluate_basis_derivatives_all_0": [1.4718852622922429e+00, 2.0266705413493233e+00, -2.4985557203629258e+00], 
            "evaluate_basis_derivatives_all_1": [8.5585277568607676e-02, -2.2787085025842555e+00, -2.3642938479375970e+00, 4.4932274890774304e-01, 2.2787085020077340e+00, 1.8293856987949413e+00], 
            "evaluate_basis_derivatives_all_2": [0.0, 0.0, 0.0, 0.0, 0.0, 0.0, 0.0, 0.0, 0.0, 0.0, 0.0, 0.0], 
            "evaluate_dof_0": 3.0792300000000006e-01, 
            "evaluate_dof_1": 4.3028700000000003e-01, 
            "evaluate_dof_2": 7.7282099999999998e-01, 
            "evaluate_dofs": [3.0792300000000006e-01, 4.3028700000000003e-01, 7.7282099999999998e-01], 
            "interpolate_vertex_values": [3.0792300000000006e-01, 4.3028700000000003e-01, 7.7282099999999998e-01], 
            "num_sub_elements": 0, 
        },
        "finite_element_2": {
            "cell_shape": 1, 
            "space_dimension": 4, 
            "value_rank": 2, 
            "value_dimension_0": 2, 
            "value_dimension_1": 2, 
            "evaluate_basis:_0": [1.0000000000000000e+00, 0.0, 0.0, 0.0], 
            "evaluate_basis:_1": [0.0, 1.0000000000000000e+00, 0.0, 0.0], 
            "evaluate_basis:_2": [0.0, 0.0, 1.0000000000000000e+00, 0.0], 
            "evaluate_basis:_3": [0.0, 0.0, 0.0, 1.0000000000000000e+00], 
            "evaluate_basis_all": [1.0000000000000000e+00, 0.0, 0.0, 0.0, 0.0, 1.0000000000000000e+00, 0.0, 0.0, 0.0, 0.0, 1.0000000000000000e+00, 0.0, 0.0, 0.0, 0.0, 1.0000000000000000e+00], 
            "evaluate_basis_derivatives_0_0": [1.0000000000000000e+00, 0.0, 0.0, 0.0], 
            "evaluate_basis_derivatives_0_1": [0.0, 0.0, 0.0, 0.0, 0.0, 0.0, 0.0, 0.0], 
            "evaluate_basis_derivatives_0_2": [0.0, 0.0, 0.0, 0.0, 0.0, 0.0, 0.0, 0.0, 0.0, 0.0, 0.0, 0.0, 0.0, 0.0, 0.0, 0.0], 
            "evaluate_basis_derivatives_1_0": [0.0, 1.0000000000000000e+00, 0.0, 0.0], 
            "evaluate_basis_derivatives_1_1": [0.0, 0.0, 0.0, 0.0, 0.0, 0.0, 0.0, 0.0], 
            "evaluate_basis_derivatives_1_2": [0.0, 0.0, 0.0, 0.0, 0.0, 0.0, 0.0, 0.0, 0.0, 0.0, 0.0, 0.0, 0.0, 0.0, 0.0, 0.0], 
            "evaluate_basis_derivatives_2_0": [0.0, 0.0, 1.0000000000000000e+00, 0.0], 
            "evaluate_basis_derivatives_2_1": [0.0, 0.0, 0.0, 0.0, 0.0, 0.0, 0.0, 0.0], 
            "evaluate_basis_derivatives_2_2": [0.0, 0.0, 0.0, 0.0, 0.0, 0.0, 0.0, 0.0, 0.0, 0.0, 0.0, 0.0, 0.0, 0.0, 0.0, 0.0], 
            "evaluate_basis_derivatives_3_0": [0.0, 0.0, 0.0, 1.0000000000000000e+00], 
            "evaluate_basis_derivatives_3_1": [0.0, 0.0, 0.0, 0.0, 0.0, 0.0, 0.0, 0.0], 
            "evaluate_basis_derivatives_3_2": [0.0, 0.0, 0.0, 0.0, 0.0, 0.0, 0.0, 0.0, 0.0, 0.0, 0.0, 0.0, 0.0, 0.0, 0.0, 0.0], 
            "evaluate_basis_derivatives_all_0": [1.0000000000000000e+00, 0.0, 0.0, 0.0, 0.0, 1.0000000000000000e+00, 0.0, 0.0, 0.0, 0.0, 1.0000000000000000e+00, 0.0, 0.0, 0.0, 0.0, 1.0000000000000000e+00], 
            "evaluate_basis_derivatives_all_1": [0.0, 0.0, 0.0, 0.0, 0.0, 0.0, 0.0, 0.0, 0.0, 0.0, 0.0, 0.0, 0.0, 0.0, 0.0, 0.0, 0.0, 0.0, 0.0, 0.0, 0.0, 0.0, 0.0, 0.0, 0.0, 0.0, 0.0, 0.0, 0.0, 0.0, 0.0, 0.0], 
            "evaluate_basis_derivatives_all_2": [0.0, 0.0, 0.0, 0.0, 0.0, 0.0, 0.0, 0.0, 0.0, 0.0, 0.0, 0.0, 0.0, 0.0, 0.0, 0.0, 0.0, 0.0, 0.0, 0.0, 0.0, 0.0, 0.0, 0.0, 0.0, 0.0, 0.0, 0.0, 0.0, 0.0, 0.0, 0.0, 0.0, 0.0, 0.0, 0.0, 0.0, 0.0, 0.0, 0.0, 0.0, 0.0, 0.0, 0.0, 0.0, 0.0, 0.0, 0.0, 0.0, 0.0, 0.0, 0.0, 0.0, 0.0, 0.0, 0.0, 0.0, 0.0, 0.0, 0.0, 0.0, 0.0, 0.0, 0.0], 
            "evaluate_dof_0": 5.1498232303368663e-01, 
            "evaluate_dof_1": 2.0599292921347465e+00, 
            "evaluate_dof_2": 4.6348409073031798e+00, 
            "evaluate_dof_3": 8.2397171685389861e+00, 
            "evaluate_dofs": [5.1498232303368663e-01, 2.0599292921347465e+00, 4.6348409073031798e+00, 8.2397171685389861e+00], 
            "interpolate_vertex_values": [5.1498232303368663e-01, 2.0599292921347465e+00, 4.6348409073031798e+00, 8.2397171685389861e+00, 5.1498232303368663e-01, 2.0599292921347465e+00, 4.6348409073031798e+00, 8.2397171685389861e+00, 5.1498232303368663e-01, 2.0599292921347465e+00, 4.6348409073031798e+00, 8.2397171685389861e+00], 
            "num_sub_elements": 4, 
            "finite_element_0": {
                "cell_shape": 1, 
                "space_dimension": 1, 
                "value_rank": 0, 
                "evaluate_basis:_0": [1.0000000000000000e+00], 
                "evaluate_basis_all": [1.0000000000000000e+00], 
                "evaluate_basis_derivatives_0_0": [1.0000000000000000e+00], 
                "evaluate_basis_derivatives_0_1": [0.0, 0.0], 
                "evaluate_basis_derivatives_0_2": [0.0, 0.0, 0.0, 0.0], 
                "evaluate_basis_derivatives_all_0": [1.0000000000000000e+00], 
                "evaluate_basis_derivatives_all_1": [0.0, 0.0], 
                "evaluate_basis_derivatives_all_2": [0.0, 0.0, 0.0, 0.0], 
                "evaluate_dof_0": 5.1498232303368663e-01, 
                "evaluate_dofs": [5.1498232303368663e-01], 
                "interpolate_vertex_values": [5.1498232303368663e-01, 5.1498232303368663e-01, 5.1498232303368663e-01], 
                "num_sub_elements": 0, 
            },
            "finite_element_1": {
                "cell_shape": 1, 
                "space_dimension": 1, 
                "value_rank": 0, 
                "evaluate_basis:_0": [1.0000000000000000e+00], 
                "evaluate_basis_all": [1.0000000000000000e+00], 
                "evaluate_basis_derivatives_0_0": [1.0000000000000000e+00], 
                "evaluate_basis_derivatives_0_1": [0.0, 0.0], 
                "evaluate_basis_derivatives_0_2": [0.0, 0.0, 0.0, 0.0], 
                "evaluate_basis_derivatives_all_0": [1.0000000000000000e+00], 
                "evaluate_basis_derivatives_all_1": [0.0, 0.0], 
                "evaluate_basis_derivatives_all_2": [0.0, 0.0, 0.0, 0.0], 
                "evaluate_dof_0": 5.1498232303368663e-01, 
                "evaluate_dofs": [5.1498232303368663e-01], 
                "interpolate_vertex_values": [5.1498232303368663e-01, 5.1498232303368663e-01, 5.1498232303368663e-01], 
                "num_sub_elements": 0, 
            },
            "finite_element_2": {
                "cell_shape": 1, 
                "space_dimension": 1, 
                "value_rank": 0, 
                "evaluate_basis:_0": [1.0000000000000000e+00], 
                "evaluate_basis_all": [1.0000000000000000e+00], 
                "evaluate_basis_derivatives_0_0": [1.0000000000000000e+00], 
                "evaluate_basis_derivatives_0_1": [0.0, 0.0], 
                "evaluate_basis_derivatives_0_2": [0.0, 0.0, 0.0, 0.0], 
                "evaluate_basis_derivatives_all_0": [1.0000000000000000e+00], 
                "evaluate_basis_derivatives_all_1": [0.0, 0.0], 
                "evaluate_basis_derivatives_all_2": [0.0, 0.0, 0.0, 0.0], 
                "evaluate_dof_0": 5.1498232303368663e-01, 
                "evaluate_dofs": [5.1498232303368663e-01], 
                "interpolate_vertex_values": [5.1498232303368663e-01, 5.1498232303368663e-01, 5.1498232303368663e-01], 
                "num_sub_elements": 0, 
            },
            "finite_element_3": {
                "cell_shape": 1, 
                "space_dimension": 1, 
                "value_rank": 0, 
                "evaluate_basis:_0": [1.0000000000000000e+00], 
                "evaluate_basis_all": [1.0000000000000000e+00], 
                "evaluate_basis_derivatives_0_0": [1.0000000000000000e+00], 
                "evaluate_basis_derivatives_0_1": [0.0, 0.0], 
                "evaluate_basis_derivatives_0_2": [0.0, 0.0, 0.0, 0.0], 
                "evaluate_basis_derivatives_all_0": [1.0000000000000000e+00], 
                "evaluate_basis_derivatives_all_1": [0.0, 0.0], 
                "evaluate_basis_derivatives_all_2": [0.0, 0.0, 0.0, 0.0], 
                "evaluate_dof_0": 5.1498232303368663e-01, 
                "evaluate_dofs": [5.1498232303368663e-01], 
                "interpolate_vertex_values": [5.1498232303368663e-01, 5.1498232303368663e-01, 5.1498232303368663e-01], 
                "num_sub_elements": 0, 
            },
        },
        "dofmap_0": {
            "needs_mesh_entities_0": 1, 
            "needs_mesh_entities_1": 0, 
            "needs_mesh_entities_2": 0, 
            "global_dimension": 10001, 
            "local_dimension": 3, 
            "geometric_dimension": 2, 
            "num_facet_dofs": 2, 
            "num_entity_dofs_0": 1, 
            "num_entity_dofs_1": 0, 
            "num_entity_dofs_2": 0, 
            "tabulate_dofs": [0, 0, 0], 
            "tabulate_facet_dofs_0": [1, 2], 
            "tabulate_facet_dofs_1": [0, 2], 
            "tabulate_facet_dofs_2": [0, 1], 
            "tabulate_entity_dofs_0_0": [0], 
            "tabulate_entity_dofs_0_1": [1], 
            "tabulate_entity_dofs_0_2": [2], 
            "tabulate_entity_dofs_1_0": [], 
            "tabulate_entity_dofs_1_1": [], 
            "tabulate_entity_dofs_1_2": [], 
            "tabulate_entity_dofs_2_0": [], 
            "tabulate_coordinates_0": [9.0300000000000002e-01, 3.4100000000000003e-01], 
            "tabulate_coordinates_1": [5.6100000000000005e-01, 7.6700000000000002e-01], 
            "tabulate_coordinates_2": [9.8699999999999999e-01, 7.8300000000000003e-01], 
            "num_sub_dofmaps": 0, 
        },
        "dofmap_1": {
            "needs_mesh_entities_0": 1, 
            "needs_mesh_entities_1": 0, 
            "needs_mesh_entities_2": 0, 
            "global_dimension": 10001, 
            "local_dimension": 3, 
            "geometric_dimension": 2, 
            "num_facet_dofs": 2, 
            "num_entity_dofs_0": 1, 
            "num_entity_dofs_1": 0, 
            "num_entity_dofs_2": 0, 
            "tabulate_dofs": [0, 0, 0], 
            "tabulate_facet_dofs_0": [1, 2], 
            "tabulate_facet_dofs_1": [0, 2], 
            "tabulate_facet_dofs_2": [0, 1], 
            "tabulate_entity_dofs_0_0": [0], 
            "tabulate_entity_dofs_0_1": [1], 
            "tabulate_entity_dofs_0_2": [2], 
            "tabulate_entity_dofs_1_0": [], 
            "tabulate_entity_dofs_1_1": [], 
            "tabulate_entity_dofs_1_2": [], 
            "tabulate_entity_dofs_2_0": [], 
            "tabulate_coordinates_0": [9.0300000000000002e-01, 3.4100000000000003e-01], 
            "tabulate_coordinates_1": [5.6100000000000005e-01, 7.6700000000000002e-01], 
            "tabulate_coordinates_2": [9.8699999999999999e-01, 7.8300000000000003e-01], 
            "num_sub_dofmaps": 0, 
        },
        "dofmap_2": {
            "needs_mesh_entities_0": 0, 
            "needs_mesh_entities_1": 0, 
            "needs_mesh_entities_2": 1, 
            "global_dimension": 40012, 
            "local_dimension": 4, 
            "geometric_dimension": 2, 
            "num_facet_dofs": 0, 
            "num_entity_dofs_0": 0, 
            "num_entity_dofs_1": 0, 
            "num_entity_dofs_2": 4, 
            "tabulate_dofs": [0, 10003, 20006, 30009], 
            "tabulate_facet_dofs_0": [], 
            "tabulate_facet_dofs_1": [], 
            "tabulate_facet_dofs_2": [], 
            "tabulate_entity_dofs_0_0": [], 
            "tabulate_entity_dofs_0_1": [], 
            "tabulate_entity_dofs_0_2": [], 
            "tabulate_entity_dofs_1_0": [], 
            "tabulate_entity_dofs_1_1": [], 
            "tabulate_entity_dofs_1_2": [], 
            "tabulate_entity_dofs_2_0": [0, 1, 2, 3], 
            "tabulate_coordinates_0": [8.1699999182999994e-01, 6.3033332703000000e-01], 
            "tabulate_coordinates_1": [8.1699999182999994e-01, 6.3033332703000000e-01], 
            "tabulate_coordinates_2": [8.1699999182999994e-01, 6.3033332703000000e-01], 
            "tabulate_coordinates_3": [8.1699999182999994e-01, 6.3033332703000000e-01], 
            "num_sub_dofmaps": 4, 
            "dofmap_0": {
                "needs_mesh_entities_0": 0, 
                "needs_mesh_entities_1": 0, 
                "needs_mesh_entities_2": 1, 
                "global_dimension": 10003, 
                "local_dimension": 1, 
                "geometric_dimension": 2, 
                "num_facet_dofs": 0, 
                "num_entity_dofs_0": 0, 
                "num_entity_dofs_1": 0, 
                "num_entity_dofs_2": 1, 
                "tabulate_dofs": [0], 
                "tabulate_facet_dofs_0": [], 
                "tabulate_facet_dofs_1": [], 
                "tabulate_facet_dofs_2": [], 
                "tabulate_entity_dofs_0_0": [], 
                "tabulate_entity_dofs_0_1": [], 
                "tabulate_entity_dofs_0_2": [], 
                "tabulate_entity_dofs_1_0": [], 
                "tabulate_entity_dofs_1_1": [], 
                "tabulate_entity_dofs_1_2": [], 
                "tabulate_entity_dofs_2_0": [0], 
                "tabulate_coordinates_0": [8.1699999182999994e-01, 6.3033332703000000e-01], 
                "num_sub_dofmaps": 0, 
            },
            "dofmap_1": {
                "needs_mesh_entities_0": 0, 
                "needs_mesh_entities_1": 0, 
                "needs_mesh_entities_2": 1, 
                "global_dimension": 10003, 
                "local_dimension": 1, 
                "geometric_dimension": 2, 
                "num_facet_dofs": 0, 
                "num_entity_dofs_0": 0, 
                "num_entity_dofs_1": 0, 
                "num_entity_dofs_2": 1, 
                "tabulate_dofs": [0], 
                "tabulate_facet_dofs_0": [], 
                "tabulate_facet_dofs_1": [], 
                "tabulate_facet_dofs_2": [], 
                "tabulate_entity_dofs_0_0": [], 
                "tabulate_entity_dofs_0_1": [], 
                "tabulate_entity_dofs_0_2": [], 
                "tabulate_entity_dofs_1_0": [], 
                "tabulate_entity_dofs_1_1": [], 
                "tabulate_entity_dofs_1_2": [], 
                "tabulate_entity_dofs_2_0": [0], 
                "tabulate_coordinates_0": [8.1699999182999994e-01, 6.3033332703000000e-01], 
                "num_sub_dofmaps": 0, 
            },
            "dofmap_2": {
                "needs_mesh_entities_0": 0, 
                "needs_mesh_entities_1": 0, 
                "needs_mesh_entities_2": 1, 
                "global_dimension": 10003, 
                "local_dimension": 1, 
                "geometric_dimension": 2, 
                "num_facet_dofs": 0, 
                "num_entity_dofs_0": 0, 
                "num_entity_dofs_1": 0, 
                "num_entity_dofs_2": 1, 
                "tabulate_dofs": [0], 
                "tabulate_facet_dofs_0": [], 
                "tabulate_facet_dofs_1": [], 
                "tabulate_facet_dofs_2": [], 
                "tabulate_entity_dofs_0_0": [], 
                "tabulate_entity_dofs_0_1": [], 
                "tabulate_entity_dofs_0_2": [], 
                "tabulate_entity_dofs_1_0": [], 
                "tabulate_entity_dofs_1_1": [], 
                "tabulate_entity_dofs_1_2": [], 
                "tabulate_entity_dofs_2_0": [0], 
                "tabulate_coordinates_0": [8.1699999182999994e-01, 6.3033332703000000e-01], 
                "num_sub_dofmaps": 0, 
            },
            "dofmap_3": {
                "needs_mesh_entities_0": 0, 
                "needs_mesh_entities_1": 0, 
                "needs_mesh_entities_2": 1, 
                "global_dimension": 10003, 
                "local_dimension": 1, 
                "geometric_dimension": 2, 
                "num_facet_dofs": 0, 
                "num_entity_dofs_0": 0, 
                "num_entity_dofs_1": 0, 
                "num_entity_dofs_2": 1, 
                "tabulate_dofs": [0], 
                "tabulate_facet_dofs_0": [], 
                "tabulate_facet_dofs_1": [], 
                "tabulate_facet_dofs_2": [], 
                "tabulate_entity_dofs_0_0": [], 
                "tabulate_entity_dofs_0_1": [], 
                "tabulate_entity_dofs_0_2": [], 
                "tabulate_entity_dofs_1_0": [], 
                "tabulate_entity_dofs_1_1": [], 
                "tabulate_entity_dofs_1_2": [], 
                "tabulate_entity_dofs_2_0": [0], 
                "tabulate_coordinates_0": [8.1699999182999994e-01, 6.3033332703000000e-01], 
                "num_sub_dofmaps": 0, 
            },
        },
        "default_cell_integral": 1, 
        "cell_integral": {
            "tabulate_tensor": [1.8509959988873903e-01, 1.1162355307358202e-01, -2.9672315296232105e-01, 6.1623553073581978e-02, 1.0149346342298422e-02, -7.1772899415880401e-02, -2.4672315296232100e-01, -1.2177289941588043e-01, 3.6849605237820143e-01], 
        },
        "default_exterior_facet_integral": 0, 
        "default_interior_facet_integral": 0, 
        "default_point_integral": 0, 
    },
}
