{
    "finite_element_0": {
        "cell_shape": 1, 
        "space_dimension": 8, 
        "value_rank": 1, 
        "value_dimension_0": 2, 
        "evaluate_basis:_0": [-1.3779619440757831e+01, 3.0619277575697247e+01], 
        "evaluate_basis:_1": [2.0080285712498487e+01, -5.4227177294739221e+01], 
        "evaluate_basis:_2": [1.4083953568652207e+01, -1.7359347526771010e+01], 
        "evaluate_basis:_3": [-3.9439435027283992e+01, 3.8685325027939591e+01], 
        "evaluate_basis:_4": [-1.4376283451061081e+01, 2.5142631246479770e+01], 
        "evaluate_basis:_5": [-2.5790259348724444e+01, 3.2901842626080040e+01], 
        "evaluate_basis:_6": [8.8205832914444329e+01, -1.6240609968480490e+02], 
        "evaluate_basis:_7": [4.2667046663842598e+01, 8.2226156103593162e+00], 
        "evaluate_basis_all": [-1.3779619440757831e+01, 3.0619277575697247e+01, 2.0080285712498487e+01, -5.4227177294739221e+01, 1.4083953568652207e+01, -1.7359347526771010e+01, -3.9439435027283992e+01, 3.8685325027939591e+01, -1.4376283451061081e+01, 2.5142631246479770e+01, -2.5790259348724444e+01, 3.2901842626080040e+01, 8.8205832914444329e+01, -1.6240609968480490e+02, 4.2667046663842598e+01, 8.2226156103593162e+00], 
        "evaluate_basis_derivatives_0_0": [-1.3779619440757831e+01, 3.0619277575697247e+01], 
        "evaluate_basis_derivatives_0_1": [1.7579052511792625e+01, 3.4673404629654108e+01, -7.9369251891920058e+01, 7.8593278567271474e+00], 
        "evaluate_basis_derivatives_0_2": [-6.5295279160792030e-07, -5.0587198986869524e+01, -5.0587197975862544e+01, 1.9227711843451225e+01, 1.0117439546217240e+02, -9.6138567084073898e+00, -9.6138563295528972e+00, -3.2969461682326822e-07], 
        "evaluate_basis_derivatives_1_0": [2.0080285712498487e+01, -5.4227177294739221e+01], 
        "evaluate_basis_derivatives_1_1": [-1.7137726355613772e+01, -7.2567446413909565e+01, 1.0385952185183510e+02, 3.6167328352841437e+01], 
        "evaluate_basis_derivatives_1_2": [-2.9475977072479509e-06, 4.8755984139314101e+01, 4.8755984559444990e+01, 7.8284258460746457e+01, -9.7511973852029570e+01, -3.9142130686493680e+01, -3.9142130349205495e+01, -2.7102370125930975e-07], 
        "evaluate_basis_derivatives_2_0": [1.4083953568652207e+01, -1.7359347526771010e+01], 
        "evaluate_basis_derivatives_2_1": [1.0263924721772142e+00, -5.3471583773709241e+01, 2.4959974884681500e+01, 3.1520745267003971e+01], 
        "evaluate_basis_derivatives_2_2": [8.5574167485447106e-07, -1.8312112699687759e+00, -1.8312098388308726e+00, 9.7511973176344725e+01, 3.6624222020472708e+00, -4.8755986919710153e+01, -4.8755986203567488e+01, -2.1922702941878924e-07], 
        "evaluate_basis_derivatives_3_0": [-3.9439435027283992e+01, 3.8685325027939591e+01], 
        "evaluate_basis_derivatives_3_1": [3.2715263931237907e+01, 8.5073356861945840e+01, -9.1353611403798823e+01, -2.6127372077657391e+01], 
        "evaluate_basis_derivatives_3_2": [2.9475977072479509e-06, -4.8755984139314101e+01, -4.8755984559444990e+01, -7.8284258460746457e+01, 9.7511973852029570e+01, 3.9142130686493680e+01, 3.9142130349205495e+01, 2.7102370125930975e-07], 
        "evaluate_basis_derivatives_4_0": [-1.4376283451061081e+01, 2.5142631246479770e+01], 
        "evaluate_basis_derivatives_4_1": [-1.0483671060404163e+00, 5.4056655712894717e+01, -2.4374902910145888e+01, -4.7098282694636694e+01], 
        "evaluate_basis_derivatives_4_2": [-8.5574167485447106e-07, 1.8312112699687759e+00, 1.8312098388308726e+00, -9.7511973176344725e+01, -3.6624222020472708e+00, 4.8755986919710153e+01, 4.8755986203567488e+01, 2.1922702941878924e-07], 
        "evaluate_basis_derivatives_5_0": [-2.5790259348724444e+01, 3.2901842626080040e+01], 
        "evaluate_basis_derivatives_5_1": [3.4348708510575634e+01, 3.1486411288836841e+01, -8.2556245339652577e+01, 8.4650007993259049e+00], 
        "evaluate_basis_derivatives_5_2": [-6.5295279160792030e-07, -5.0587198986869524e+01, -5.0587197975862544e+01, 1.9227711843451225e+01, 1.0117439546217240e+02, -9.6138567084073898e+00, -9.6138563295528972e+00, -3.2969461682326822e-07], 
        "evaluate_basis_derivatives_6_0": [8.8205832914444329e+01, -1.6240609968480490e+02], 
        "evaluate_basis_derivatives_6_1": [-6.5718034318757532e+01, -2.4687422038095951e+02, 2.6284283335102486e+02, 1.6531987395465777e+02], 
        "evaluate_basis_derivatives_6_2": [-1.2854213196078490e-06, 9.3849548065487483e+01, 9.3849551768024980e+01, 3.5159246514217415e+02, -1.8769910097316779e+02, -1.7579623334441587e+02, -1.7579623123755414e+02, 5.1915393584067715e-07], 
        "evaluate_basis_derivatives_7_0": [4.2667046663842598e+01, 8.2226156103593162e+00], 
        "evaluate_basis_derivatives_7_1": [-6.8365963001556423e+01, 1.2584536594900387e+01, 8.3806732957273809e+01, -9.8840057968461934e+01], 
        "evaluate_basis_derivatives_7_2": [-2.4058605845311831e-06, 1.0483681943730119e+02, 1.0483681455301161e+02, -2.3347936635214808e+02, -2.0967363415439414e+02, 1.1673968596021638e+02, 1.1673968377022206e+02, 1.5730430398264161e-06], 
        "evaluate_basis_derivatives_all_0": [-1.3779619440757831e+01, 3.0619277575697247e+01, 2.0080285712498487e+01, -5.4227177294739221e+01, 1.4083953568652207e+01, -1.7359347526771010e+01, -3.9439435027283992e+01, 3.8685325027939591e+01, -1.4376283451061081e+01, 2.5142631246479770e+01, -2.5790259348724444e+01, 3.2901842626080040e+01, 8.8205832914444329e+01, -1.6240609968480490e+02, 4.2667046663842598e+01, 8.2226156103593162e+00], 
        "evaluate_basis_derivatives_all_1": [1.7579052511792625e+01, 3.4673404629654108e+01, -7.9369251891920058e+01, 7.8593278567271474e+00, -1.7137726355613772e+01, -7.2567446413909565e+01, 1.0385952185183510e+02, 3.6167328352841437e+01, 1.0263924721772142e+00, -5.3471583773709241e+01, 2.4959974884681500e+01, 3.1520745267003971e+01, 3.2715263931237907e+01, 8.5073356861945840e+01, -9.1353611403798823e+01, -2.6127372077657391e+01, -1.0483671060404163e+00, 5.4056655712894717e+01, -2.4374902910145888e+01, -4.7098282694636694e+01, 3.4348708510575634e+01, 3.1486411288836841e+01, -8.2556245339652577e+01, 8.4650007993259049e+00, -6.5718034318757532e+01, -2.4687422038095951e+02, 2.6284283335102486e+02, 1.6531987395465777e+02, -6.8365963001556423e+01, 1.2584536594900387e+01, 8.3806732957273809e+01, -9.8840057968461934e+01], 
        "evaluate_basis_derivatives_all_2": [-6.5295279160792030e-07, -5.0587198986869524e+01, -5.0587197975862544e+01, 1.9227711843451225e+01, 1.0117439546217240e+02, -9.6138567084073898e+00, -9.6138563295528972e+00, -3.2969461682326822e-07, -2.9475977072479509e-06, 4.8755984139314101e+01, 4.8755984559444990e+01, 7.8284258460746457e+01, -9.7511973852029570e+01, -3.9142130686493680e+01, -3.9142130349205495e+01, -2.7102370125930975e-07, 8.5574167485447106e-07, -1.8312112699687759e+00, -1.8312098388308726e+00, 9.7511973176344725e+01, 3.6624222020472708e+00, -4.8755986919710153e+01, -4.8755986203567488e+01, -2.1922702941878924e-07, 2.9475977072479509e-06, -4.8755984139314101e+01, -4.8755984559444990e+01, -7.8284258460746457e+01, 9.7511973852029570e+01, 3.9142130686493680e+01, 3.9142130349205495e+01, 2.7102370125930975e-07, -8.5574167485447106e-07, 1.8312112699687759e+00, 1.8312098388308726e+00, -9.7511973176344725e+01, -3.6624222020472708e+00, 4.8755986919710153e+01, 4.8755986203567488e+01, 2.1922702941878924e-07, -6.5295279160792030e-07, -5.0587198986869524e+01, -5.0587197975862544e+01, 1.9227711843451225e+01, 1.0117439546217240e+02, -9.6138567084073898e+00, -9.6138563295528972e+00, -3.2969461682326822e-07, -1.2854213196078490e-06, 9.3849548065487483e+01, 9.3849551768024980e+01, 3.5159246514217415e+02, -1.8769910097316779e+02, -1.7579623334441587e+02, -1.7579623123755414e+02, 5.1915393584067715e-07, -2.4058605845311831e-06, 1.0483681943730119e+02, 1.0483681455301161e+02, -2.3347936635214808e+02, -2.0967363415439414e+02, 1.1673968596021638e+02, 1.1673968377022206e+02, 1.5730430398264161e-06], 
        "evaluate_dof_0": 2.6604566277757202e-01, 
        "evaluate_dof_1": 3.2199288389651648e-01, 
        "evaluate_dof_2": 8.4199019053976432e-01, 
        "evaluate_dof_3": 1.1289872282797049e+00, 
        "evaluate_dof_4": 5.1904049322398682e-01, 
        "evaluate_dof_5": 5.7459375033505211e-01, 
        "evaluate_dof_6": 3.4877823600001973e-01, 
        "evaluate_dof_7": 4.7425645600002692e-01, 
        "evaluate_dofs": [2.6604566277757202e-01, 3.2199288389651648e-01, 8.4199019053976432e-01, 1.1289872282797049e+00, 5.1904049322398682e-01, 5.7459375033505211e-01, 3.4877823600001973e-01, 4.7425645600002692e-01], 
        "interpolate_vertex_values": [1.6884761928885905e-01, 1.2235519293655193e+00, 4.2482179016324023e-01, 1.8202724405679476e+00, 7.7237401930226257e-01, 3.0567982995435639e+00], 
        "num_sub_elements": 0, 
    },
}
