{
    "finite_element_0": {
        "cell_shape": 0, 
        "space_dimension": 3, 
        "value_rank": 0, 
        "evaluate_basis:_0": [8.8768550517695033e-01], 
        "evaluate_basis:_1": [2.8108408070781050e+00], 
        "evaluate_basis:_2": [-2.6985263139330868e+00], 
        "evaluate_basis_all": [8.8768550517695033e-01, 2.8108408070781050e+00, -2.6985263139330868e+00], 
        "evaluate_basis_derivatives_0_0": [8.8768550517695033e-01], 
        "evaluate_basis_derivatives_0_1": [-2.2132851622870207e+00, 2.7568990617961133e+00, 2.4333193597073675e+00], 
        "evaluate_basis_derivatives_0_2": [2.4186339888401935e+00, -3.0126844422395398e+00, -2.6590829818827855e+00, -3.0126844422395398e+00, 3.7526420245439880e+00, 3.3121910826961014e+00, -2.6590829818827855e+00, 3.3121910826961014e+00, 2.9234362607834132e+00], 
        "evaluate_basis_derivatives_1_0": [2.8108408070781050e+00], 
        "evaluate_basis_derivatives_1_1": [-3.7684809628804810e+00, 4.6940727783248102e+00, 4.1431252691317564e+00], 
        "evaluate_basis_derivatives_1_2": [2.4186339888401935e+00, -3.0126844422395398e+00, -2.6590829818827855e+00, -3.0126844422395398e+00, 3.7526420245439880e+00, 3.3121910826961014e+00, -2.6590829818827855e+00, 3.3121910826961014e+00, 2.9234362607834132e+00], 
        "evaluate_basis_derivatives_2_0": [-2.6985263139330868e+00], 
        "evaluate_basis_derivatives_2_1": [5.9817661251675016e+00, -7.4509718401209231e+00, -6.5764446288391234e+00], 
        "evaluate_basis_derivatives_2_2": [-4.8372679776803871e+00, 6.0253688844790796e+00, 5.3181659637655709e+00, 6.0253688844790796e+00, -7.5052840490879760e+00, -6.6243821653922028e+00, 5.3181659637655709e+00, -6.6243821653922028e+00, -5.8468725215668265e+00], 
        "evaluate_basis_derivatives_all_0": [8.8768550517695033e-01, 2.8108408070781050e+00, -2.6985263139330868e+00], 
        "evaluate_basis_derivatives_all_1": [-2.2132851622870207e+00, 2.7568990617961133e+00, 2.4333193597073675e+00, -3.7684809628804810e+00, 4.6940727783248102e+00, 4.1431252691317564e+00, 5.9817661251675016e+00, -7.4509718401209231e+00, -6.5764446288391234e+00], 
        "evaluate_basis_derivatives_all_2": [2.4186339888401935e+00, -3.0126844422395398e+00, -2.6590829818827855e+00, -3.0126844422395398e+00, 3.7526420245439880e+00, 3.3121910826961014e+00, -2.6590829818827855e+00, 3.3121910826961014e+00, 2.9234362607834132e+00, 2.4186339888401935e+00, -3.0126844422395398e+00, -2.6590829818827855e+00, -3.0126844422395398e+00, 3.7526420245439880e+00, 3.3121910826961014e+00, -2.6590829818827855e+00, 3.3121910826961014e+00, 2.9234362607834132e+00, -4.8372679776803871e+00, 6.0253688844790796e+00, 5.3181659637655709e+00, 6.0253688844790796e+00, -7.5052840490879760e+00, -6.6243821653922028e+00, 5.3181659637655709e+00, -6.6243821653922028e+00, -5.8468725215668265e+00], 
        "evaluate_dof_0": 1.4072081100000003e-01, 
        "evaluate_dof_1": 3.5842907099999999e-01, 
        "evaluate_dof_2": 2.6156556000000003e-01, 
        "evaluate_dofs": [1.4072081100000003e-01, 3.5842907099999999e-01, 2.6156556000000003e-01], 
        "interpolate_vertex_values": [1.4072081100000003e-01, 3.5842907099999999e-01], 
        "num_sub_elements": 0, 
    },
    "finite_element_1": {
        "cell_shape": 0, 
        "space_dimension": 9, 
        "value_rank": 1, 
        "value_dimension_0": 3, 
        "evaluate_basis:_0": [8.8768550517695033e-01, 0.0, 0.0], 
        "evaluate_basis:_1": [2.8108408070781050e+00, 0.0, 0.0], 
        "evaluate_basis:_2": [-2.6985263139330868e+00, 0.0, 0.0], 
        "evaluate_basis:_3": [0.0, 8.8768550517695033e-01, 0.0], 
        "evaluate_basis:_4": [0.0, 2.8108408070781050e+00, 0.0], 
        "evaluate_basis:_5": [0.0, -2.6985263139330868e+00, 0.0], 
        "evaluate_basis:_6": [0.0, 0.0, 8.8768550517695033e-01], 
        "evaluate_basis:_7": [0.0, 0.0, 2.8108408070781050e+00], 
        "evaluate_basis:_8": [0.0, 0.0, -2.6985263139330868e+00], 
        "evaluate_basis_all": [8.8768550517695033e-01, 0.0, 0.0, 2.8108408070781050e+00, 0.0, 0.0, -2.6985263139330868e+00, 0.0, 0.0, 0.0, 8.8768550517695033e-01, 0.0, 0.0, 2.8108408070781050e+00, 0.0, 0.0, -2.6985263139330868e+00, 0.0, 0.0, 0.0, 8.8768550517695033e-01, 0.0, 0.0, 2.8108408070781050e+00, 0.0, 0.0, -2.6985263139330868e+00], 
        "evaluate_basis_derivatives_0_0": [8.8768550517695033e-01, 0.0, 0.0], 
        "evaluate_basis_derivatives_0_1": [-2.2132851622870207e+00, 2.7568990617961133e+00, 2.4333193597073675e+00, 0.0, 0.0, 0.0, 0.0, 0.0, 0.0], 
        "evaluate_basis_derivatives_0_2": [2.4186339888401935e+00, -3.0126844422395398e+00, -2.6590829818827855e+00, -3.0126844422395398e+00, 3.7526420245439880e+00, 3.3121910826961014e+00, -2.6590829818827855e+00, 3.3121910826961014e+00, 2.9234362607834132e+00, 0.0, 0.0, 0.0, 0.0, 0.0, 0.0, 0.0, 0.0, 0.0, 0.0, 0.0, 0.0, 0.0, 0.0, 0.0, 0.0, 0.0, 0.0], 
        "evaluate_basis_derivatives_1_0": [2.8108408070781050e+00, 0.0, 0.0], 
        "evaluate_basis_derivatives_1_1": [-3.7684809628804810e+00, 4.6940727783248102e+00, 4.1431252691317564e+00, 0.0, 0.0, 0.0, 0.0, 0.0, 0.0], 
        "evaluate_basis_derivatives_1_2": [2.4186339888401935e+00, -3.0126844422395398e+00, -2.6590829818827855e+00, -3.0126844422395398e+00, 3.7526420245439880e+00, 3.3121910826961014e+00, -2.6590829818827855e+00, 3.3121910826961014e+00, 2.9234362607834132e+00, 0.0, 0.0, 0.0, 0.0, 0.0, 0.0, 0.0, 0.0, 0.0, 0.0, 0.0, 0.0, 0.0, 0.0, 0.0, 0.0, 0.0, 0.0], 
        "evaluate_basis_derivatives_2_0": [-2.6985263139330868e+00, 0.0, 0.0], 
        "evaluate_basis_derivatives_2_1": [5.9817661251675016e+00, -7.4509718401209231e+00, -6.5764446288391234e+00, 0.0, 0.0, 0.0, 0.0, 0.0, 0.0], 
        "evaluate_basis_derivatives_2_2": [-4.8372679776803871e+00, 6.0253688844790796e+00, 5.3181659637655709e+00, 6.0253688844790796e+00, -7.5052840490879760e+00, -6.6243821653922028e+00, 5.3181659637655709e+00, -6.6243821653922028e+00, -5.8468725215668265e+00, 0.0, 0.0, 0.0, 0.0, 0.0, 0.0, 0.0, 0.0, 0.0, 0.0, 0.0, 0.0, 0.0, 0.0, 0.0, 0.0, 0.0, 0.0], 
        "evaluate_basis_derivatives_3_0": [0.0, 8.8768550517695033e-01, 0.0], 
        "evaluate_basis_derivatives_3_1": [0.0, 0.0, 0.0, -2.2132851622870207e+00, 2.7568990617961133e+00, 2.4333193597073675e+00, 0.0, 0.0, 0.0], 
        "evaluate_basis_derivatives_3_2": [0.0, 0.0, 0.0, 0.0, 0.0, 0.0, 0.0, 0.0, 0.0, 2.4186339888401935e+00, -3.0126844422395398e+00, -2.6590829818827855e+00, -3.0126844422395398e+00, 3.7526420245439880e+00, 3.3121910826961014e+00, -2.6590829818827855e+00, 3.3121910826961014e+00, 2.9234362607834132e+00, 0.0, 0.0, 0.0, 0.0, 0.0, 0.0, 0.0, 0.0, 0.0], 
        "evaluate_basis_derivatives_4_0": [0.0, 2.8108408070781050e+00, 0.0], 
        "evaluate_basis_derivatives_4_1": [0.0, 0.0, 0.0, -3.7684809628804810e+00, 4.6940727783248102e+00, 4.1431252691317564e+00, 0.0, 0.0, 0.0], 
        "evaluate_basis_derivatives_4_2": [0.0, 0.0, 0.0, 0.0, 0.0, 0.0, 0.0, 0.0, 0.0, 2.4186339888401935e+00, -3.0126844422395398e+00, -2.6590829818827855e+00, -3.0126844422395398e+00, 3.7526420245439880e+00, 3.3121910826961014e+00, -2.6590829818827855e+00, 3.3121910826961014e+00, 2.9234362607834132e+00, 0.0, 0.0, 0.0, 0.0, 0.0, 0.0, 0.0, 0.0, 0.0], 
        "evaluate_basis_derivatives_5_0": [0.0, -2.6985263139330868e+00, 0.0], 
        "evaluate_basis_derivatives_5_1": [0.0, 0.0, 0.0, 5.9817661251675016e+00, -7.4509718401209231e+00, -6.5764446288391234e+00, 0.0, 0.0, 0.0], 
        "evaluate_basis_derivatives_5_2": [0.0, 0.0, 0.0, 0.0, 0.0, 0.0, 0.0, 0.0, 0.0, -4.8372679776803871e+00, 6.0253688844790796e+00, 5.3181659637655709e+00, 6.0253688844790796e+00, -7.5052840490879760e+00, -6.6243821653922028e+00, 5.3181659637655709e+00, -6.6243821653922028e+00, -5.8468725215668265e+00, 0.0, 0.0, 0.0, 0.0, 0.0, 0.0, 0.0, 0.0, 0.0], 
        "evaluate_basis_derivatives_6_0": [0.0, 0.0, 8.8768550517695033e-01], 
        "evaluate_basis_derivatives_6_1": [0.0, 0.0, 0.0, 0.0, 0.0, 0.0, -2.2132851622870207e+00, 2.7568990617961133e+00, 2.4333193597073675e+00], 
        "evaluate_basis_derivatives_6_2": [0.0, 0.0, 0.0, 0.0, 0.0, 0.0, 0.0, 0.0, 0.0, 0.0, 0.0, 0.0, 0.0, 0.0, 0.0, 0.0, 0.0, 0.0, 2.4186339888401935e+00, -3.0126844422395398e+00, -2.6590829818827855e+00, -3.0126844422395398e+00, 3.7526420245439880e+00, 3.3121910826961014e+00, -2.6590829818827855e+00, 3.3121910826961014e+00, 2.9234362607834132e+00], 
        "evaluate_basis_derivatives_7_0": [0.0, 0.0, 2.8108408070781050e+00], 
        "evaluate_basis_derivatives_7_1": [0.0, 0.0, 0.0, 0.0, 0.0, 0.0, -3.7684809628804810e+00, 4.6940727783248102e+00, 4.1431252691317564e+00], 
        "evaluate_basis_derivatives_7_2": [0.0, 0.0, 0.0, 0.0, 0.0, 0.0, 0.0, 0.0, 0.0, 0.0, 0.0, 0.0, 0.0, 0.0, 0.0, 0.0, 0.0, 0.0, 2.4186339888401935e+00, -3.0126844422395398e+00, -2.6590829818827855e+00, -3.0126844422395398e+00, 3.7526420245439880e+00, 3.3121910826961014e+00, -2.6590829818827855e+00, 3.3121910826961014e+00, 2.9234362607834132e+00], 
        "evaluate_basis_derivatives_8_0": [0.0, 0.0, -2.6985263139330868e+00], 
        "evaluate_basis_derivatives_8_1": [0.0, 0.0, 0.0, 0.0, 0.0, 0.0, 5.9817661251675016e+00, -7.4509718401209231e+00, -6.5764446288391234e+00], 
        "evaluate_basis_derivatives_8_2": [0.0, 0.0, 0.0, 0.0, 0.0, 0.0, 0.0, 0.0, 0.0, 0.0, 0.0, 0.0, 0.0, 0.0, 0.0, 0.0, 0.0, 0.0, -4.8372679776803871e+00, 6.0253688844790796e+00, 5.3181659637655709e+00, 6.0253688844790796e+00, -7.5052840490879760e+00, -6.6243821653922028e+00, 5.3181659637655709e+00, -6.6243821653922028e+00, -5.8468725215668265e+00], 
        "evaluate_basis_derivatives_all_0": [8.8768550517695033e-01, 0.0, 0.0, 2.8108408070781050e+00, 0.0, 0.0, -2.6985263139330868e+00, 0.0, 0.0, 0.0, 8.8768550517695033e-01, 0.0, 0.0, 2.8108408070781050e+00, 0.0, 0.0, -2.6985263139330868e+00, 0.0, 0.0, 0.0, 8.8768550517695033e-01, 0.0, 0.0, 2.8108408070781050e+00, 0.0, 0.0, -2.6985263139330868e+00], 
        "evaluate_basis_derivatives_all_1": [-2.2132851622870207e+00, 2.7568990617961133e+00, 2.4333193597073675e+00, 0.0, 0.0, 0.0, 0.0, 0.0, 0.0, -3.7684809628804810e+00, 4.6940727783248102e+00, 4.1431252691317564e+00, 0.0, 0.0, 0.0, 0.0, 0.0, 0.0, 5.9817661251675016e+00, -7.4509718401209231e+00, -6.5764446288391234e+00, 0.0, 0.0, 0.0, 0.0, 0.0, 0.0, 0.0, 0.0, 0.0, -2.2132851622870207e+00, 2.7568990617961133e+00, 2.4333193597073675e+00, 0.0, 0.0, 0.0, 0.0, 0.0, 0.0, -3.7684809628804810e+00, 4.6940727783248102e+00, 4.1431252691317564e+00, 0.0, 0.0, 0.0, 0.0, 0.0, 0.0, 5.9817661251675016e+00, -7.4509718401209231e+00, -6.5764446288391234e+00, 0.0, 0.0, 0.0, 0.0, 0.0, 0.0, 0.0, 0.0, 0.0, -2.2132851622870207e+00, 2.7568990617961133e+00, 2.4333193597073675e+00, 0.0, 0.0, 0.0, 0.0, 0.0, 0.0, -3.7684809628804810e+00, 4.6940727783248102e+00, 4.1431252691317564e+00, 0.0, 0.0, 0.0, 0.0, 0.0, 0.0, 5.9817661251675016e+00, -7.4509718401209231e+00, -6.5764446288391234e+00], 
        "evaluate_basis_derivatives_all_2": [2.4186339888401935e+00, -3.0126844422395398e+00, -2.6590829818827855e+00, -3.0126844422395398e+00, 3.7526420245439880e+00, 3.3121910826961014e+00, -2.6590829818827855e+00, 3.3121910826961014e+00, 2.9234362607834132e+00, 0.0, 0.0, 0.0, 0.0, 0.0, 0.0, 0.0, 0.0, 0.0, 0.0, 0.0, 0.0, 0.0, 0.0, 0.0, 0.0, 0.0, 0.0, 2.4186339888401935e+00, -3.0126844422395398e+00, -2.6590829818827855e+00, -3.0126844422395398e+00, 3.7526420245439880e+00, 3.3121910826961014e+00, -2.6590829818827855e+00, 3.3121910826961014e+00, 2.9234362607834132e+00, 0.0, 0.0, 0.0, 0.0, 0.0, 0.0, 0.0, 0.0, 0.0, 0.0, 0.0, 0.0, 0.0, 0.0, 0.0, 0.0, 0.0, 0.0, -4.8372679776803871e+00, 6.0253688844790796e+00, 5.3181659637655709e+00, 6.0253688844790796e+00, -7.5052840490879760e+00, -6.6243821653922028e+00, 5.3181659637655709e+00, -6.6243821653922028e+00, -5.8468725215668265e+00, 0.0, 0.0, 0.0, 0.0, 0.0, 0.0, 0.0, 0.0, 0.0, 0.0, 0.0, 0.0, 0.0, 0.0, 0.0, 0.0, 0.0, 0.0, 0.0, 0.0, 0.0, 0.0, 0.0, 0.0, 0.0, 0.0, 0.0, 2.4186339888401935e+00, -3.0126844422395398e+00, -2.6590829818827855e+00, -3.0126844422395398e+00, 3.7526420245439880e+00, 3.3121910826961014e+00, -2.6590829818827855e+00, 3.3121910826961014e+00, 2.9234362607834132e+00, 0.0, 0.0, 0.0, 0.0, 0.0, 0.0, 0.0, 0.0, 0.0, 0.0, 0.0, 0.0, 0.0, 0.0, 0.0, 0.0, 0.0, 0.0, 2.4186339888401935e+00, -3.0126844422395398e+00, -2.6590829818827855e+00, -3.0126844422395398e+00, 3.7526420245439880e+00, 3.3121910826961014e+00, -2.6590829818827855e+00, 3.3121910826961014e+00, 2.9234362607834132e+00, 0.0, 0.0, 0.0, 0.0, 0.0, 0.0, 0.0, 0.0, 0.0, 0.0, 0.0, 0.0, 0.0, 0.0, 0.0, 0.0, 0.0, 0.0, -4.8372679776803871e+00, 6.0253688844790796e+00, 5.3181659637655709e+00, 6.0253688844790796e+00, -7.5052840490879760e+00, -6.6243821653922028e+00, 5.3181659637655709e+00, -6.6243821653922028e+00, -5.8468725215668265e+00, 0.0, 0.0, 0.0, 0.0, 0.0, 0.0, 0.0, 0.0, 0.0, 0.0, 0.0, 0.0, 0.0, 0.0, 0.0, 0.0, 0.0, 0.0, 0.0, 0.0, 0.0, 0.0, 0.0, 0.0, 0.0, 0.0, 0.0, 2.4186339888401935e+00, -3.0126844422395398e+00, -2.6590829818827855e+00, -3.0126844422395398e+00, 3.7526420245439880e+00, 3.3121910826961014e+00, -2.6590829818827855e+00, 3.3121910826961014e+00, 2.9234362607834132e+00, 0.0, 0.0, 0.0, 0.0, 0.0, 0.0, 0.0, 0.0, 0.0, 0.0, 0.0, 0.0, 0.0, 0.0, 0.0, 0.0, 0.0, 0.0, 2.4186339888401935e+00, -3.0126844422395398e+00, -2.6590829818827855e+00, -3.0126844422395398e+00, 3.7526420245439880e+00, 3.3121910826961014e+00, -2.6590829818827855e+00, 3.3121910826961014e+00, 2.9234362607834132e+00, 0.0, 0.0, 0.0, 0.0, 0.0, 0.0, 0.0, 0.0, 0.0, 0.0, 0.0, 0.0, 0.0, 0.0, 0.0, 0.0, 0.0, 0.0, -4.8372679776803871e+00, 6.0253688844790796e+00, 5.3181659637655709e+00, 6.0253688844790796e+00, -7.5052840490879760e+00, -6.6243821653922028e+00, 5.3181659637655709e+00, -6.6243821653922028e+00, -5.8468725215668265e+00], 
        "evaluate_dof_0": 1.4072081100000003e-01, 
        "evaluate_dof_1": 3.5842907099999999e-01, 
        "evaluate_dof_2": 2.6156556000000003e-01, 
        "evaluate_dof_3": 1.1257664880000002e+00, 
        "evaluate_dof_4": 2.8674325679999999e+00, 
        "evaluate_dof_5": 2.0925244800000002e+00, 
        "evaluate_dof_6": 3.7994618970000009e+00, 
        "evaluate_dof_7": 9.6775849170000008e+00, 
        "evaluate_dof_8": 7.0622701200000000e+00, 
        "evaluate_dofs": [1.4072081100000003e-01, 3.5842907099999999e-01, 2.6156556000000003e-01, 1.1257664880000002e+00, 2.8674325679999999e+00, 2.0925244800000002e+00, 3.7994618970000009e+00, 9.6775849170000008e+00, 7.0622701200000000e+00], 
        "interpolate_vertex_values": [1.4072081100000003e-01, 1.1257664880000002e+00, 3.7994618970000009e+00, 3.5842907099999999e-01, 2.8674325679999999e+00, 9.6775849170000008e+00], 
        "num_sub_elements": 3, 
        "finite_element_0": {
            "cell_shape": 0, 
            "space_dimension": 3, 
            "value_rank": 0, 
            "evaluate_basis:_0": [8.8768550517695033e-01], 
            "evaluate_basis:_1": [2.8108408070781050e+00], 
            "evaluate_basis:_2": [-2.6985263139330868e+00], 
            "evaluate_basis_all": [8.8768550517695033e-01, 2.8108408070781050e+00, -2.6985263139330868e+00], 
            "evaluate_basis_derivatives_0_0": [8.8768550517695033e-01], 
            "evaluate_basis_derivatives_0_1": [-2.2132851622870207e+00, 2.7568990617961133e+00, 2.4333193597073675e+00], 
            "evaluate_basis_derivatives_0_2": [2.4186339888401935e+00, -3.0126844422395398e+00, -2.6590829818827855e+00, -3.0126844422395398e+00, 3.7526420245439880e+00, 3.3121910826961014e+00, -2.6590829818827855e+00, 3.3121910826961014e+00, 2.9234362607834132e+00], 
            "evaluate_basis_derivatives_1_0": [2.8108408070781050e+00], 
            "evaluate_basis_derivatives_1_1": [-3.7684809628804810e+00, 4.6940727783248102e+00, 4.1431252691317564e+00], 
            "evaluate_basis_derivatives_1_2": [2.4186339888401935e+00, -3.0126844422395398e+00, -2.6590829818827855e+00, -3.0126844422395398e+00, 3.7526420245439880e+00, 3.3121910826961014e+00, -2.6590829818827855e+00, 3.3121910826961014e+00, 2.9234362607834132e+00], 
            "evaluate_basis_derivatives_2_0": [-2.6985263139330868e+00], 
            "evaluate_basis_derivatives_2_1": [5.9817661251675016e+00, -7.4509718401209231e+00, -6.5764446288391234e+00], 
            "evaluate_basis_derivatives_2_2": [-4.8372679776803871e+00, 6.0253688844790796e+00, 5.3181659637655709e+00, 6.0253688844790796e+00, -7.5052840490879760e+00, -6.6243821653922028e+00, 5.3181659637655709e+00, -6.6243821653922028e+00, -5.8468725215668265e+00], 
            "evaluate_basis_derivatives_all_0": [8.8768550517695033e-01, 2.8108408070781050e+00, -2.6985263139330868e+00], 
            "evaluate_basis_derivatives_all_1": [-2.2132851622870207e+00, 2.7568990617961133e+00, 2.4333193597073675e+00, -3.7684809628804810e+00, 4.6940727783248102e+00, 4.1431252691317564e+00, 5.9817661251675016e+00, -7.4509718401209231e+00, -6.5764446288391234e+00], 
            "evaluate_basis_derivatives_all_2": [2.4186339888401935e+00, -3.0126844422395398e+00, -2.6590829818827855e+00, -3.0126844422395398e+00, 3.7526420245439880e+00, 3.3121910826961014e+00, -2.6590829818827855e+00, 3.3121910826961014e+00, 2.9234362607834132e+00, 2.4186339888401935e+00, -3.0126844422395398e+00, -2.6590829818827855e+00, -3.0126844422395398e+00, 3.7526420245439880e+00, 3.3121910826961014e+00, -2.6590829818827855e+00, 3.3121910826961014e+00, 2.9234362607834132e+00, -4.8372679776803871e+00, 6.0253688844790796e+00, 5.3181659637655709e+00, 6.0253688844790796e+00, -7.5052840490879760e+00, -6.6243821653922028e+00, 5.3181659637655709e+00, -6.6243821653922028e+00, -5.8468725215668265e+00], 
            "evaluate_dof_0": 1.4072081100000003e-01, 
            "evaluate_dof_1": 3.5842907099999999e-01, 
            "evaluate_dof_2": 2.6156556000000003e-01, 
            "evaluate_dofs": [1.4072081100000003e-01, 3.5842907099999999e-01, 2.6156556000000003e-01], 
            "interpolate_vertex_values": [1.4072081100000003e-01, 3.5842907099999999e-01], 
            "num_sub_elements": 0, 
        },
        "finite_element_1": {
            "cell_shape": 0, 
            "space_dimension": 3, 
            "value_rank": 0, 
            "evaluate_basis:_0": [8.8768550517695033e-01], 
            "evaluate_basis:_1": [2.8108408070781050e+00], 
            "evaluate_basis:_2": [-2.6985263139330868e+00], 
            "evaluate_basis_all": [8.8768550517695033e-01, 2.8108408070781050e+00, -2.6985263139330868e+00], 
            "evaluate_basis_derivatives_0_0": [8.8768550517695033e-01], 
            "evaluate_basis_derivatives_0_1": [-2.2132851622870207e+00, 2.7568990617961133e+00, 2.4333193597073675e+00], 
            "evaluate_basis_derivatives_0_2": [2.4186339888401935e+00, -3.0126844422395398e+00, -2.6590829818827855e+00, -3.0126844422395398e+00, 3.7526420245439880e+00, 3.3121910826961014e+00, -2.6590829818827855e+00, 3.3121910826961014e+00, 2.9234362607834132e+00], 
            "evaluate_basis_derivatives_1_0": [2.8108408070781050e+00], 
            "evaluate_basis_derivatives_1_1": [-3.7684809628804810e+00, 4.6940727783248102e+00, 4.1431252691317564e+00], 
            "evaluate_basis_derivatives_1_2": [2.4186339888401935e+00, -3.0126844422395398e+00, -2.6590829818827855e+00, -3.0126844422395398e+00, 3.7526420245439880e+00, 3.3121910826961014e+00, -2.6590829818827855e+00, 3.3121910826961014e+00, 2.9234362607834132e+00], 
            "evaluate_basis_derivatives_2_0": [-2.6985263139330868e+00], 
            "evaluate_basis_derivatives_2_1": [5.9817661251675016e+00, -7.4509718401209231e+00, -6.5764446288391234e+00], 
            "evaluate_basis_derivatives_2_2": [-4.8372679776803871e+00, 6.0253688844790796e+00, 5.3181659637655709e+00, 6.0253688844790796e+00, -7.5052840490879760e+00, -6.6243821653922028e+00, 5.3181659637655709e+00, -6.6243821653922028e+00, -5.8468725215668265e+00], 
            "evaluate_basis_derivatives_all_0": [8.8768550517695033e-01, 2.8108408070781050e+00, -2.6985263139330868e+00], 
            "evaluate_basis_derivatives_all_1": [-2.2132851622870207e+00, 2.7568990617961133e+00, 2.4333193597073675e+00, -3.7684809628804810e+00, 4.6940727783248102e+00, 4.1431252691317564e+00, 5.9817661251675016e+00, -7.4509718401209231e+00, -6.5764446288391234e+00], 
            "evaluate_basis_derivatives_all_2": [2.4186339888401935e+00, -3.0126844422395398e+00, -2.6590829818827855e+00, -3.0126844422395398e+00, 3.7526420245439880e+00, 3.3121910826961014e+00, -2.6590829818827855e+00, 3.3121910826961014e+00, 2.9234362607834132e+00, 2.4186339888401935e+00, -3.0126844422395398e+00, -2.6590829818827855e+00, -3.0126844422395398e+00, 3.7526420245439880e+00, 3.3121910826961014e+00, -2.6590829818827855e+00, 3.3121910826961014e+00, 2.9234362607834132e+00, -4.8372679776803871e+00, 6.0253688844790796e+00, 5.3181659637655709e+00, 6.0253688844790796e+00, -7.5052840490879760e+00, -6.6243821653922028e+00, 5.3181659637655709e+00, -6.6243821653922028e+00, -5.8468725215668265e+00], 
            "evaluate_dof_0": 1.4072081100000003e-01, 
            "evaluate_dof_1": 3.5842907099999999e-01, 
            "evaluate_dof_2": 2.6156556000000003e-01, 
            "evaluate_dofs": [1.4072081100000003e-01, 3.5842907099999999e-01, 2.6156556000000003e-01], 
            "interpolate_vertex_values": [1.4072081100000003e-01, 3.5842907099999999e-01], 
            "num_sub_elements": 0, 
        },
        "finite_element_2": {
            "cell_shape": 0, 
            "space_dimension": 3, 
            "value_rank": 0, 
            "evaluate_basis:_0": [8.8768550517695033e-01], 
            "evaluate_basis:_1": [2.8108408070781050e+00], 
            "evaluate_basis:_2": [-2.6985263139330868e+00], 
            "evaluate_basis_all": [8.8768550517695033e-01, 2.8108408070781050e+00, -2.6985263139330868e+00], 
            "evaluate_basis_derivatives_0_0": [8.8768550517695033e-01], 
            "evaluate_basis_derivatives_0_1": [-2.2132851622870207e+00, 2.7568990617961133e+00, 2.4333193597073675e+00], 
            "evaluate_basis_derivatives_0_2": [2.4186339888401935e+00, -3.0126844422395398e+00, -2.6590829818827855e+00, -3.0126844422395398e+00, 3.7526420245439880e+00, 3.3121910826961014e+00, -2.6590829818827855e+00, 3.3121910826961014e+00, 2.9234362607834132e+00], 
            "evaluate_basis_derivatives_1_0": [2.8108408070781050e+00], 
            "evaluate_basis_derivatives_1_1": [-3.7684809628804810e+00, 4.6940727783248102e+00, 4.1431252691317564e+00], 
            "evaluate_basis_derivatives_1_2": [2.4186339888401935e+00, -3.0126844422395398e+00, -2.6590829818827855e+00, -3.0126844422395398e+00, 3.7526420245439880e+00, 3.3121910826961014e+00, -2.6590829818827855e+00, 3.3121910826961014e+00, 2.9234362607834132e+00], 
            "evaluate_basis_derivatives_2_0": [-2.6985263139330868e+00], 
            "evaluate_basis_derivatives_2_1": [5.9817661251675016e+00, -7.4509718401209231e+00, -6.5764446288391234e+00], 
            "evaluate_basis_derivatives_2_2": [-4.8372679776803871e+00, 6.0253688844790796e+00, 5.3181659637655709e+00, 6.0253688844790796e+00, -7.5052840490879760e+00, -6.6243821653922028e+00, 5.3181659637655709e+00, -6.6243821653922028e+00, -5.8468725215668265e+00], 
            "evaluate_basis_derivatives_all_0": [8.8768550517695033e-01, 2.8108408070781050e+00, -2.6985263139330868e+00], 
            "evaluate_basis_derivatives_all_1": [-2.2132851622870207e+00, 2.7568990617961133e+00, 2.4333193597073675e+00, -3.7684809628804810e+00, 4.6940727783248102e+00, 4.1431252691317564e+00, 5.9817661251675016e+00, -7.4509718401209231e+00, -6.5764446288391234e+00], 
            "evaluate_basis_derivatives_all_2": [2.4186339888401935e+00, -3.0126844422395398e+00, -2.6590829818827855e+00, -3.0126844422395398e+00, 3.7526420245439880e+00, 3.3121910826961014e+00, -2.6590829818827855e+00, 3.3121910826961014e+00, 2.9234362607834132e+00, 2.4186339888401935e+00, -3.0126844422395398e+00, -2.6590829818827855e+00, -3.0126844422395398e+00, 3.7526420245439880e+00, 3.3121910826961014e+00, -2.6590829818827855e+00, 3.3121910826961014e+00, 2.9234362607834132e+00, -4.8372679776803871e+00, 6.0253688844790796e+00, 5.3181659637655709e+00, 6.0253688844790796e+00, -7.5052840490879760e+00, -6.6243821653922028e+00, 5.3181659637655709e+00, -6.6243821653922028e+00, -5.8468725215668265e+00], 
            "evaluate_dof_0": 1.4072081100000003e-01, 
            "evaluate_dof_1": 3.5842907099999999e-01, 
            "evaluate_dof_2": 2.6156556000000003e-01, 
            "evaluate_dofs": [1.4072081100000003e-01, 3.5842907099999999e-01, 2.6156556000000003e-01], 
            "interpolate_vertex_values": [1.4072081100000003e-01, 3.5842907099999999e-01], 
            "num_sub_elements": 0, 
        },
    },
    "finite_element_2": {
        "cell_shape": 0, 
        "space_dimension": 2, 
        "value_rank": 0, 
        "evaluate_basis:_0": [-4.6157765178959309e-01], 
        "evaluate_basis:_1": [1.4615776501115616e+00], 
        "evaluate_basis_all": [-4.6157765178959309e-01, 1.4615776501115616e+00], 
        "evaluate_basis_derivatives_0_0": [-4.6157765178959309e-01], 
        "evaluate_basis_derivatives_0_1": [7.7759790029673015e-01, -9.6858685826434809e-01, -8.5490295471219435e-01], 
        "evaluate_basis_derivatives_0_2": [0.0, 0.0, 0.0, 0.0, 0.0, 0.0, 0.0, 0.0, 0.0], 
        "evaluate_basis_derivatives_1_0": [1.4615776501115616e+00], 
        "evaluate_basis_derivatives_1_1": [-7.7759790029673015e-01, 9.6858685826434809e-01, 8.5490295471219435e-01], 
        "evaluate_basis_derivatives_1_2": [0.0, 0.0, 0.0, 0.0, 0.0, 0.0, 0.0, 0.0, 0.0], 
        "evaluate_basis_derivatives_all_0": [-4.6157765178959309e-01, 1.4615776501115616e+00], 
        "evaluate_basis_derivatives_all_1": [7.7759790029673015e-01, -9.6858685826434809e-01, -8.5490295471219435e-01, -7.7759790029673015e-01, 9.6858685826434809e-01, 8.5490295471219435e-01], 
        "evaluate_basis_derivatives_all_2": [0.0, 0.0, 0.0, 0.0, 0.0, 0.0, 0.0, 0.0, 0.0, 0.0, 0.0, 0.0, 0.0, 0.0, 0.0, 0.0, 0.0, 0.0], 
        "evaluate_dof_0": 1.4072081100000003e-01, 
        "evaluate_dof_1": 3.5842907099999999e-01, 
        "evaluate_dofs": [1.4072081100000003e-01, 3.5842907099999999e-01], 
        "interpolate_vertex_values": [1.4072081100000003e-01, 3.5842907099999999e-01], 
        "num_sub_elements": 0, 
    },
    "finite_element_3": {
        "cell_shape": 0, 
        "space_dimension": 11, 
        "value_rank": 1, 
        "value_dimension_0": 4, 
        "evaluate_basis:_0": [8.8768550517695033e-01, 0.0, 0.0, 0.0], 
        "evaluate_basis:_1": [2.8108408070781050e+00, 0.0, 0.0, 0.0], 
        "evaluate_basis:_2": [-2.6985263139330868e+00, 0.0, 0.0, 0.0], 
        "evaluate_basis:_3": [0.0, 8.8768550517695033e-01, 0.0, 0.0], 
        "evaluate_basis:_4": [0.0, 2.8108408070781050e+00, 0.0, 0.0], 
        "evaluate_basis:_5": [0.0, -2.6985263139330868e+00, 0.0, 0.0], 
        "evaluate_basis:_6": [0.0, 0.0, 8.8768550517695033e-01, 0.0], 
        "evaluate_basis:_7": [0.0, 0.0, 2.8108408070781050e+00, 0.0], 
        "evaluate_basis:_8": [0.0, 0.0, -2.6985263139330868e+00, 0.0], 
        "evaluate_basis:_9": [0.0, 0.0, 0.0, -4.6157765178959309e-01], 
        "evaluate_basis:_10": [0.0, 0.0, 0.0, 1.4615776501115616e+00], 
        "evaluate_basis_all": [8.8768550517695033e-01, 0.0, 0.0, 0.0, 2.8108408070781050e+00, 0.0, 0.0, 0.0, -2.6985263139330868e+00, 0.0, 0.0, 0.0, 0.0, 8.8768550517695033e-01, 0.0, 0.0, 0.0, 2.8108408070781050e+00, 0.0, 0.0, 0.0, -2.6985263139330868e+00, 0.0, 0.0, 0.0, 0.0, 8.8768550517695033e-01, 0.0, 0.0, 0.0, 2.8108408070781050e+00, 0.0, 0.0, 0.0, -2.6985263139330868e+00, 0.0, 0.0, 0.0, 0.0, -4.6157765178959309e-01, 0.0, 0.0, 0.0, 1.4615776501115616e+00], 
        "evaluate_basis_derivatives_0_0": [8.8768550517695033e-01, 0.0, 0.0, 0.0], 
        "evaluate_basis_derivatives_0_1": [-2.2132851622870207e+00, 2.7568990617961133e+00, 2.4333193597073675e+00, 0.0, 0.0, 0.0, 0.0, 0.0, 0.0, 0.0, 0.0, 0.0], 
        "evaluate_basis_derivatives_0_2": [2.4186339888401935e+00, -3.0126844422395398e+00, -2.6590829818827855e+00, -3.0126844422395398e+00, 3.7526420245439880e+00, 3.3121910826961014e+00, -2.6590829818827855e+00, 3.3121910826961014e+00, 2.9234362607834132e+00, 0.0, 0.0, 0.0, 0.0, 0.0, 0.0, 0.0, 0.0, 0.0, 0.0, 0.0, 0.0, 0.0, 0.0, 0.0, 0.0, 0.0, 0.0, 0.0, 0.0, 0.0, 0.0, 0.0, 0.0, 0.0, 0.0, 0.0], 
        "evaluate_basis_derivatives_1_0": [2.8108408070781050e+00, 0.0, 0.0, 0.0], 
        "evaluate_basis_derivatives_1_1": [-3.7684809628804810e+00, 4.6940727783248102e+00, 4.1431252691317564e+00, 0.0, 0.0, 0.0, 0.0, 0.0, 0.0, 0.0, 0.0, 0.0], 
        "evaluate_basis_derivatives_1_2": [2.4186339888401935e+00, -3.0126844422395398e+00, -2.6590829818827855e+00, -3.0126844422395398e+00, 3.7526420245439880e+00, 3.3121910826961014e+00, -2.6590829818827855e+00, 3.3121910826961014e+00, 2.9234362607834132e+00, 0.0, 0.0, 0.0, 0.0, 0.0, 0.0, 0.0, 0.0, 0.0, 0.0, 0.0, 0.0, 0.0, 0.0, 0.0, 0.0, 0.0, 0.0, 0.0, 0.0, 0.0, 0.0, 0.0, 0.0, 0.0, 0.0, 0.0], 
        "evaluate_basis_derivatives_2_0": [-2.6985263139330868e+00, 0.0, 0.0, 0.0], 
        "evaluate_basis_derivatives_2_1": [5.9817661251675016e+00, -7.4509718401209231e+00, -6.5764446288391234e+00, 0.0, 0.0, 0.0, 0.0, 0.0, 0.0, 0.0, 0.0, 0.0], 
        "evaluate_basis_derivatives_2_2": [-4.8372679776803871e+00, 6.0253688844790796e+00, 5.3181659637655709e+00, 6.0253688844790796e+00, -7.5052840490879760e+00, -6.6243821653922028e+00, 5.3181659637655709e+00, -6.6243821653922028e+00, -5.8468725215668265e+00, 0.0, 0.0, 0.0, 0.0, 0.0, 0.0, 0.0, 0.0, 0.0, 0.0, 0.0, 0.0, 0.0, 0.0, 0.0, 0.0, 0.0, 0.0, 0.0, 0.0, 0.0, 0.0, 0.0, 0.0, 0.0, 0.0, 0.0], 
        "evaluate_basis_derivatives_3_0": [0.0, 8.8768550517695033e-01, 0.0, 0.0], 
        "evaluate_basis_derivatives_3_1": [0.0, 0.0, 0.0, -2.2132851622870207e+00, 2.7568990617961133e+00, 2.4333193597073675e+00, 0.0, 0.0, 0.0, 0.0, 0.0, 0.0], 
        "evaluate_basis_derivatives_3_2": [0.0, 0.0, 0.0, 0.0, 0.0, 0.0, 0.0, 0.0, 0.0, 2.4186339888401935e+00, -3.0126844422395398e+00, -2.6590829818827855e+00, -3.0126844422395398e+00, 3.7526420245439880e+00, 3.3121910826961014e+00, -2.6590829818827855e+00, 3.3121910826961014e+00, 2.9234362607834132e+00, 0.0, 0.0, 0.0, 0.0, 0.0, 0.0, 0.0, 0.0, 0.0, 0.0, 0.0, 0.0, 0.0, 0.0, 0.0, 0.0, 0.0, 0.0], 
        "evaluate_basis_derivatives_4_0": [0.0, 2.8108408070781050e+00, 0.0, 0.0], 
        "evaluate_basis_derivatives_4_1": [0.0, 0.0, 0.0, -3.7684809628804810e+00, 4.6940727783248102e+00, 4.1431252691317564e+00, 0.0, 0.0, 0.0, 0.0, 0.0, 0.0], 
        "evaluate_basis_derivatives_4_2": [0.0, 0.0, 0.0, 0.0, 0.0, 0.0, 0.0, 0.0, 0.0, 2.4186339888401935e+00, -3.0126844422395398e+00, -2.6590829818827855e+00, -3.0126844422395398e+00, 3.7526420245439880e+00, 3.3121910826961014e+00, -2.6590829818827855e+00, 3.3121910826961014e+00, 2.9234362607834132e+00, 0.0, 0.0, 0.0, 0.0, 0.0, 0.0, 0.0, 0.0, 0.0, 0.0, 0.0, 0.0, 0.0, 0.0, 0.0, 0.0, 0.0, 0.0], 
        "evaluate_basis_derivatives_5_0": [0.0, -2.6985263139330868e+00, 0.0, 0.0], 
        "evaluate_basis_derivatives_5_1": [0.0, 0.0, 0.0, 5.9817661251675016e+00, -7.4509718401209231e+00, -6.5764446288391234e+00, 0.0, 0.0, 0.0, 0.0, 0.0, 0.0], 
        "evaluate_basis_derivatives_5_2": [0.0, 0.0, 0.0, 0.0, 0.0, 0.0, 0.0, 0.0, 0.0, -4.8372679776803871e+00, 6.0253688844790796e+00, 5.3181659637655709e+00, 6.0253688844790796e+00, -7.5052840490879760e+00, -6.6243821653922028e+00, 5.3181659637655709e+00, -6.6243821653922028e+00, -5.8468725215668265e+00, 0.0, 0.0, 0.0, 0.0, 0.0, 0.0, 0.0, 0.0, 0.0, 0.0, 0.0, 0.0, 0.0, 0.0, 0.0, 0.0, 0.0, 0.0], 
        "evaluate_basis_derivatives_6_0": [0.0, 0.0, 8.8768550517695033e-01, 0.0], 
        "evaluate_basis_derivatives_6_1": [0.0, 0.0, 0.0, 0.0, 0.0, 0.0, -2.2132851622870207e+00, 2.7568990617961133e+00, 2.4333193597073675e+00, 0.0, 0.0, 0.0], 
        "evaluate_basis_derivatives_6_2": [0.0, 0.0, 0.0, 0.0, 0.0, 0.0, 0.0, 0.0, 0.0, 0.0, 0.0, 0.0, 0.0, 0.0, 0.0, 0.0, 0.0, 0.0, 2.4186339888401935e+00, -3.0126844422395398e+00, -2.6590829818827855e+00, -3.0126844422395398e+00, 3.7526420245439880e+00, 3.3121910826961014e+00, -2.6590829818827855e+00, 3.3121910826961014e+00, 2.9234362607834132e+00, 0.0, 0.0, 0.0, 0.0, 0.0, 0.0, 0.0, 0.0, 0.0], 
        "evaluate_basis_derivatives_7_0": [0.0, 0.0, 2.8108408070781050e+00, 0.0], 
        "evaluate_basis_derivatives_7_1": [0.0, 0.0, 0.0, 0.0, 0.0, 0.0, -3.7684809628804810e+00, 4.6940727783248102e+00, 4.1431252691317564e+00, 0.0, 0.0, 0.0], 
        "evaluate_basis_derivatives_7_2": [0.0, 0.0, 0.0, 0.0, 0.0, 0.0, 0.0, 0.0, 0.0, 0.0, 0.0, 0.0, 0.0, 0.0, 0.0, 0.0, 0.0, 0.0, 2.4186339888401935e+00, -3.0126844422395398e+00, -2.6590829818827855e+00, -3.0126844422395398e+00, 3.7526420245439880e+00, 3.3121910826961014e+00, -2.6590829818827855e+00, 3.3121910826961014e+00, 2.9234362607834132e+00, 0.0, 0.0, 0.0, 0.0, 0.0, 0.0, 0.0, 0.0, 0.0], 
        "evaluate_basis_derivatives_8_0": [0.0, 0.0, -2.6985263139330868e+00, 0.0], 
        "evaluate_basis_derivatives_8_1": [0.0, 0.0, 0.0, 0.0, 0.0, 0.0, 5.9817661251675016e+00, -7.4509718401209231e+00, -6.5764446288391234e+00, 0.0, 0.0, 0.0], 
        "evaluate_basis_derivatives_8_2": [0.0, 0.0, 0.0, 0.0, 0.0, 0.0, 0.0, 0.0, 0.0, 0.0, 0.0, 0.0, 0.0, 0.0, 0.0, 0.0, 0.0, 0.0, -4.8372679776803871e+00, 6.0253688844790796e+00, 5.3181659637655709e+00, 6.0253688844790796e+00, -7.5052840490879760e+00, -6.6243821653922028e+00, 5.3181659637655709e+00, -6.6243821653922028e+00, -5.8468725215668265e+00, 0.0, 0.0, 0.0, 0.0, 0.0, 0.0, 0.0, 0.0, 0.0], 
        "evaluate_basis_derivatives_9_0": [0.0, 0.0, 0.0, -4.6157765178959309e-01], 
        "evaluate_basis_derivatives_9_1": [0.0, 0.0, 0.0, 0.0, 0.0, 0.0, 0.0, 0.0, 0.0, 7.7759790029673015e-01, -9.6858685826434809e-01, -8.5490295471219435e-01], 
        "evaluate_basis_derivatives_9_2": [0.0, 0.0, 0.0, 0.0, 0.0, 0.0, 0.0, 0.0, 0.0, 0.0, 0.0, 0.0, 0.0, 0.0, 0.0, 0.0, 0.0, 0.0, 0.0, 0.0, 0.0, 0.0, 0.0, 0.0, 0.0, 0.0, 0.0, 0.0, 0.0, 0.0, 0.0, 0.0, 0.0, 0.0, 0.0, 0.0], 
        "evaluate_basis_derivatives_10_0": [0.0, 0.0, 0.0, 1.4615776501115616e+00], 
        "evaluate_basis_derivatives_10_1": [0.0, 0.0, 0.0, 0.0, 0.0, 0.0, 0.0, 0.0, 0.0, -7.7759790029673015e-01, 9.6858685826434809e-01, 8.5490295471219435e-01], 
        "evaluate_basis_derivatives_10_2": [0.0, 0.0, 0.0, 0.0, 0.0, 0.0, 0.0, 0.0, 0.0, 0.0, 0.0, 0.0, 0.0, 0.0, 0.0, 0.0, 0.0, 0.0, 0.0, 0.0, 0.0, 0.0, 0.0, 0.0, 0.0, 0.0, 0.0, 0.0, 0.0, 0.0, 0.0, 0.0, 0.0, 0.0, 0.0, 0.0], 
        "evaluate_basis_derivatives_all_0": [8.8768550517695033e-01, 0.0, 0.0, 0.0, 2.8108408070781050e+00, 0.0, 0.0, 0.0, -2.6985263139330868e+00, 0.0, 0.0, 0.0, 0.0, 8.8768550517695033e-01, 0.0, 0.0, 0.0, 2.8108408070781050e+00, 0.0, 0.0, 0.0, -2.6985263139330868e+00, 0.0, 0.0, 0.0, 0.0, 8.8768550517695033e-01, 0.0, 0.0, 0.0, 2.8108408070781050e+00, 0.0, 0.0, 0.0, -2.6985263139330868e+00, 0.0, 0.0, 0.0, 0.0, -4.6157765178959309e-01, 0.0, 0.0, 0.0, 1.4615776501115616e+00], 
        "evaluate_basis_derivatives_all_1": [-2.2132851622870207e+00, 2.7568990617961133e+00, 2.4333193597073675e+00, 0.0, 0.0, 0.0, 0.0, 0.0, 0.0, 0.0, 0.0, 0.0, -3.7684809628804810e+00, 4.6940727783248102e+00, 4.1431252691317564e+00, 0.0, 0.0, 0.0, 0.0, 0.0, 0.0, 0.0, 0.0, 0.0, 5.9817661251675016e+00, -7.4509718401209231e+00, -6.5764446288391234e+00, 0.0, 0.0, 0.0, 0.0, 0.0, 0.0, 0.0, 0.0, 0.0, 0.0, 0.0, 0.0, -2.2132851622870207e+00, 2.7568990617961133e+00, 2.4333193597073675e+00, 0.0, 0.0, 0.0, 0.0, 0.0, 0.0, 0.0, 0.0, 0.0, -3.7684809628804810e+00, 4.6940727783248102e+00, 4.1431252691317564e+00, 0.0, 0.0, 0.0, 0.0, 0.0, 0.0, 0.0, 0.0, 0.0, 5.9817661251675016e+00, -7.4509718401209231e+00, -6.5764446288391234e+00, 0.0, 0.0, 0.0, 0.0, 0.0, 0.0, 0.0, 0.0, 0.0, 0.0, 0.0, 0.0, -2.2132851622870207e+00, 2.7568990617961133e+00, 2.4333193597073675e+00, 0.0, 0.0, 0.0, 0.0, 0.0, 0.0, 0.0, 0.0, 0.0, -3.7684809628804810e+00, 4.6940727783248102e+00, 4.1431252691317564e+00, 0.0, 0.0, 0.0, 0.0, 0.0, 0.0, 0.0, 0.0, 0.0, 5.9817661251675016e+00, -7.4509718401209231e+00, -6.5764446288391234e+00, 0.0, 0.0, 0.0, 0.0, 0.0, 0.0, 0.0, 0.0, 0.0, 0.0, 0.0, 0.0, 7.7759790029673015e-01, -9.6858685826434809e-01, -8.5490295471219435e-01, 0.0, 0.0, 0.0, 0.0, 0.0, 0.0, 0.0, 0.0, 0.0, -7.7759790029673015e-01, 9.6858685826434809e-01, 8.5490295471219435e-01], 
        "evaluate_basis_derivatives_all_2": [2.4186339888401935e+00, -3.0126844422395398e+00, -2.6590829818827855e+00, -3.0126844422395398e+00, 3.7526420245439880e+00, 3.3121910826961014e+00, -2.6590829818827855e+00, 3.3121910826961014e+00, 2.9234362607834132e+00, 0.0, 0.0, 0.0, 0.0, 0.0, 0.0, 0.0, 0.0, 0.0, 0.0, 0.0, 0.0, 0.0, 0.0, 0.0, 0.0, 0.0, 0.0, 0.0, 0.0, 0.0, 0.0, 0.0, 0.0, 0.0, 0.0, 0.0, 2.4186339888401935e+00, -3.0126844422395398e+00, -2.6590829818827855e+00, -3.0126844422395398e+00, 3.7526420245439880e+00, 3.3121910826961014e+00, -2.6590829818827855e+00, 3.3121910826961014e+00, 2.9234362607834132e+00, 0.0, 0.0, 0.0, 0.0, 0.0, 0.0, 0.0, 0.0, 0.0, 0.0, 0.0, 0.0, 0.0, 0.0, 0.0, 0.0, 0.0, 0.0, 0.0, 0.0, 0.0, 0.0, 0.0, 0.0, 0.0, 0.0, 0.0, -4.8372679776803871e+00, 6.0253688844790796e+00, 5.3181659637655709e+00, 6.0253688844790796e+00, -7.5052840490879760e+00, -6.6243821653922028e+00, 5.3181659637655709e+00, -6.6243821653922028e+00, -5.8468725215668265e+00, 0.0, 0.0, 0.0, 0.0, 0.0, 0.0, 0.0, 0.0, 0.0, 0.0, 0.0, 0.0, 0.0, 0.0, 0.0, 0.0, 0.0, 0.0, 0.0, 0.0, 0.0, 0.0, 0.0, 0.0, 0.0, 0.0, 0.0, 0.0, 0.0, 0.0, 0.0, 0.0, 0.0, 0.0, 0.0, 0.0, 2.4186339888401935e+00, -3.0126844422395398e+00, -2.6590829818827855e+00, -3.0126844422395398e+00, 3.7526420245439880e+00, 3.3121910826961014e+00, -2.6590829818827855e+00, 3.3121910826961014e+00, 2.9234362607834132e+00, 0.0, 0.0, 0.0, 0.0, 0.0, 0.0, 0.0, 0.0, 0.0, 0.0, 0.0, 0.0, 0.0, 0.0, 0.0, 0.0, 0.0, 0.0, 0.0, 0.0, 0.0, 0.0, 0.0, 0.0, 0.0, 0.0, 0.0, 2.4186339888401935e+00, -3.0126844422395398e+00, -2.6590829818827855e+00, -3.0126844422395398e+00, 3.7526420245439880e+00, 3.3121910826961014e+00, -2.6590829818827855e+00, 3.3121910826961014e+00, 2.9234362607834132e+00, 0.0, 0.0, 0.0, 0.0, 0.0, 0.0, 0.0, 0.0, 0.0, 0.0, 0.0, 0.0, 0.0, 0.0, 0.0, 0.0, 0.0, 0.0, 0.0, 0.0, 0.0, 0.0, 0.0, 0.0, 0.0, 0.0, 0.0, -4.8372679776803871e+00, 6.0253688844790796e+00, 5.3181659637655709e+00, 6.0253688844790796e+00, -7.5052840490879760e+00, -6.6243821653922028e+00, 5.3181659637655709e+00, -6.6243821653922028e+00, -5.8468725215668265e+00, 0.0, 0.0, 0.0, 0.0, 0.0, 0.0, 0.0, 0.0, 0.0, 0.0, 0.0, 0.0, 0.0, 0.0, 0.0, 0.0, 0.0, 0.0, 0.0, 0.0, 0.0, 0.0, 0.0, 0.0, 0.0, 0.0, 0.0, 0.0, 0.0, 0.0, 0.0, 0.0, 0.0, 0.0, 0.0, 0.0, 2.4186339888401935e+00, -3.0126844422395398e+00, -2.6590829818827855e+00, -3.0126844422395398e+00, 3.7526420245439880e+00, 3.3121910826961014e+00, -2.6590829818827855e+00, 3.3121910826961014e+00, 2.9234362607834132e+00, 0.0, 0.0, 0.0, 0.0, 0.0, 0.0, 0.0, 0.0, 0.0, 0.0, 0.0, 0.0, 0.0, 0.0, 0.0, 0.0, 0.0, 0.0, 0.0, 0.0, 0.0, 0.0, 0.0, 0.0, 0.0, 0.0, 0.0, 2.4186339888401935e+00, -3.0126844422395398e+00, -2.6590829818827855e+00, -3.0126844422395398e+00, 3.7526420245439880e+00, 3.3121910826961014e+00, -2.6590829818827855e+00, 3.3121910826961014e+00, 2.9234362607834132e+00, 0.0, 0.0, 0.0, 0.0, 0.0, 0.0, 0.0, 0.0, 0.0, 0.0, 0.0, 0.0, 0.0, 0.0, 0.0, 0.0, 0.0, 0.0, 0.0, 0.0, 0.0, 0.0, 0.0, 0.0, 0.0, 0.0, 0.0, -4.8372679776803871e+00, 6.0253688844790796e+00, 5.3181659637655709e+00, 6.0253688844790796e+00, -7.5052840490879760e+00, -6.6243821653922028e+00, 5.3181659637655709e+00, -6.6243821653922028e+00, -5.8468725215668265e+00, 0.0, 0.0, 0.0, 0.0, 0.0, 0.0, 0.0, 0.0, 0.0, 0.0, 0.0, 0.0, 0.0, 0.0, 0.0, 0.0, 0.0, 0.0, 0.0, 0.0, 0.0, 0.0, 0.0, 0.0, 0.0, 0.0, 0.0, 0.0, 0.0, 0.0, 0.0, 0.0, 0.0, 0.0, 0.0, 0.0, 0.0, 0.0, 0.0, 0.0, 0.0, 0.0, 0.0, 0.0, 0.0, 0.0, 0.0, 0.0, 0.0, 0.0, 0.0, 0.0, 0.0, 0.0, 0.0, 0.0, 0.0, 0.0, 0.0, 0.0, 0.0, 0.0, 0.0, 0.0, 0.0, 0.0, 0.0, 0.0, 0.0, 0.0, 0.0, 0.0, 0.0, 0.0, 0.0, 0.0, 0.0, 0.0, 0.0, 0.0, 0.0], 
        "evaluate_dof_0": 1.4072081100000003e-01, 
        "evaluate_dof_1": 3.5842907099999999e-01, 
        "evaluate_dof_2": 2.6156556000000003e-01, 
        "evaluate_dof_3": 1.1257664880000002e+00, 
        "evaluate_dof_4": 2.8674325679999999e+00, 
        "evaluate_dof_5": 2.0925244800000002e+00, 
        "evaluate_dof_6": 3.7994618970000009e+00, 
        "evaluate_dof_7": 9.6775849170000008e+00, 
        "evaluate_dof_8": 7.0622701200000000e+00, 
        "evaluate_dof_9": 9.0061319040000019e+00, 
        "evaluate_dof_10": 2.2939460543999999e+01, 
        "evaluate_dofs": [1.4072081100000003e-01, 3.5842907099999999e-01, 2.6156556000000003e-01, 1.1257664880000002e+00, 2.8674325679999999e+00, 2.0925244800000002e+00, 3.7994618970000009e+00, 9.6775849170000008e+00, 7.0622701200000000e+00, 9.0061319040000019e+00, 2.2939460543999999e+01], 
        "interpolate_vertex_values": [1.4072081100000003e-01, 1.1257664880000002e+00, 3.7994618970000009e+00, 9.0061319040000019e+00, 3.5842907099999999e-01, 2.8674325679999999e+00, 9.6775849170000008e+00, 2.2939460543999999e+01], 
        "num_sub_elements": 2, 
        "finite_element_0": {
            "cell_shape": 0, 
            "space_dimension": 9, 
            "value_rank": 1, 
            "value_dimension_0": 3, 
            "evaluate_basis:_0": [8.8768550517695033e-01, 0.0, 0.0], 
            "evaluate_basis:_1": [2.8108408070781050e+00, 0.0, 0.0], 
            "evaluate_basis:_2": [-2.6985263139330868e+00, 0.0, 0.0], 
            "evaluate_basis:_3": [0.0, 8.8768550517695033e-01, 0.0], 
            "evaluate_basis:_4": [0.0, 2.8108408070781050e+00, 0.0], 
            "evaluate_basis:_5": [0.0, -2.6985263139330868e+00, 0.0], 
            "evaluate_basis:_6": [0.0, 0.0, 8.8768550517695033e-01], 
            "evaluate_basis:_7": [0.0, 0.0, 2.8108408070781050e+00], 
            "evaluate_basis:_8": [0.0, 0.0, -2.6985263139330868e+00], 
            "evaluate_basis_all": [8.8768550517695033e-01, 0.0, 0.0, 2.8108408070781050e+00, 0.0, 0.0, -2.6985263139330868e+00, 0.0, 0.0, 0.0, 8.8768550517695033e-01, 0.0, 0.0, 2.8108408070781050e+00, 0.0, 0.0, -2.6985263139330868e+00, 0.0, 0.0, 0.0, 8.8768550517695033e-01, 0.0, 0.0, 2.8108408070781050e+00, 0.0, 0.0, -2.6985263139330868e+00], 
            "evaluate_basis_derivatives_0_0": [8.8768550517695033e-01, 0.0, 0.0], 
            "evaluate_basis_derivatives_0_1": [-2.2132851622870207e+00, 2.7568990617961133e+00, 2.4333193597073675e+00, 0.0, 0.0, 0.0, 0.0, 0.0, 0.0], 
            "evaluate_basis_derivatives_0_2": [2.4186339888401935e+00, -3.0126844422395398e+00, -2.6590829818827855e+00, -3.0126844422395398e+00, 3.7526420245439880e+00, 3.3121910826961014e+00, -2.6590829818827855e+00, 3.3121910826961014e+00, 2.9234362607834132e+00, 0.0, 0.0, 0.0, 0.0, 0.0, 0.0, 0.0, 0.0, 0.0, 0.0, 0.0, 0.0, 0.0, 0.0, 0.0, 0.0, 0.0, 0.0], 
            "evaluate_basis_derivatives_1_0": [2.8108408070781050e+00, 0.0, 0.0], 
            "evaluate_basis_derivatives_1_1": [-3.7684809628804810e+00, 4.6940727783248102e+00, 4.1431252691317564e+00, 0.0, 0.0, 0.0, 0.0, 0.0, 0.0], 
            "evaluate_basis_derivatives_1_2": [2.4186339888401935e+00, -3.0126844422395398e+00, -2.6590829818827855e+00, -3.0126844422395398e+00, 3.7526420245439880e+00, 3.3121910826961014e+00, -2.6590829818827855e+00, 3.3121910826961014e+00, 2.9234362607834132e+00, 0.0, 0.0, 0.0, 0.0, 0.0, 0.0, 0.0, 0.0, 0.0, 0.0, 0.0, 0.0, 0.0, 0.0, 0.0, 0.0, 0.0, 0.0], 
            "evaluate_basis_derivatives_2_0": [-2.6985263139330868e+00, 0.0, 0.0], 
            "evaluate_basis_derivatives_2_1": [5.9817661251675016e+00, -7.4509718401209231e+00, -6.5764446288391234e+00, 0.0, 0.0, 0.0, 0.0, 0.0, 0.0], 
            "evaluate_basis_derivatives_2_2": [-4.8372679776803871e+00, 6.0253688844790796e+00, 5.3181659637655709e+00, 6.0253688844790796e+00, -7.5052840490879760e+00, -6.6243821653922028e+00, 5.3181659637655709e+00, -6.6243821653922028e+00, -5.8468725215668265e+00, 0.0, 0.0, 0.0, 0.0, 0.0, 0.0, 0.0, 0.0, 0.0, 0.0, 0.0, 0.0, 0.0, 0.0, 0.0, 0.0, 0.0, 0.0], 
            "evaluate_basis_derivatives_3_0": [0.0, 8.8768550517695033e-01, 0.0], 
            "evaluate_basis_derivatives_3_1": [0.0, 0.0, 0.0, -2.2132851622870207e+00, 2.7568990617961133e+00, 2.4333193597073675e+00, 0.0, 0.0, 0.0], 
            "evaluate_basis_derivatives_3_2": [0.0, 0.0, 0.0, 0.0, 0.0, 0.0, 0.0, 0.0, 0.0, 2.4186339888401935e+00, -3.0126844422395398e+00, -2.6590829818827855e+00, -3.0126844422395398e+00, 3.7526420245439880e+00, 3.3121910826961014e+00, -2.6590829818827855e+00, 3.3121910826961014e+00, 2.9234362607834132e+00, 0.0, 0.0, 0.0, 0.0, 0.0, 0.0, 0.0, 0.0, 0.0], 
            "evaluate_basis_derivatives_4_0": [0.0, 2.8108408070781050e+00, 0.0], 
            "evaluate_basis_derivatives_4_1": [0.0, 0.0, 0.0, -3.7684809628804810e+00, 4.6940727783248102e+00, 4.1431252691317564e+00, 0.0, 0.0, 0.0], 
            "evaluate_basis_derivatives_4_2": [0.0, 0.0, 0.0, 0.0, 0.0, 0.0, 0.0, 0.0, 0.0, 2.4186339888401935e+00, -3.0126844422395398e+00, -2.6590829818827855e+00, -3.0126844422395398e+00, 3.7526420245439880e+00, 3.3121910826961014e+00, -2.6590829818827855e+00, 3.3121910826961014e+00, 2.9234362607834132e+00, 0.0, 0.0, 0.0, 0.0, 0.0, 0.0, 0.0, 0.0, 0.0], 
            "evaluate_basis_derivatives_5_0": [0.0, -2.6985263139330868e+00, 0.0], 
            "evaluate_basis_derivatives_5_1": [0.0, 0.0, 0.0, 5.9817661251675016e+00, -7.4509718401209231e+00, -6.5764446288391234e+00, 0.0, 0.0, 0.0], 
            "evaluate_basis_derivatives_5_2": [0.0, 0.0, 0.0, 0.0, 0.0, 0.0, 0.0, 0.0, 0.0, -4.8372679776803871e+00, 6.0253688844790796e+00, 5.3181659637655709e+00, 6.0253688844790796e+00, -7.5052840490879760e+00, -6.6243821653922028e+00, 5.3181659637655709e+00, -6.6243821653922028e+00, -5.8468725215668265e+00, 0.0, 0.0, 0.0, 0.0, 0.0, 0.0, 0.0, 0.0, 0.0], 
            "evaluate_basis_derivatives_6_0": [0.0, 0.0, 8.8768550517695033e-01], 
            "evaluate_basis_derivatives_6_1": [0.0, 0.0, 0.0, 0.0, 0.0, 0.0, -2.2132851622870207e+00, 2.7568990617961133e+00, 2.4333193597073675e+00], 
            "evaluate_basis_derivatives_6_2": [0.0, 0.0, 0.0, 0.0, 0.0, 0.0, 0.0, 0.0, 0.0, 0.0, 0.0, 0.0, 0.0, 0.0, 0.0, 0.0, 0.0, 0.0, 2.4186339888401935e+00, -3.0126844422395398e+00, -2.6590829818827855e+00, -3.0126844422395398e+00, 3.7526420245439880e+00, 3.3121910826961014e+00, -2.6590829818827855e+00, 3.3121910826961014e+00, 2.9234362607834132e+00], 
            "evaluate_basis_derivatives_7_0": [0.0, 0.0, 2.8108408070781050e+00], 
            "evaluate_basis_derivatives_7_1": [0.0, 0.0, 0.0, 0.0, 0.0, 0.0, -3.7684809628804810e+00, 4.6940727783248102e+00, 4.1431252691317564e+00], 
            "evaluate_basis_derivatives_7_2": [0.0, 0.0, 0.0, 0.0, 0.0, 0.0, 0.0, 0.0, 0.0, 0.0, 0.0, 0.0, 0.0, 0.0, 0.0, 0.0, 0.0, 0.0, 2.4186339888401935e+00, -3.0126844422395398e+00, -2.6590829818827855e+00, -3.0126844422395398e+00, 3.7526420245439880e+00, 3.3121910826961014e+00, -2.6590829818827855e+00, 3.3121910826961014e+00, 2.9234362607834132e+00], 
            "evaluate_basis_derivatives_8_0": [0.0, 0.0, -2.6985263139330868e+00], 
            "evaluate_basis_derivatives_8_1": [0.0, 0.0, 0.0, 0.0, 0.0, 0.0, 5.9817661251675016e+00, -7.4509718401209231e+00, -6.5764446288391234e+00], 
            "evaluate_basis_derivatives_8_2": [0.0, 0.0, 0.0, 0.0, 0.0, 0.0, 0.0, 0.0, 0.0, 0.0, 0.0, 0.0, 0.0, 0.0, 0.0, 0.0, 0.0, 0.0, -4.8372679776803871e+00, 6.0253688844790796e+00, 5.3181659637655709e+00, 6.0253688844790796e+00, -7.5052840490879760e+00, -6.6243821653922028e+00, 5.3181659637655709e+00, -6.6243821653922028e+00, -5.8468725215668265e+00], 
            "evaluate_basis_derivatives_all_0": [8.8768550517695033e-01, 0.0, 0.0, 2.8108408070781050e+00, 0.0, 0.0, -2.6985263139330868e+00, 0.0, 0.0, 0.0, 8.8768550517695033e-01, 0.0, 0.0, 2.8108408070781050e+00, 0.0, 0.0, -2.6985263139330868e+00, 0.0, 0.0, 0.0, 8.8768550517695033e-01, 0.0, 0.0, 2.8108408070781050e+00, 0.0, 0.0, -2.6985263139330868e+00], 
            "evaluate_basis_derivatives_all_1": [-2.2132851622870207e+00, 2.7568990617961133e+00, 2.4333193597073675e+00, 0.0, 0.0, 0.0, 0.0, 0.0, 0.0, -3.7684809628804810e+00, 4.6940727783248102e+00, 4.1431252691317564e+00, 0.0, 0.0, 0.0, 0.0, 0.0, 0.0, 5.9817661251675016e+00, -7.4509718401209231e+00, -6.5764446288391234e+00, 0.0, 0.0, 0.0, 0.0, 0.0, 0.0, 0.0, 0.0, 0.0, -2.2132851622870207e+00, 2.7568990617961133e+00, 2.4333193597073675e+00, 0.0, 0.0, 0.0, 0.0, 0.0, 0.0, -3.7684809628804810e+00, 4.6940727783248102e+00, 4.1431252691317564e+00, 0.0, 0.0, 0.0, 0.0, 0.0, 0.0, 5.9817661251675016e+00, -7.4509718401209231e+00, -6.5764446288391234e+00, 0.0, 0.0, 0.0, 0.0, 0.0, 0.0, 0.0, 0.0, 0.0, -2.2132851622870207e+00, 2.7568990617961133e+00, 2.4333193597073675e+00, 0.0, 0.0, 0.0, 0.0, 0.0, 0.0, -3.7684809628804810e+00, 4.6940727783248102e+00, 4.1431252691317564e+00, 0.0, 0.0, 0.0, 0.0, 0.0, 0.0, 5.9817661251675016e+00, -7.4509718401209231e+00, -6.5764446288391234e+00], 
            "evaluate_basis_derivatives_all_2": [2.4186339888401935e+00, -3.0126844422395398e+00, -2.6590829818827855e+00, -3.0126844422395398e+00, 3.7526420245439880e+00, 3.3121910826961014e+00, -2.6590829818827855e+00, 3.3121910826961014e+00, 2.9234362607834132e+00, 0.0, 0.0, 0.0, 0.0, 0.0, 0.0, 0.0, 0.0, 0.0, 0.0, 0.0, 0.0, 0.0, 0.0, 0.0, 0.0, 0.0, 0.0, 2.4186339888401935e+00, -3.0126844422395398e+00, -2.6590829818827855e+00, -3.0126844422395398e+00, 3.7526420245439880e+00, 3.3121910826961014e+00, -2.6590829818827855e+00, 3.3121910826961014e+00, 2.9234362607834132e+00, 0.0, 0.0, 0.0, 0.0, 0.0, 0.0, 0.0, 0.0, 0.0, 0.0, 0.0, 0.0, 0.0, 0.0, 0.0, 0.0, 0.0, 0.0, -4.8372679776803871e+00, 6.0253688844790796e+00, 5.3181659637655709e+00, 6.0253688844790796e+00, -7.5052840490879760e+00, -6.6243821653922028e+00, 5.3181659637655709e+00, -6.6243821653922028e+00, -5.8468725215668265e+00, 0.0, 0.0, 0.0, 0.0, 0.0, 0.0, 0.0, 0.0, 0.0, 0.0, 0.0, 0.0, 0.0, 0.0, 0.0, 0.0, 0.0, 0.0, 0.0, 0.0, 0.0, 0.0, 0.0, 0.0, 0.0, 0.0, 0.0, 2.4186339888401935e+00, -3.0126844422395398e+00, -2.6590829818827855e+00, -3.0126844422395398e+00, 3.7526420245439880e+00, 3.3121910826961014e+00, -2.6590829818827855e+00, 3.3121910826961014e+00, 2.9234362607834132e+00, 0.0, 0.0, 0.0, 0.0, 0.0, 0.0, 0.0, 0.0, 0.0, 0.0, 0.0, 0.0, 0.0, 0.0, 0.0, 0.0, 0.0, 0.0, 2.4186339888401935e+00, -3.0126844422395398e+00, -2.6590829818827855e+00, -3.0126844422395398e+00, 3.7526420245439880e+00, 3.3121910826961014e+00, -2.6590829818827855e+00, 3.3121910826961014e+00, 2.9234362607834132e+00, 0.0, 0.0, 0.0, 0.0, 0.0, 0.0, 0.0, 0.0, 0.0, 0.0, 0.0, 0.0, 0.0, 0.0, 0.0, 0.0, 0.0, 0.0, -4.8372679776803871e+00, 6.0253688844790796e+00, 5.3181659637655709e+00, 6.0253688844790796e+00, -7.5052840490879760e+00, -6.6243821653922028e+00, 5.3181659637655709e+00, -6.6243821653922028e+00, -5.8468725215668265e+00, 0.0, 0.0, 0.0, 0.0, 0.0, 0.0, 0.0, 0.0, 0.0, 0.0, 0.0, 0.0, 0.0, 0.0, 0.0, 0.0, 0.0, 0.0, 0.0, 0.0, 0.0, 0.0, 0.0, 0.0, 0.0, 0.0, 0.0, 2.4186339888401935e+00, -3.0126844422395398e+00, -2.6590829818827855e+00, -3.0126844422395398e+00, 3.7526420245439880e+00, 3.3121910826961014e+00, -2.6590829818827855e+00, 3.3121910826961014e+00, 2.9234362607834132e+00, 0.0, 0.0, 0.0, 0.0, 0.0, 0.0, 0.0, 0.0, 0.0, 0.0, 0.0, 0.0, 0.0, 0.0, 0.0, 0.0, 0.0, 0.0, 2.4186339888401935e+00, -3.0126844422395398e+00, -2.6590829818827855e+00, -3.0126844422395398e+00, 3.7526420245439880e+00, 3.3121910826961014e+00, -2.6590829818827855e+00, 3.3121910826961014e+00, 2.9234362607834132e+00, 0.0, 0.0, 0.0, 0.0, 0.0, 0.0, 0.0, 0.0, 0.0, 0.0, 0.0, 0.0, 0.0, 0.0, 0.0, 0.0, 0.0, 0.0, -4.8372679776803871e+00, 6.0253688844790796e+00, 5.3181659637655709e+00, 6.0253688844790796e+00, -7.5052840490879760e+00, -6.6243821653922028e+00, 5.3181659637655709e+00, -6.6243821653922028e+00, -5.8468725215668265e+00], 
            "evaluate_dof_0": 1.4072081100000003e-01, 
            "evaluate_dof_1": 3.5842907099999999e-01, 
            "evaluate_dof_2": 2.6156556000000003e-01, 
            "evaluate_dof_3": 1.1257664880000002e+00, 
            "evaluate_dof_4": 2.8674325679999999e+00, 
            "evaluate_dof_5": 2.0925244800000002e+00, 
            "evaluate_dof_6": 3.7994618970000009e+00, 
            "evaluate_dof_7": 9.6775849170000008e+00, 
            "evaluate_dof_8": 7.0622701200000000e+00, 
            "evaluate_dofs": [1.4072081100000003e-01, 3.5842907099999999e-01, 2.6156556000000003e-01, 1.1257664880000002e+00, 2.8674325679999999e+00, 2.0925244800000002e+00, 3.7994618970000009e+00, 9.6775849170000008e+00, 7.0622701200000000e+00], 
            "interpolate_vertex_values": [1.4072081100000003e-01, 1.1257664880000002e+00, 3.7994618970000009e+00, 3.5842907099999999e-01, 2.8674325679999999e+00, 9.6775849170000008e+00], 
            "num_sub_elements": 3, 
            "finite_element_0": {
                "cell_shape": 0, 
                "space_dimension": 3, 
                "value_rank": 0, 
                "evaluate_basis:_0": [8.8768550517695033e-01], 
                "evaluate_basis:_1": [2.8108408070781050e+00], 
                "evaluate_basis:_2": [-2.6985263139330868e+00], 
                "evaluate_basis_all": [8.8768550517695033e-01, 2.8108408070781050e+00, -2.6985263139330868e+00], 
                "evaluate_basis_derivatives_0_0": [8.8768550517695033e-01], 
                "evaluate_basis_derivatives_0_1": [-2.2132851622870207e+00, 2.7568990617961133e+00, 2.4333193597073675e+00], 
                "evaluate_basis_derivatives_0_2": [2.4186339888401935e+00, -3.0126844422395398e+00, -2.6590829818827855e+00, -3.0126844422395398e+00, 3.7526420245439880e+00, 3.3121910826961014e+00, -2.6590829818827855e+00, 3.3121910826961014e+00, 2.9234362607834132e+00], 
                "evaluate_basis_derivatives_1_0": [2.8108408070781050e+00], 
                "evaluate_basis_derivatives_1_1": [-3.7684809628804810e+00, 4.6940727783248102e+00, 4.1431252691317564e+00], 
                "evaluate_basis_derivatives_1_2": [2.4186339888401935e+00, -3.0126844422395398e+00, -2.6590829818827855e+00, -3.0126844422395398e+00, 3.7526420245439880e+00, 3.3121910826961014e+00, -2.6590829818827855e+00, 3.3121910826961014e+00, 2.9234362607834132e+00], 
                "evaluate_basis_derivatives_2_0": [-2.6985263139330868e+00], 
                "evaluate_basis_derivatives_2_1": [5.9817661251675016e+00, -7.4509718401209231e+00, -6.5764446288391234e+00], 
                "evaluate_basis_derivatives_2_2": [-4.8372679776803871e+00, 6.0253688844790796e+00, 5.3181659637655709e+00, 6.0253688844790796e+00, -7.5052840490879760e+00, -6.6243821653922028e+00, 5.3181659637655709e+00, -6.6243821653922028e+00, -5.8468725215668265e+00], 
                "evaluate_basis_derivatives_all_0": [8.8768550517695033e-01, 2.8108408070781050e+00, -2.6985263139330868e+00], 
                "evaluate_basis_derivatives_all_1": [-2.2132851622870207e+00, 2.7568990617961133e+00, 2.4333193597073675e+00, -3.7684809628804810e+00, 4.6940727783248102e+00, 4.1431252691317564e+00, 5.9817661251675016e+00, -7.4509718401209231e+00, -6.5764446288391234e+00], 
                "evaluate_basis_derivatives_all_2": [2.4186339888401935e+00, -3.0126844422395398e+00, -2.6590829818827855e+00, -3.0126844422395398e+00, 3.7526420245439880e+00, 3.3121910826961014e+00, -2.6590829818827855e+00, 3.3121910826961014e+00, 2.9234362607834132e+00, 2.4186339888401935e+00, -3.0126844422395398e+00, -2.6590829818827855e+00, -3.0126844422395398e+00, 3.7526420245439880e+00, 3.3121910826961014e+00, -2.6590829818827855e+00, 3.3121910826961014e+00, 2.9234362607834132e+00, -4.8372679776803871e+00, 6.0253688844790796e+00, 5.3181659637655709e+00, 6.0253688844790796e+00, -7.5052840490879760e+00, -6.6243821653922028e+00, 5.3181659637655709e+00, -6.6243821653922028e+00, -5.8468725215668265e+00], 
                "evaluate_dof_0": 1.4072081100000003e-01, 
                "evaluate_dof_1": 3.5842907099999999e-01, 
                "evaluate_dof_2": 2.6156556000000003e-01, 
                "evaluate_dofs": [1.4072081100000003e-01, 3.5842907099999999e-01, 2.6156556000000003e-01], 
                "interpolate_vertex_values": [1.4072081100000003e-01, 3.5842907099999999e-01], 
                "num_sub_elements": 0, 
            },
            "finite_element_1": {
                "cell_shape": 0, 
                "space_dimension": 3, 
                "value_rank": 0, 
                "evaluate_basis:_0": [8.8768550517695033e-01], 
                "evaluate_basis:_1": [2.8108408070781050e+00], 
                "evaluate_basis:_2": [-2.6985263139330868e+00], 
                "evaluate_basis_all": [8.8768550517695033e-01, 2.8108408070781050e+00, -2.6985263139330868e+00], 
                "evaluate_basis_derivatives_0_0": [8.8768550517695033e-01], 
                "evaluate_basis_derivatives_0_1": [-2.2132851622870207e+00, 2.7568990617961133e+00, 2.4333193597073675e+00], 
                "evaluate_basis_derivatives_0_2": [2.4186339888401935e+00, -3.0126844422395398e+00, -2.6590829818827855e+00, -3.0126844422395398e+00, 3.7526420245439880e+00, 3.3121910826961014e+00, -2.6590829818827855e+00, 3.3121910826961014e+00, 2.9234362607834132e+00], 
                "evaluate_basis_derivatives_1_0": [2.8108408070781050e+00], 
                "evaluate_basis_derivatives_1_1": [-3.7684809628804810e+00, 4.6940727783248102e+00, 4.1431252691317564e+00], 
                "evaluate_basis_derivatives_1_2": [2.4186339888401935e+00, -3.0126844422395398e+00, -2.6590829818827855e+00, -3.0126844422395398e+00, 3.7526420245439880e+00, 3.3121910826961014e+00, -2.6590829818827855e+00, 3.3121910826961014e+00, 2.9234362607834132e+00], 
                "evaluate_basis_derivatives_2_0": [-2.6985263139330868e+00], 
                "evaluate_basis_derivatives_2_1": [5.9817661251675016e+00, -7.4509718401209231e+00, -6.5764446288391234e+00], 
                "evaluate_basis_derivatives_2_2": [-4.8372679776803871e+00, 6.0253688844790796e+00, 5.3181659637655709e+00, 6.0253688844790796e+00, -7.5052840490879760e+00, -6.6243821653922028e+00, 5.3181659637655709e+00, -6.6243821653922028e+00, -5.8468725215668265e+00], 
                "evaluate_basis_derivatives_all_0": [8.8768550517695033e-01, 2.8108408070781050e+00, -2.6985263139330868e+00], 
                "evaluate_basis_derivatives_all_1": [-2.2132851622870207e+00, 2.7568990617961133e+00, 2.4333193597073675e+00, -3.7684809628804810e+00, 4.6940727783248102e+00, 4.1431252691317564e+00, 5.9817661251675016e+00, -7.4509718401209231e+00, -6.5764446288391234e+00], 
                "evaluate_basis_derivatives_all_2": [2.4186339888401935e+00, -3.0126844422395398e+00, -2.6590829818827855e+00, -3.0126844422395398e+00, 3.7526420245439880e+00, 3.3121910826961014e+00, -2.6590829818827855e+00, 3.3121910826961014e+00, 2.9234362607834132e+00, 2.4186339888401935e+00, -3.0126844422395398e+00, -2.6590829818827855e+00, -3.0126844422395398e+00, 3.7526420245439880e+00, 3.3121910826961014e+00, -2.6590829818827855e+00, 3.3121910826961014e+00, 2.9234362607834132e+00, -4.8372679776803871e+00, 6.0253688844790796e+00, 5.3181659637655709e+00, 6.0253688844790796e+00, -7.5052840490879760e+00, -6.6243821653922028e+00, 5.3181659637655709e+00, -6.6243821653922028e+00, -5.8468725215668265e+00], 
                "evaluate_dof_0": 1.4072081100000003e-01, 
                "evaluate_dof_1": 3.5842907099999999e-01, 
                "evaluate_dof_2": 2.6156556000000003e-01, 
                "evaluate_dofs": [1.4072081100000003e-01, 3.5842907099999999e-01, 2.6156556000000003e-01], 
                "interpolate_vertex_values": [1.4072081100000003e-01, 3.5842907099999999e-01], 
                "num_sub_elements": 0, 
            },
            "finite_element_2": {
                "cell_shape": 0, 
                "space_dimension": 3, 
                "value_rank": 0, 
                "evaluate_basis:_0": [8.8768550517695033e-01], 
                "evaluate_basis:_1": [2.8108408070781050e+00], 
                "evaluate_basis:_2": [-2.6985263139330868e+00], 
                "evaluate_basis_all": [8.8768550517695033e-01, 2.8108408070781050e+00, -2.6985263139330868e+00], 
                "evaluate_basis_derivatives_0_0": [8.8768550517695033e-01], 
                "evaluate_basis_derivatives_0_1": [-2.2132851622870207e+00, 2.7568990617961133e+00, 2.4333193597073675e+00], 
                "evaluate_basis_derivatives_0_2": [2.4186339888401935e+00, -3.0126844422395398e+00, -2.6590829818827855e+00, -3.0126844422395398e+00, 3.7526420245439880e+00, 3.3121910826961014e+00, -2.6590829818827855e+00, 3.3121910826961014e+00, 2.9234362607834132e+00], 
                "evaluate_basis_derivatives_1_0": [2.8108408070781050e+00], 
                "evaluate_basis_derivatives_1_1": [-3.7684809628804810e+00, 4.6940727783248102e+00, 4.1431252691317564e+00], 
                "evaluate_basis_derivatives_1_2": [2.4186339888401935e+00, -3.0126844422395398e+00, -2.6590829818827855e+00, -3.0126844422395398e+00, 3.7526420245439880e+00, 3.3121910826961014e+00, -2.6590829818827855e+00, 3.3121910826961014e+00, 2.9234362607834132e+00], 
                "evaluate_basis_derivatives_2_0": [-2.6985263139330868e+00], 
                "evaluate_basis_derivatives_2_1": [5.9817661251675016e+00, -7.4509718401209231e+00, -6.5764446288391234e+00], 
                "evaluate_basis_derivatives_2_2": [-4.8372679776803871e+00, 6.0253688844790796e+00, 5.3181659637655709e+00, 6.0253688844790796e+00, -7.5052840490879760e+00, -6.6243821653922028e+00, 5.3181659637655709e+00, -6.6243821653922028e+00, -5.8468725215668265e+00], 
                "evaluate_basis_derivatives_all_0": [8.8768550517695033e-01, 2.8108408070781050e+00, -2.6985263139330868e+00], 
                "evaluate_basis_derivatives_all_1": [-2.2132851622870207e+00, 2.7568990617961133e+00, 2.4333193597073675e+00, -3.7684809628804810e+00, 4.6940727783248102e+00, 4.1431252691317564e+00, 5.9817661251675016e+00, -7.4509718401209231e+00, -6.5764446288391234e+00], 
                "evaluate_basis_derivatives_all_2": [2.4186339888401935e+00, -3.0126844422395398e+00, -2.6590829818827855e+00, -3.0126844422395398e+00, 3.7526420245439880e+00, 3.3121910826961014e+00, -2.6590829818827855e+00, 3.3121910826961014e+00, 2.9234362607834132e+00, 2.4186339888401935e+00, -3.0126844422395398e+00, -2.6590829818827855e+00, -3.0126844422395398e+00, 3.7526420245439880e+00, 3.3121910826961014e+00, -2.6590829818827855e+00, 3.3121910826961014e+00, 2.9234362607834132e+00, -4.8372679776803871e+00, 6.0253688844790796e+00, 5.3181659637655709e+00, 6.0253688844790796e+00, -7.5052840490879760e+00, -6.6243821653922028e+00, 5.3181659637655709e+00, -6.6243821653922028e+00, -5.8468725215668265e+00], 
                "evaluate_dof_0": 1.4072081100000003e-01, 
                "evaluate_dof_1": 3.5842907099999999e-01, 
                "evaluate_dof_2": 2.6156556000000003e-01, 
                "evaluate_dofs": [1.4072081100000003e-01, 3.5842907099999999e-01, 2.6156556000000003e-01], 
                "interpolate_vertex_values": [1.4072081100000003e-01, 3.5842907099999999e-01], 
                "num_sub_elements": 0, 
            },
        },
        "finite_element_1": {
            "cell_shape": 0, 
            "space_dimension": 2, 
            "value_rank": 0, 
            "evaluate_basis:_0": [-4.6157765178959309e-01], 
            "evaluate_basis:_1": [1.4615776501115616e+00], 
            "evaluate_basis_all": [-4.6157765178959309e-01, 1.4615776501115616e+00], 
            "evaluate_basis_derivatives_0_0": [-4.6157765178959309e-01], 
            "evaluate_basis_derivatives_0_1": [7.7759790029673015e-01, -9.6858685826434809e-01, -8.5490295471219435e-01], 
            "evaluate_basis_derivatives_0_2": [0.0, 0.0, 0.0, 0.0, 0.0, 0.0, 0.0, 0.0, 0.0], 
            "evaluate_basis_derivatives_1_0": [1.4615776501115616e+00], 
            "evaluate_basis_derivatives_1_1": [-7.7759790029673015e-01, 9.6858685826434809e-01, 8.5490295471219435e-01], 
            "evaluate_basis_derivatives_1_2": [0.0, 0.0, 0.0, 0.0, 0.0, 0.0, 0.0, 0.0, 0.0], 
            "evaluate_basis_derivatives_all_0": [-4.6157765178959309e-01, 1.4615776501115616e+00], 
            "evaluate_basis_derivatives_all_1": [7.7759790029673015e-01, -9.6858685826434809e-01, -8.5490295471219435e-01, -7.7759790029673015e-01, 9.6858685826434809e-01, 8.5490295471219435e-01], 
            "evaluate_basis_derivatives_all_2": [0.0, 0.0, 0.0, 0.0, 0.0, 0.0, 0.0, 0.0, 0.0, 0.0, 0.0, 0.0, 0.0, 0.0, 0.0, 0.0, 0.0, 0.0], 
            "evaluate_dof_0": 1.4072081100000003e-01, 
            "evaluate_dof_1": 3.5842907099999999e-01, 
            "evaluate_dofs": [1.4072081100000003e-01, 3.5842907099999999e-01], 
            "interpolate_vertex_values": [1.4072081100000003e-01, 3.5842907099999999e-01], 
            "num_sub_elements": 0, 
        },
    },
}
