{
    "form_0": {
        "num_coefficients": 0, 
        "has_cell_integrals": 1, 
        "has_exterior_facet_integrals": 0, 
        "has_interior_facet_integrals": 0, 
        "has_point_integrals": 0, 
        "num_cell_domains": 0, 
        "num_exterior_facet_domains": 0, 
        "num_interior_facet_domains": 0, 
        "num_point_domains": 0, 
        "finite_element_0": {
            "cell_shape": 3, 
            "space_dimension": 20, 
            "value_rank": 0, 
            "evaluate_basis:_0": [-1.4250896240417532e-02], 
            "evaluate_basis:_1": [-3.4874589894254761e+01], 
            "evaluate_basis:_2": [6.2079436610431582e-02], 
            "evaluate_basis:_3": [1.6508576761316395e+01], 
            "evaluate_basis:_4": [-6.3933809244446937e-01], 
            "evaluate_basis:_5": [4.5512063401604319e+00], 
            "evaluate_basis:_6": [8.5263013412601495e+01], 
            "evaluate_basis:_7": [-6.6852227846838460e+01], 
            "evaluate_basis:_8": [5.0855519421754867e+00], 
            "evaluate_basis:_9": [5.6014104756557770e-01], 
            "evaluate_basis:_10": [5.3128853442362045e+00], 
            "evaluate_basis:_11": [2.6164590857408093e+01], 
            "evaluate_basis:_12": [3.1688931081508342e-01], 
            "evaluate_basis:_13": [-2.1922771598085133e-01], 
            "evaluate_basis:_14": [-4.6547586387986470e+00], 
            "evaluate_basis:_15": [2.9236506369258414e+01], 
            "evaluate_basis:_16": [-9.6720397616729485e+00], 
            "evaluate_basis:_17": [3.7854382500424499e+00], 
            "evaluate_basis:_18": [-5.5603925518333071e+01], 
            "evaluate_basis:_19": [-3.3165222123661855e+00], 
            "evaluate_basis_all": [-1.4250896240417532e-02, -3.4874589894254761e+01, 6.2079436610431582e-02, 1.6508576761316395e+01, -6.3933809244446937e-01, 4.5512063401604319e+00, 8.5263013412601495e+01, -6.6852227846838460e+01, 5.0855519421754867e+00, 5.6014104756557770e-01, 5.3128853442362045e+00, 2.6164590857408093e+01, 3.1688931081508342e-01, -2.1922771598085133e-01, -4.6547586387986470e+00, 2.9236506369258414e+01, -9.6720397616729485e+00, 3.7854382500424499e+00, -5.5603925518333071e+01, -3.3165222123661855e+00], 
            "evaluate_basis_derivatives_0_0": [-1.4250896240417532e-02], 
            "evaluate_basis_derivatives_0_1": [7.0476493032960530e-01, -1.8384007576830530e+00, 4.2183014995639545e-01], 
            "evaluate_basis_derivatives_0_2": [5.6928391969139369e+00, -1.4849959390065191e+01, 3.4074007387132887e+00, -1.4849961432461409e+01, 3.8736605752450345e+01, -8.8883164649760538e+00, 3.4074007446541170e+00, -8.8883137525152343e+00, 2.0394737339825078e+00], 
            "evaluate_basis_derivatives_1_0": [-3.4874589894254761e+01], 
            "evaluate_basis_derivatives_1_1": [4.8750278045374543e+01, 6.1152059994179702e+01, 1.1700840014966931e+02], 
            "evaluate_basis_derivatives_1_2": [-4.4997589356986744e+01, -5.6444709555955257e+01, -1.0800135261859960e+02, -5.6444707512197283e+01, -7.0803907404416464e+01, -1.3547625194357579e+02, -1.0800135158289375e+02, -1.3547625471613964e+02, -2.5922037358073101e+02], 
            "evaluate_basis_derivatives_2_0": [6.2079436610431582e-02], 
            "evaluate_basis_derivatives_2_1": [-6.2467213047685786e-03, 2.0525923821798844e-01, -2.3823620789120728e-01], 
            "evaluate_basis_derivatives_2_2": [-9.8307519511757480e-03, 3.2299586763089699e-01, -3.7488924675017082e-01, 3.2299624517424452e-01, -1.0612843348581711e+01, 1.2317914846663301e+01, -3.7488967449875077e-01, 1.2317914503259511e+01, -1.4296925125178522e+01], 
            "evaluate_basis_derivatives_3_0": [1.6508576761316395e+01], 
            "evaluate_basis_derivatives_3_1": [-5.5026399329569095e+01, -1.1691643185112593e+01, -3.6804224930464542e+01], 
            "evaluate_basis_derivatives_3_2": [1.2034429227063013e+02, 2.5569954453425964e+01, 8.0491881274989495e+01, 2.5569954453425964e+01, 5.4329337803571347e+00, 1.7102379342126444e+01, 8.0491881274989495e+01, 1.7102379342126444e+01, 5.3836728181650372e+01], 
            "evaluate_basis_derivatives_4_0": [-6.3933809244446937e-01], 
            "evaluate_basis_derivatives_4_1": [6.7907970324816547e-01, -3.5375141488453332e+00, 4.6256018242526196e+00], 
            "evaluate_basis_derivatives_4_2": [-1.1286447345157989e-01, 4.3889791468246458e-01, -5.9992064248715593e-01, 4.3889582875744443e-01, 9.3007213346720405e+01, -1.0497598540496770e+02, -5.9991827917848917e-01, -1.0497598350766356e+02, 1.1838988543294052e+02], 
            "evaluate_basis_derivatives_5_0": [4.5512063401604319e+00], 
            "evaluate_basis_derivatives_5_1": [-1.0577189115617657e+01, 5.1787325591797824e+01, -6.8294679201189140e+01], 
            "evaluate_basis_derivatives_5_2": [1.5127078004169130e+01, -1.0296550473207648e+02, 1.3041693003534689e+02, -1.0296550173157588e+02, -4.4437760761303984e+01, -4.3307754010328317e+01, 1.3041692663584354e+02, -4.3307756739507049e+01, 1.6769067361832049e+02], 
            "evaluate_basis_derivatives_6_0": [8.5263013412601495e+01], 
            "evaluate_basis_derivatives_6_1": [-1.6149249133154987e+02, -1.2368585215485371e+02, -2.5652073455123991e+02], 
            "evaluate_basis_derivatives_6_2": [1.9513350962296903e+02, 1.6540923688706852e+02, 3.3647404747426719e+02, 1.6540923204770476e+02, 1.0793326661210693e+02, 2.3158225063528275e+02, 3.3647404666111424e+02, 2.3158225851135663e+02, 4.9106457730170735e+02], 
            "evaluate_basis_derivatives_7_0": [-6.6852227846838460e+01], 
            "evaluate_basis_derivatives_7_1": [1.6805504758090791e+02, 7.3933891597945575e+01, 1.7592257071125994e+02], 
            "evaluate_basis_derivatives_7_2": [-2.7206375261118944e+02, -1.3292271862005848e+02, -3.0678645211518585e+02, -1.3292271661321962e+02, -4.4202772048644093e+01, -1.1542531321931928e+02, -3.0678645016185561e+02, -1.1542531414655620e+02, -2.8867688072901126e+02], 
            "evaluate_basis_derivatives_8_0": [5.0855519421754867e+00], 
            "evaluate_basis_derivatives_8_1": [-6.9420032231772630e+00, 5.3573080210853149e+01, -8.1908761611905348e+01], 
            "evaluate_basis_derivatives_8_2": [6.2258006071302958e+00, -5.4847043224527333e+01, 8.0583207698361988e+01, -5.4847042888960083e+01, -1.4739593593953981e+02, -4.9302798503653904e+01, 8.0583206073382101e+01, -4.9302800760799016e+01, 3.5095960280886305e+02], 
            "evaluate_basis_derivatives_9_0": [5.6014104756557770e-01], 
            "evaluate_basis_derivatives_9_1": [-4.0494922890719537e-01, 2.8193869339220017e+00, -4.4577399164689044e+00], 
            "evaluate_basis_derivatives_9_2": [3.2707152994618814e-02, 7.5141087495916692e-01, -6.6570975141335409e-01, 7.5140922614944405e-01, -8.4689355626262952e+01, 9.1513131381661310e+01, -6.6570918968808590e-01, 9.1513134749776825e+01, -9.8343539355928812e+01], 
            "evaluate_basis_derivatives_10_0": [5.3128853442362045e+00], 
            "evaluate_basis_derivatives_10_1": [1.5524171273482047e+01, -5.3804688498295057e+01, 8.9601610793596542e+00], 
            "evaluate_basis_derivatives_10_2": [-1.9486438378382474e+00, -4.5625707951706566e+01, -2.4301172789643175e+00, -4.5625701846816327e+01, 2.5129175319423180e+02, -2.4012277294449042e+01, -2.4301185800745131e+00, -2.4012281931864365e+01, -2.2109506587358965e+00], 
            "evaluate_basis_derivatives_11_0": [2.6164590857408093e+01], 
            "evaluate_basis_derivatives_11_1": [-1.8708988266391312e+01, -9.6236530368959436e+01, -1.4812793046322216e+01], 
            "evaluate_basis_derivatives_11_2": [-7.8485057587879794e+01, 1.6462004424998460e+02, -4.7976190987022221e+01, 1.6462003924264516e+02, 7.3497944047736084e+01, 1.1106558201626171e+02, -4.7976189540849134e+01, 1.1106558567267734e+02, -2.9066678974320183e+01], 
            "evaluate_basis_derivatives_12_0": [3.1688931081508342e-01], 
            "evaluate_basis_derivatives_12_1": [1.0935837050354218e+00, 5.8871718046893928e-01, -3.6160528501113167e+00], 
            "evaluate_basis_derivatives_12_2": [1.1611650371121653e+00, 1.0082681960104217e+01, -1.5576045662593341e+01, 1.0082681425208872e+01, -6.0503104847612214e+01, 4.8478471218752830e+01, -1.5576045300662489e+01, 4.8478469432148906e+01, -1.9061808310512049e+01], 
            "evaluate_basis_derivatives_13_0": [-2.1922771598085133e-01], 
            "evaluate_basis_derivatives_13_1": [-2.3585331478927540e-01, -5.3955412783975232e-01, 1.2918802214283944e+00], 
            "evaluate_basis_derivatives_13_2": [1.2453914491467227e-01, -2.6486185898457530e+00, 2.9582329440374595e+00, -2.6486157982099070e+00, 3.9598637140121149e+01, -4.2151957372481128e+01, 2.9582310875145090e+00, -4.2151961780082111e+01, 4.4503600004776416e+01], 
            "evaluate_basis_derivatives_14_0": [-4.6547586387986470e+00], 
            "evaluate_basis_derivatives_14_1": [-1.5180114516115925e+01, 4.9465841188831661e+01, -4.4836180337293392e+00], 
            "evaluate_basis_derivatives_14_2": [-1.0324593972055581e+01, 6.4529223198653924e+01, 1.1355122345655403e+01, 6.4529223831680170e+01, -2.6640009933337473e+02, -7.1167488615253767e+00, 1.1355123235428167e+01, -7.1167507320366177e+00, 1.7291822927580718e+01], 
            "evaluate_basis_derivatives_15_0": [2.9236506369258414e+01], 
            "evaluate_basis_derivatives_15_1": [7.1321399993941696e+00, -1.3222394922305497e+02, -4.8721738327589030e+01], 
            "evaluate_basis_derivatives_15_2": [-5.8858133553097559e+01, 6.8190443857488575e+01, -7.5031826219118216e+01, 6.8190442056495982e+01, 2.6368891426880356e+02, 2.4675521167414058e+02, -7.5031826828799453e+01, 2.4675521466586864e+02, -2.1108910537684157e+01], 
            "evaluate_basis_derivatives_16_0": [-9.6720397616729485e+00], 
            "evaluate_basis_derivatives_16_1": [1.7369411045406377e+01, -1.0561124399682274e+02, 1.5090993698037815e+02], 
            "evaluate_basis_derivatives_16_2": [-1.9405744382054120e+01, 1.5397376228003114e+02, -2.1137397978563530e+02, 1.5397376520815027e+02, 1.9763092945562801e+02, 9.5545241771823669e+01, -2.1137397947184562e+02, 9.5545234790249580e+01, -5.2130573537109194e+02], 
            "evaluate_basis_derivatives_17_0": [3.7854382500424499e+00], 
            "evaluate_basis_derivatives_17_1": [1.1134214462028780e-02, 3.1597207325204113e+01, -5.1244707988397984e+01], 
            "evaluate_basis_derivatives_17_2": [-9.3875231542208581e+00, 3.0918429155797327e+01, -2.4294560238484298e+01, 3.0918424334510199e+01, -3.0339295551312006e+02, 1.9245409845179731e+02, -2.4294558407354970e+01, 1.9245410715534874e+02, -1.9349476393566359e+01], 
            "evaluate_basis_derivatives_18_0": [-5.5603925518333071e+01], 
            "evaluate_basis_derivatives_18_1": [1.0389410078795592e+01, 2.3007237530131158e+02, 6.4667359028648093e+01], 
            "evaluate_basis_derivatives_18_2": [1.4553184849613524e+02, -2.3928812590482164e+02, 1.0944031072779711e+02, -2.3928812319125524e+02, -3.3248383194223385e+02, -3.4656549736699583e+02, 1.0944030833383260e+02, -3.4656550422493581e+02, 7.2007286990070099e+01], 
            "evaluate_basis_derivatives_19_0": [-3.3165222123661855e+00], 
            "evaluate_basis_derivatives_19_1": [-1.1347819029332360e+00, -2.6025766889619600e+01, 4.7295550841800662e+01], 
            "evaluate_basis_derivatives_19_2": [6.2199469024722269e+00, -3.5214694054333236e+01, 3.7983904466323501e+01, -3.5214694208770055e+01, 2.9410436873259118e+02, -1.6959138300690350e+02, 3.7983906130180678e+01, -1.6959137864137884e+02, -4.5142381304656219e+01], 
            "evaluate_basis_derivatives_all_0": [-1.4250896240417532e-02, -3.4874589894254761e+01, 6.2079436610431582e-02, 1.6508576761316395e+01, -6.3933809244446937e-01, 4.5512063401604319e+00, 8.5263013412601495e+01, -6.6852227846838460e+01, 5.0855519421754867e+00, 5.6014104756557770e-01, 5.3128853442362045e+00, 2.6164590857408093e+01, 3.1688931081508342e-01, -2.1922771598085133e-01, -4.6547586387986470e+00, 2.9236506369258414e+01, -9.6720397616729485e+00, 3.7854382500424499e+00, -5.5603925518333071e+01, -3.3165222123661855e+00], 
            "evaluate_basis_derivatives_all_1": [7.0476493032960530e-01, -1.8384007576830530e+00, 4.2183014995639545e-01, 4.8750278045374543e+01, 6.1152059994179702e+01, 1.1700840014966931e+02, -6.2467213047685786e-03, 2.0525923821798844e-01, -2.3823620789120728e-01, -5.5026399329569095e+01, -1.1691643185112593e+01, -3.6804224930464542e+01, 6.7907970324816547e-01, -3.5375141488453332e+00, 4.6256018242526196e+00, -1.0577189115617657e+01, 5.1787325591797824e+01, -6.8294679201189140e+01, -1.6149249133154987e+02, -1.2368585215485371e+02, -2.5652073455123991e+02, 1.6805504758090791e+02, 7.3933891597945575e+01, 1.7592257071125994e+02, -6.9420032231772630e+00, 5.3573080210853149e+01, -8.1908761611905348e+01, -4.0494922890719537e-01, 2.8193869339220017e+00, -4.4577399164689044e+00, 1.5524171273482047e+01, -5.3804688498295057e+01, 8.9601610793596542e+00, -1.8708988266391312e+01, -9.6236530368959436e+01, -1.4812793046322216e+01, 1.0935837050354218e+00, 5.8871718046893928e-01, -3.6160528501113167e+00, -2.3585331478927540e-01, -5.3955412783975232e-01, 1.2918802214283944e+00, -1.5180114516115925e+01, 4.9465841188831661e+01, -4.4836180337293392e+00, 7.1321399993941696e+00, -1.3222394922305497e+02, -4.8721738327589030e+01, 1.7369411045406377e+01, -1.0561124399682274e+02, 1.5090993698037815e+02, 1.1134214462028780e-02, 3.1597207325204113e+01, -5.1244707988397984e+01, 1.0389410078795592e+01, 2.3007237530131158e+02, 6.4667359028648093e+01, -1.1347819029332360e+00, -2.6025766889619600e+01, 4.7295550841800662e+01], 
            "evaluate_basis_derivatives_all_2": [5.6928391969139369e+00, -1.4849959390065191e+01, 3.4074007387132887e+00, -1.4849961432461409e+01, 3.8736605752450345e+01, -8.8883164649760538e+00, 3.4074007446541170e+00, -8.8883137525152343e+00, 2.0394737339825078e+00, -4.4997589356986744e+01, -5.6444709555955257e+01, -1.0800135261859960e+02, -5.6444707512197283e+01, -7.0803907404416464e+01, -1.3547625194357579e+02, -1.0800135158289375e+02, -1.3547625471613964e+02, -2.5922037358073101e+02, -9.8307519511757480e-03, 3.2299586763089699e-01, -3.7488924675017082e-01, 3.2299624517424452e-01, -1.0612843348581711e+01, 1.2317914846663301e+01, -3.7488967449875077e-01, 1.2317914503259511e+01, -1.4296925125178522e+01, 1.2034429227063013e+02, 2.5569954453425964e+01, 8.0491881274989495e+01, 2.5569954453425964e+01, 5.4329337803571347e+00, 1.7102379342126444e+01, 8.0491881274989495e+01, 1.7102379342126444e+01, 5.3836728181650372e+01, -1.1286447345157989e-01, 4.3889791468246458e-01, -5.9992064248715593e-01, 4.3889582875744443e-01, 9.3007213346720405e+01, -1.0497598540496770e+02, -5.9991827917848917e-01, -1.0497598350766356e+02, 1.1838988543294052e+02, 1.5127078004169130e+01, -1.0296550473207648e+02, 1.3041693003534689e+02, -1.0296550173157588e+02, -4.4437760761303984e+01, -4.3307754010328317e+01, 1.3041692663584354e+02, -4.3307756739507049e+01, 1.6769067361832049e+02, 1.9513350962296903e+02, 1.6540923688706852e+02, 3.3647404747426719e+02, 1.6540923204770476e+02, 1.0793326661210693e+02, 2.3158225063528275e+02, 3.3647404666111424e+02, 2.3158225851135663e+02, 4.9106457730170735e+02, -2.7206375261118944e+02, -1.3292271862005848e+02, -3.0678645211518585e+02, -1.3292271661321962e+02, -4.4202772048644093e+01, -1.1542531321931928e+02, -3.0678645016185561e+02, -1.1542531414655620e+02, -2.8867688072901126e+02, 6.2258006071302958e+00, -5.4847043224527333e+01, 8.0583207698361988e+01, -5.4847042888960083e+01, -1.4739593593953981e+02, -4.9302798503653904e+01, 8.0583206073382101e+01, -4.9302800760799016e+01, 3.5095960280886305e+02, 3.2707152994618814e-02, 7.5141087495916692e-01, -6.6570975141335409e-01, 7.5140922614944405e-01, -8.4689355626262952e+01, 9.1513131381661310e+01, -6.6570918968808590e-01, 9.1513134749776825e+01, -9.8343539355928812e+01, -1.9486438378382474e+00, -4.5625707951706566e+01, -2.4301172789643175e+00, -4.5625701846816327e+01, 2.5129175319423180e+02, -2.4012277294449042e+01, -2.4301185800745131e+00, -2.4012281931864365e+01, -2.2109506587358965e+00, -7.8485057587879794e+01, 1.6462004424998460e+02, -4.7976190987022221e+01, 1.6462003924264516e+02, 7.3497944047736084e+01, 1.1106558201626171e+02, -4.7976189540849134e+01, 1.1106558567267734e+02, -2.9066678974320183e+01, 1.1611650371121653e+00, 1.0082681960104217e+01, -1.5576045662593341e+01, 1.0082681425208872e+01, -6.0503104847612214e+01, 4.8478471218752830e+01, -1.5576045300662489e+01, 4.8478469432148906e+01, -1.9061808310512049e+01, 1.2453914491467227e-01, -2.6486185898457530e+00, 2.9582329440374595e+00, -2.6486157982099070e+00, 3.9598637140121149e+01, -4.2151957372481128e+01, 2.9582310875145090e+00, -4.2151961780082111e+01, 4.4503600004776416e+01, -1.0324593972055581e+01, 6.4529223198653924e+01, 1.1355122345655403e+01, 6.4529223831680170e+01, -2.6640009933337473e+02, -7.1167488615253767e+00, 1.1355123235428167e+01, -7.1167507320366177e+00, 1.7291822927580718e+01, -5.8858133553097559e+01, 6.8190443857488575e+01, -7.5031826219118216e+01, 6.8190442056495982e+01, 2.6368891426880356e+02, 2.4675521167414058e+02, -7.5031826828799453e+01, 2.4675521466586864e+02, -2.1108910537684157e+01, -1.9405744382054120e+01, 1.5397376228003114e+02, -2.1137397978563530e+02, 1.5397376520815027e+02, 1.9763092945562801e+02, 9.5545241771823669e+01, -2.1137397947184562e+02, 9.5545234790249580e+01, -5.2130573537109194e+02, -9.3875231542208581e+00, 3.0918429155797327e+01, -2.4294560238484298e+01, 3.0918424334510199e+01, -3.0339295551312006e+02, 1.9245409845179731e+02, -2.4294558407354970e+01, 1.9245410715534874e+02, -1.9349476393566359e+01, 1.4553184849613524e+02, -2.3928812590482164e+02, 1.0944031072779711e+02, -2.3928812319125524e+02, -3.3248383194223385e+02, -3.4656549736699583e+02, 1.0944030833383260e+02, -3.4656550422493581e+02, 7.2007286990070099e+01, 6.2199469024722269e+00, -3.5214694054333236e+01, 3.7983904466323501e+01, -3.5214694208770055e+01, 2.9410436873259118e+02, -1.6959138300690350e+02, 3.7983906130180678e+01, -1.6959137864137884e+02, -4.5142381304656219e+01], 
            "evaluate_dof_0": 1.4072081100000003e-01, 
            "evaluate_dof_1": 3.5842907099999999e-01, 
            "evaluate_dof_2": 1.4760881100000001e-01, 
            "evaluate_dof_3": 4.6025001000000010e-02, 
            "evaluate_dof_4": 1.7329165310852221e-01, 
            "evaluate_dof_5": 1.3266737432985171e-01, 
            "evaluate_dof_6": 2.2537428173040833e-01, 
            "evaluate_dof_7": 1.2234905988657878e-01, 
            "evaluate_dof_8": 3.3608625679317317e-01, 
            "evaluate_dof_9": 2.6613697405923348e-01, 
            "evaluate_dof_10": 1.4040140779939675e-01, 
            "evaluate_dof_11": 1.1150547054146465e-01, 
            "evaluate_dof_12": 1.6745845262529402e-01, 
            "evaluate_dof_13": 1.7048601179329848e-01, 
            "evaluate_dof_14": 2.2191966219058074e-01, 
            "evaluate_dof_15": 2.9854687570283606e-01, 
            "evaluate_dof_16": 2.2092482192781074e-01, 
            "evaluate_dof_17": 1.6519833115516111e-01, 
            "evaluate_dof_18": 1.9198191168498699e-01, 
            "evaluate_dof_19": 2.5422960426200059e-01, 
            "evaluate_dofs": [1.4072081100000003e-01, 3.5842907099999999e-01, 1.4760881100000001e-01, 4.6025001000000010e-02, 1.7329165310852221e-01, 1.3266737432985171e-01, 2.2537428173040833e-01, 1.2234905988657878e-01, 3.3608625679317317e-01, 2.6613697405923348e-01, 1.4040140779939675e-01, 1.1150547054146465e-01, 1.6745845262529402e-01, 1.7048601179329848e-01, 2.2191966219058074e-01, 2.9854687570283606e-01, 2.2092482192781074e-01, 1.6519833115516111e-01, 1.9198191168498699e-01, 2.5422960426200059e-01], 
            "interpolate_vertex_values": [1.4072081100000003e-01, 3.5842907099999999e-01, 1.4760881100000001e-01, 4.6025001000000010e-02], 
            "num_sub_elements": 0, 
        },
        "finite_element_1": {
            "cell_shape": 3, 
            "space_dimension": 20, 
            "value_rank": 0, 
            "evaluate_basis:_0": [-1.4250896240417532e-02], 
            "evaluate_basis:_1": [-3.4874589894254761e+01], 
            "evaluate_basis:_2": [6.2079436610431582e-02], 
            "evaluate_basis:_3": [1.6508576761316395e+01], 
            "evaluate_basis:_4": [-6.3933809244446937e-01], 
            "evaluate_basis:_5": [4.5512063401604319e+00], 
            "evaluate_basis:_6": [8.5263013412601495e+01], 
            "evaluate_basis:_7": [-6.6852227846838460e+01], 
            "evaluate_basis:_8": [5.0855519421754867e+00], 
            "evaluate_basis:_9": [5.6014104756557770e-01], 
            "evaluate_basis:_10": [5.3128853442362045e+00], 
            "evaluate_basis:_11": [2.6164590857408093e+01], 
            "evaluate_basis:_12": [3.1688931081508342e-01], 
            "evaluate_basis:_13": [-2.1922771598085133e-01], 
            "evaluate_basis:_14": [-4.6547586387986470e+00], 
            "evaluate_basis:_15": [2.9236506369258414e+01], 
            "evaluate_basis:_16": [-9.6720397616729485e+00], 
            "evaluate_basis:_17": [3.7854382500424499e+00], 
            "evaluate_basis:_18": [-5.5603925518333071e+01], 
            "evaluate_basis:_19": [-3.3165222123661855e+00], 
            "evaluate_basis_all": [-1.4250896240417532e-02, -3.4874589894254761e+01, 6.2079436610431582e-02, 1.6508576761316395e+01, -6.3933809244446937e-01, 4.5512063401604319e+00, 8.5263013412601495e+01, -6.6852227846838460e+01, 5.0855519421754867e+00, 5.6014104756557770e-01, 5.3128853442362045e+00, 2.6164590857408093e+01, 3.1688931081508342e-01, -2.1922771598085133e-01, -4.6547586387986470e+00, 2.9236506369258414e+01, -9.6720397616729485e+00, 3.7854382500424499e+00, -5.5603925518333071e+01, -3.3165222123661855e+00], 
            "evaluate_basis_derivatives_0_0": [-1.4250896240417532e-02], 
            "evaluate_basis_derivatives_0_1": [7.0476493032960530e-01, -1.8384007576830530e+00, 4.2183014995639545e-01], 
            "evaluate_basis_derivatives_0_2": [5.6928391969139369e+00, -1.4849959390065191e+01, 3.4074007387132887e+00, -1.4849961432461409e+01, 3.8736605752450345e+01, -8.8883164649760538e+00, 3.4074007446541170e+00, -8.8883137525152343e+00, 2.0394737339825078e+00], 
            "evaluate_basis_derivatives_1_0": [-3.4874589894254761e+01], 
            "evaluate_basis_derivatives_1_1": [4.8750278045374543e+01, 6.1152059994179702e+01, 1.1700840014966931e+02], 
            "evaluate_basis_derivatives_1_2": [-4.4997589356986744e+01, -5.6444709555955257e+01, -1.0800135261859960e+02, -5.6444707512197283e+01, -7.0803907404416464e+01, -1.3547625194357579e+02, -1.0800135158289375e+02, -1.3547625471613964e+02, -2.5922037358073101e+02], 
            "evaluate_basis_derivatives_2_0": [6.2079436610431582e-02], 
            "evaluate_basis_derivatives_2_1": [-6.2467213047685786e-03, 2.0525923821798844e-01, -2.3823620789120728e-01], 
            "evaluate_basis_derivatives_2_2": [-9.8307519511757480e-03, 3.2299586763089699e-01, -3.7488924675017082e-01, 3.2299624517424452e-01, -1.0612843348581711e+01, 1.2317914846663301e+01, -3.7488967449875077e-01, 1.2317914503259511e+01, -1.4296925125178522e+01], 
            "evaluate_basis_derivatives_3_0": [1.6508576761316395e+01], 
            "evaluate_basis_derivatives_3_1": [-5.5026399329569095e+01, -1.1691643185112593e+01, -3.6804224930464542e+01], 
            "evaluate_basis_derivatives_3_2": [1.2034429227063013e+02, 2.5569954453425964e+01, 8.0491881274989495e+01, 2.5569954453425964e+01, 5.4329337803571347e+00, 1.7102379342126444e+01, 8.0491881274989495e+01, 1.7102379342126444e+01, 5.3836728181650372e+01], 
            "evaluate_basis_derivatives_4_0": [-6.3933809244446937e-01], 
            "evaluate_basis_derivatives_4_1": [6.7907970324816547e-01, -3.5375141488453332e+00, 4.6256018242526196e+00], 
            "evaluate_basis_derivatives_4_2": [-1.1286447345157989e-01, 4.3889791468246458e-01, -5.9992064248715593e-01, 4.3889582875744443e-01, 9.3007213346720405e+01, -1.0497598540496770e+02, -5.9991827917848917e-01, -1.0497598350766356e+02, 1.1838988543294052e+02], 
            "evaluate_basis_derivatives_5_0": [4.5512063401604319e+00], 
            "evaluate_basis_derivatives_5_1": [-1.0577189115617657e+01, 5.1787325591797824e+01, -6.8294679201189140e+01], 
            "evaluate_basis_derivatives_5_2": [1.5127078004169130e+01, -1.0296550473207648e+02, 1.3041693003534689e+02, -1.0296550173157588e+02, -4.4437760761303984e+01, -4.3307754010328317e+01, 1.3041692663584354e+02, -4.3307756739507049e+01, 1.6769067361832049e+02], 
            "evaluate_basis_derivatives_6_0": [8.5263013412601495e+01], 
            "evaluate_basis_derivatives_6_1": [-1.6149249133154987e+02, -1.2368585215485371e+02, -2.5652073455123991e+02], 
            "evaluate_basis_derivatives_6_2": [1.9513350962296903e+02, 1.6540923688706852e+02, 3.3647404747426719e+02, 1.6540923204770476e+02, 1.0793326661210693e+02, 2.3158225063528275e+02, 3.3647404666111424e+02, 2.3158225851135663e+02, 4.9106457730170735e+02], 
            "evaluate_basis_derivatives_7_0": [-6.6852227846838460e+01], 
            "evaluate_basis_derivatives_7_1": [1.6805504758090791e+02, 7.3933891597945575e+01, 1.7592257071125994e+02], 
            "evaluate_basis_derivatives_7_2": [-2.7206375261118944e+02, -1.3292271862005848e+02, -3.0678645211518585e+02, -1.3292271661321962e+02, -4.4202772048644093e+01, -1.1542531321931928e+02, -3.0678645016185561e+02, -1.1542531414655620e+02, -2.8867688072901126e+02], 
            "evaluate_basis_derivatives_8_0": [5.0855519421754867e+00], 
            "evaluate_basis_derivatives_8_1": [-6.9420032231772630e+00, 5.3573080210853149e+01, -8.1908761611905348e+01], 
            "evaluate_basis_derivatives_8_2": [6.2258006071302958e+00, -5.4847043224527333e+01, 8.0583207698361988e+01, -5.4847042888960083e+01, -1.4739593593953981e+02, -4.9302798503653904e+01, 8.0583206073382101e+01, -4.9302800760799016e+01, 3.5095960280886305e+02], 
            "evaluate_basis_derivatives_9_0": [5.6014104756557770e-01], 
            "evaluate_basis_derivatives_9_1": [-4.0494922890719537e-01, 2.8193869339220017e+00, -4.4577399164689044e+00], 
            "evaluate_basis_derivatives_9_2": [3.2707152994618814e-02, 7.5141087495916692e-01, -6.6570975141335409e-01, 7.5140922614944405e-01, -8.4689355626262952e+01, 9.1513131381661310e+01, -6.6570918968808590e-01, 9.1513134749776825e+01, -9.8343539355928812e+01], 
            "evaluate_basis_derivatives_10_0": [5.3128853442362045e+00], 
            "evaluate_basis_derivatives_10_1": [1.5524171273482047e+01, -5.3804688498295057e+01, 8.9601610793596542e+00], 
            "evaluate_basis_derivatives_10_2": [-1.9486438378382474e+00, -4.5625707951706566e+01, -2.4301172789643175e+00, -4.5625701846816327e+01, 2.5129175319423180e+02, -2.4012277294449042e+01, -2.4301185800745131e+00, -2.4012281931864365e+01, -2.2109506587358965e+00], 
            "evaluate_basis_derivatives_11_0": [2.6164590857408093e+01], 
            "evaluate_basis_derivatives_11_1": [-1.8708988266391312e+01, -9.6236530368959436e+01, -1.4812793046322216e+01], 
            "evaluate_basis_derivatives_11_2": [-7.8485057587879794e+01, 1.6462004424998460e+02, -4.7976190987022221e+01, 1.6462003924264516e+02, 7.3497944047736084e+01, 1.1106558201626171e+02, -4.7976189540849134e+01, 1.1106558567267734e+02, -2.9066678974320183e+01], 
            "evaluate_basis_derivatives_12_0": [3.1688931081508342e-01], 
            "evaluate_basis_derivatives_12_1": [1.0935837050354218e+00, 5.8871718046893928e-01, -3.6160528501113167e+00], 
            "evaluate_basis_derivatives_12_2": [1.1611650371121653e+00, 1.0082681960104217e+01, -1.5576045662593341e+01, 1.0082681425208872e+01, -6.0503104847612214e+01, 4.8478471218752830e+01, -1.5576045300662489e+01, 4.8478469432148906e+01, -1.9061808310512049e+01], 
            "evaluate_basis_derivatives_13_0": [-2.1922771598085133e-01], 
            "evaluate_basis_derivatives_13_1": [-2.3585331478927540e-01, -5.3955412783975232e-01, 1.2918802214283944e+00], 
            "evaluate_basis_derivatives_13_2": [1.2453914491467227e-01, -2.6486185898457530e+00, 2.9582329440374595e+00, -2.6486157982099070e+00, 3.9598637140121149e+01, -4.2151957372481128e+01, 2.9582310875145090e+00, -4.2151961780082111e+01, 4.4503600004776416e+01], 
            "evaluate_basis_derivatives_14_0": [-4.6547586387986470e+00], 
            "evaluate_basis_derivatives_14_1": [-1.5180114516115925e+01, 4.9465841188831661e+01, -4.4836180337293392e+00], 
            "evaluate_basis_derivatives_14_2": [-1.0324593972055581e+01, 6.4529223198653924e+01, 1.1355122345655403e+01, 6.4529223831680170e+01, -2.6640009933337473e+02, -7.1167488615253767e+00, 1.1355123235428167e+01, -7.1167507320366177e+00, 1.7291822927580718e+01], 
            "evaluate_basis_derivatives_15_0": [2.9236506369258414e+01], 
            "evaluate_basis_derivatives_15_1": [7.1321399993941696e+00, -1.3222394922305497e+02, -4.8721738327589030e+01], 
            "evaluate_basis_derivatives_15_2": [-5.8858133553097559e+01, 6.8190443857488575e+01, -7.5031826219118216e+01, 6.8190442056495982e+01, 2.6368891426880356e+02, 2.4675521167414058e+02, -7.5031826828799453e+01, 2.4675521466586864e+02, -2.1108910537684157e+01], 
            "evaluate_basis_derivatives_16_0": [-9.6720397616729485e+00], 
            "evaluate_basis_derivatives_16_1": [1.7369411045406377e+01, -1.0561124399682274e+02, 1.5090993698037815e+02], 
            "evaluate_basis_derivatives_16_2": [-1.9405744382054120e+01, 1.5397376228003114e+02, -2.1137397978563530e+02, 1.5397376520815027e+02, 1.9763092945562801e+02, 9.5545241771823669e+01, -2.1137397947184562e+02, 9.5545234790249580e+01, -5.2130573537109194e+02], 
            "evaluate_basis_derivatives_17_0": [3.7854382500424499e+00], 
            "evaluate_basis_derivatives_17_1": [1.1134214462028780e-02, 3.1597207325204113e+01, -5.1244707988397984e+01], 
            "evaluate_basis_derivatives_17_2": [-9.3875231542208581e+00, 3.0918429155797327e+01, -2.4294560238484298e+01, 3.0918424334510199e+01, -3.0339295551312006e+02, 1.9245409845179731e+02, -2.4294558407354970e+01, 1.9245410715534874e+02, -1.9349476393566359e+01], 
            "evaluate_basis_derivatives_18_0": [-5.5603925518333071e+01], 
            "evaluate_basis_derivatives_18_1": [1.0389410078795592e+01, 2.3007237530131158e+02, 6.4667359028648093e+01], 
            "evaluate_basis_derivatives_18_2": [1.4553184849613524e+02, -2.3928812590482164e+02, 1.0944031072779711e+02, -2.3928812319125524e+02, -3.3248383194223385e+02, -3.4656549736699583e+02, 1.0944030833383260e+02, -3.4656550422493581e+02, 7.2007286990070099e+01], 
            "evaluate_basis_derivatives_19_0": [-3.3165222123661855e+00], 
            "evaluate_basis_derivatives_19_1": [-1.1347819029332360e+00, -2.6025766889619600e+01, 4.7295550841800662e+01], 
            "evaluate_basis_derivatives_19_2": [6.2199469024722269e+00, -3.5214694054333236e+01, 3.7983904466323501e+01, -3.5214694208770055e+01, 2.9410436873259118e+02, -1.6959138300690350e+02, 3.7983906130180678e+01, -1.6959137864137884e+02, -4.5142381304656219e+01], 
            "evaluate_basis_derivatives_all_0": [-1.4250896240417532e-02, -3.4874589894254761e+01, 6.2079436610431582e-02, 1.6508576761316395e+01, -6.3933809244446937e-01, 4.5512063401604319e+00, 8.5263013412601495e+01, -6.6852227846838460e+01, 5.0855519421754867e+00, 5.6014104756557770e-01, 5.3128853442362045e+00, 2.6164590857408093e+01, 3.1688931081508342e-01, -2.1922771598085133e-01, -4.6547586387986470e+00, 2.9236506369258414e+01, -9.6720397616729485e+00, 3.7854382500424499e+00, -5.5603925518333071e+01, -3.3165222123661855e+00], 
            "evaluate_basis_derivatives_all_1": [7.0476493032960530e-01, -1.8384007576830530e+00, 4.2183014995639545e-01, 4.8750278045374543e+01, 6.1152059994179702e+01, 1.1700840014966931e+02, -6.2467213047685786e-03, 2.0525923821798844e-01, -2.3823620789120728e-01, -5.5026399329569095e+01, -1.1691643185112593e+01, -3.6804224930464542e+01, 6.7907970324816547e-01, -3.5375141488453332e+00, 4.6256018242526196e+00, -1.0577189115617657e+01, 5.1787325591797824e+01, -6.8294679201189140e+01, -1.6149249133154987e+02, -1.2368585215485371e+02, -2.5652073455123991e+02, 1.6805504758090791e+02, 7.3933891597945575e+01, 1.7592257071125994e+02, -6.9420032231772630e+00, 5.3573080210853149e+01, -8.1908761611905348e+01, -4.0494922890719537e-01, 2.8193869339220017e+00, -4.4577399164689044e+00, 1.5524171273482047e+01, -5.3804688498295057e+01, 8.9601610793596542e+00, -1.8708988266391312e+01, -9.6236530368959436e+01, -1.4812793046322216e+01, 1.0935837050354218e+00, 5.8871718046893928e-01, -3.6160528501113167e+00, -2.3585331478927540e-01, -5.3955412783975232e-01, 1.2918802214283944e+00, -1.5180114516115925e+01, 4.9465841188831661e+01, -4.4836180337293392e+00, 7.1321399993941696e+00, -1.3222394922305497e+02, -4.8721738327589030e+01, 1.7369411045406377e+01, -1.0561124399682274e+02, 1.5090993698037815e+02, 1.1134214462028780e-02, 3.1597207325204113e+01, -5.1244707988397984e+01, 1.0389410078795592e+01, 2.3007237530131158e+02, 6.4667359028648093e+01, -1.1347819029332360e+00, -2.6025766889619600e+01, 4.7295550841800662e+01], 
            "evaluate_basis_derivatives_all_2": [5.6928391969139369e+00, -1.4849959390065191e+01, 3.4074007387132887e+00, -1.4849961432461409e+01, 3.8736605752450345e+01, -8.8883164649760538e+00, 3.4074007446541170e+00, -8.8883137525152343e+00, 2.0394737339825078e+00, -4.4997589356986744e+01, -5.6444709555955257e+01, -1.0800135261859960e+02, -5.6444707512197283e+01, -7.0803907404416464e+01, -1.3547625194357579e+02, -1.0800135158289375e+02, -1.3547625471613964e+02, -2.5922037358073101e+02, -9.8307519511757480e-03, 3.2299586763089699e-01, -3.7488924675017082e-01, 3.2299624517424452e-01, -1.0612843348581711e+01, 1.2317914846663301e+01, -3.7488967449875077e-01, 1.2317914503259511e+01, -1.4296925125178522e+01, 1.2034429227063013e+02, 2.5569954453425964e+01, 8.0491881274989495e+01, 2.5569954453425964e+01, 5.4329337803571347e+00, 1.7102379342126444e+01, 8.0491881274989495e+01, 1.7102379342126444e+01, 5.3836728181650372e+01, -1.1286447345157989e-01, 4.3889791468246458e-01, -5.9992064248715593e-01, 4.3889582875744443e-01, 9.3007213346720405e+01, -1.0497598540496770e+02, -5.9991827917848917e-01, -1.0497598350766356e+02, 1.1838988543294052e+02, 1.5127078004169130e+01, -1.0296550473207648e+02, 1.3041693003534689e+02, -1.0296550173157588e+02, -4.4437760761303984e+01, -4.3307754010328317e+01, 1.3041692663584354e+02, -4.3307756739507049e+01, 1.6769067361832049e+02, 1.9513350962296903e+02, 1.6540923688706852e+02, 3.3647404747426719e+02, 1.6540923204770476e+02, 1.0793326661210693e+02, 2.3158225063528275e+02, 3.3647404666111424e+02, 2.3158225851135663e+02, 4.9106457730170735e+02, -2.7206375261118944e+02, -1.3292271862005848e+02, -3.0678645211518585e+02, -1.3292271661321962e+02, -4.4202772048644093e+01, -1.1542531321931928e+02, -3.0678645016185561e+02, -1.1542531414655620e+02, -2.8867688072901126e+02, 6.2258006071302958e+00, -5.4847043224527333e+01, 8.0583207698361988e+01, -5.4847042888960083e+01, -1.4739593593953981e+02, -4.9302798503653904e+01, 8.0583206073382101e+01, -4.9302800760799016e+01, 3.5095960280886305e+02, 3.2707152994618814e-02, 7.5141087495916692e-01, -6.6570975141335409e-01, 7.5140922614944405e-01, -8.4689355626262952e+01, 9.1513131381661310e+01, -6.6570918968808590e-01, 9.1513134749776825e+01, -9.8343539355928812e+01, -1.9486438378382474e+00, -4.5625707951706566e+01, -2.4301172789643175e+00, -4.5625701846816327e+01, 2.5129175319423180e+02, -2.4012277294449042e+01, -2.4301185800745131e+00, -2.4012281931864365e+01, -2.2109506587358965e+00, -7.8485057587879794e+01, 1.6462004424998460e+02, -4.7976190987022221e+01, 1.6462003924264516e+02, 7.3497944047736084e+01, 1.1106558201626171e+02, -4.7976189540849134e+01, 1.1106558567267734e+02, -2.9066678974320183e+01, 1.1611650371121653e+00, 1.0082681960104217e+01, -1.5576045662593341e+01, 1.0082681425208872e+01, -6.0503104847612214e+01, 4.8478471218752830e+01, -1.5576045300662489e+01, 4.8478469432148906e+01, -1.9061808310512049e+01, 1.2453914491467227e-01, -2.6486185898457530e+00, 2.9582329440374595e+00, -2.6486157982099070e+00, 3.9598637140121149e+01, -4.2151957372481128e+01, 2.9582310875145090e+00, -4.2151961780082111e+01, 4.4503600004776416e+01, -1.0324593972055581e+01, 6.4529223198653924e+01, 1.1355122345655403e+01, 6.4529223831680170e+01, -2.6640009933337473e+02, -7.1167488615253767e+00, 1.1355123235428167e+01, -7.1167507320366177e+00, 1.7291822927580718e+01, -5.8858133553097559e+01, 6.8190443857488575e+01, -7.5031826219118216e+01, 6.8190442056495982e+01, 2.6368891426880356e+02, 2.4675521167414058e+02, -7.5031826828799453e+01, 2.4675521466586864e+02, -2.1108910537684157e+01, -1.9405744382054120e+01, 1.5397376228003114e+02, -2.1137397978563530e+02, 1.5397376520815027e+02, 1.9763092945562801e+02, 9.5545241771823669e+01, -2.1137397947184562e+02, 9.5545234790249580e+01, -5.2130573537109194e+02, -9.3875231542208581e+00, 3.0918429155797327e+01, -2.4294560238484298e+01, 3.0918424334510199e+01, -3.0339295551312006e+02, 1.9245409845179731e+02, -2.4294558407354970e+01, 1.9245410715534874e+02, -1.9349476393566359e+01, 1.4553184849613524e+02, -2.3928812590482164e+02, 1.0944031072779711e+02, -2.3928812319125524e+02, -3.3248383194223385e+02, -3.4656549736699583e+02, 1.0944030833383260e+02, -3.4656550422493581e+02, 7.2007286990070099e+01, 6.2199469024722269e+00, -3.5214694054333236e+01, 3.7983904466323501e+01, -3.5214694208770055e+01, 2.9410436873259118e+02, -1.6959138300690350e+02, 3.7983906130180678e+01, -1.6959137864137884e+02, -4.5142381304656219e+01], 
            "evaluate_dof_0": 1.4072081100000003e-01, 
            "evaluate_dof_1": 3.5842907099999999e-01, 
            "evaluate_dof_2": 1.4760881100000001e-01, 
            "evaluate_dof_3": 4.6025001000000010e-02, 
            "evaluate_dof_4": 1.7329165310852221e-01, 
            "evaluate_dof_5": 1.3266737432985171e-01, 
            "evaluate_dof_6": 2.2537428173040833e-01, 
            "evaluate_dof_7": 1.2234905988657878e-01, 
            "evaluate_dof_8": 3.3608625679317317e-01, 
            "evaluate_dof_9": 2.6613697405923348e-01, 
            "evaluate_dof_10": 1.4040140779939675e-01, 
            "evaluate_dof_11": 1.1150547054146465e-01, 
            "evaluate_dof_12": 1.6745845262529402e-01, 
            "evaluate_dof_13": 1.7048601179329848e-01, 
            "evaluate_dof_14": 2.2191966219058074e-01, 
            "evaluate_dof_15": 2.9854687570283606e-01, 
            "evaluate_dof_16": 2.2092482192781074e-01, 
            "evaluate_dof_17": 1.6519833115516111e-01, 
            "evaluate_dof_18": 1.9198191168498699e-01, 
            "evaluate_dof_19": 2.5422960426200059e-01, 
            "evaluate_dofs": [1.4072081100000003e-01, 3.5842907099999999e-01, 1.4760881100000001e-01, 4.6025001000000010e-02, 1.7329165310852221e-01, 1.3266737432985171e-01, 2.2537428173040833e-01, 1.2234905988657878e-01, 3.3608625679317317e-01, 2.6613697405923348e-01, 1.4040140779939675e-01, 1.1150547054146465e-01, 1.6745845262529402e-01, 1.7048601179329848e-01, 2.2191966219058074e-01, 2.9854687570283606e-01, 2.2092482192781074e-01, 1.6519833115516111e-01, 1.9198191168498699e-01, 2.5422960426200059e-01], 
            "interpolate_vertex_values": [1.4072081100000003e-01, 3.5842907099999999e-01, 1.4760881100000001e-01, 4.6025001000000010e-02], 
            "num_sub_elements": 0, 
        },
        "dofmap_0": {
            "needs_mesh_entities_0": 1, 
            "needs_mesh_entities_1": 1, 
            "needs_mesh_entities_2": 1, 
            "needs_mesh_entities_3": 0, 
            "global_dimension": 40008, 
            "local_dimension": 20, 
            "geometric_dimension": 3, 
            "num_facet_dofs": 10, 
            "num_entity_dofs_0": 1, 
            "num_entity_dofs_1": 2, 
            "num_entity_dofs_2": 1, 
            "num_entity_dofs_3": 0, 
            "tabulate_dofs": [0, 0, 0, 0, 10001, 10002, 10003, 10004, 10005, 10006, 10007, 10008, 10009, 10010, 10011, 10012, 30005, 30007, 30009, 30011], 
            "tabulate_facet_dofs_0": [1, 2, 3, 4, 5, 6, 7, 8, 9, 16], 
            "tabulate_facet_dofs_1": [0, 2, 3, 4, 5, 10, 11, 12, 13, 17], 
            "tabulate_facet_dofs_2": [0, 1, 3, 6, 7, 10, 11, 14, 15, 18], 
            "tabulate_facet_dofs_3": [0, 1, 2, 8, 9, 12, 13, 14, 15, 19], 
            "tabulate_entity_dofs_0_0": [0], 
            "tabulate_entity_dofs_0_1": [1], 
            "tabulate_entity_dofs_0_2": [2], 
            "tabulate_entity_dofs_0_3": [3], 
            "tabulate_entity_dofs_1_0": [4, 5], 
            "tabulate_entity_dofs_1_1": [6, 7], 
            "tabulate_entity_dofs_1_2": [8, 9], 
            "tabulate_entity_dofs_1_3": [10, 11], 
            "tabulate_entity_dofs_1_4": [12, 13], 
            "tabulate_entity_dofs_1_5": [14, 15], 
            "tabulate_entity_dofs_2_0": [16], 
            "tabulate_entity_dofs_2_1": [17], 
            "tabulate_entity_dofs_2_2": [18], 
            "tabulate_entity_dofs_2_3": [19], 
            "tabulate_entity_dofs_3_0": [], 
            "tabulate_coordinates_0": [9.0300000000000002e-01, 3.4100000000000003e-01, 4.5700000000000002e-01], 
            "tabulate_coordinates_1": [5.6100000000000005e-01, 7.6700000000000002e-01, 8.3299999999999996e-01], 
            "tabulate_coordinates_2": [9.8699999999999999e-01, 7.8300000000000003e-01, 1.9100000000000000e-01], 
            "tabulate_coordinates_3": [1.2300000000000000e-01, 5.6100000000000005e-01, 6.6700000000000004e-01], 
            "tabulate_coordinates_4": [6.9900000287999997e-01, 7.0900000074000002e-01, 3.4966666507999999e-01], 
            "tabulate_coordinates_5": [4.1099999711999996e-01, 6.3499999926000006e-01, 5.0833333492000010e-01], 
            "tabulate_coordinates_6": [4.1500000146000005e-01, 6.9833333402000008e-01, 7.7766666722000000e-01], 
            "tabulate_coordinates_7": [2.6899999854000001e-01, 6.2966666598000010e-01, 7.2233333278000011e-01], 
            "tabulate_coordinates_8": [7.0299999857999995e-01, 7.7233333328000009e-01, 6.1900000214000006e-01], 
            "tabulate_coordinates_9": [8.4500000141999998e-01, 7.7766666672000007e-01, 4.0499999786000002e-01], 
            "tabulate_coordinates_10": [6.4300000260000001e-01, 4.1433333260000005e-01, 5.2699999930000008e-01], 
            "tabulate_coordinates_11": [3.8299999740000001e-01, 4.8766666740000003e-01, 5.9700000070000003e-01], 
            "tabulate_coordinates_12": [9.3099999972000003e-01, 4.8833333186000005e-01, 3.6833333422000003e-01], 
            "tabulate_coordinates_13": [9.5900000027999999e-01, 6.3566666814000006e-01, 2.7966666577999999e-01], 
            "tabulate_coordinates_14": [7.8900000114000002e-01, 4.8299999857999998e-01, 5.8233333208000004e-01], 
            "tabulate_coordinates_15": [6.7499999886000006e-01, 6.2500000142000012e-01, 7.0766666791999999e-01], 
            "tabulate_coordinates_16": [5.5699999443000003e-01, 7.0366665962999997e-01, 5.6366666102999996e-01], 
            "tabulate_coordinates_17": [6.7099999329000004e-01, 5.6166666105000007e-01, 4.3833332894999999e-01], 
            "tabulate_coordinates_18": [5.2899999471000003e-01, 5.5633332777000000e-01, 6.5233332681000000e-01], 
            "tabulate_coordinates_19": [8.1699999182999994e-01, 6.3033332703000000e-01, 4.9366666173000001e-01], 
            "num_sub_dofmaps": 0, 
        },
        "dofmap_1": {
            "needs_mesh_entities_0": 1, 
            "needs_mesh_entities_1": 1, 
            "needs_mesh_entities_2": 1, 
            "needs_mesh_entities_3": 0, 
            "global_dimension": 40008, 
            "local_dimension": 20, 
            "geometric_dimension": 3, 
            "num_facet_dofs": 10, 
            "num_entity_dofs_0": 1, 
            "num_entity_dofs_1": 2, 
            "num_entity_dofs_2": 1, 
            "num_entity_dofs_3": 0, 
            "tabulate_dofs": [0, 0, 0, 0, 10001, 10002, 10003, 10004, 10005, 10006, 10007, 10008, 10009, 10010, 10011, 10012, 30005, 30007, 30009, 30011], 
            "tabulate_facet_dofs_0": [1, 2, 3, 4, 5, 6, 7, 8, 9, 16], 
            "tabulate_facet_dofs_1": [0, 2, 3, 4, 5, 10, 11, 12, 13, 17], 
            "tabulate_facet_dofs_2": [0, 1, 3, 6, 7, 10, 11, 14, 15, 18], 
            "tabulate_facet_dofs_3": [0, 1, 2, 8, 9, 12, 13, 14, 15, 19], 
            "tabulate_entity_dofs_0_0": [0], 
            "tabulate_entity_dofs_0_1": [1], 
            "tabulate_entity_dofs_0_2": [2], 
            "tabulate_entity_dofs_0_3": [3], 
            "tabulate_entity_dofs_1_0": [4, 5], 
            "tabulate_entity_dofs_1_1": [6, 7], 
            "tabulate_entity_dofs_1_2": [8, 9], 
            "tabulate_entity_dofs_1_3": [10, 11], 
            "tabulate_entity_dofs_1_4": [12, 13], 
            "tabulate_entity_dofs_1_5": [14, 15], 
            "tabulate_entity_dofs_2_0": [16], 
            "tabulate_entity_dofs_2_1": [17], 
            "tabulate_entity_dofs_2_2": [18], 
            "tabulate_entity_dofs_2_3": [19], 
            "tabulate_entity_dofs_3_0": [], 
            "tabulate_coordinates_0": [9.0300000000000002e-01, 3.4100000000000003e-01, 4.5700000000000002e-01], 
            "tabulate_coordinates_1": [5.6100000000000005e-01, 7.6700000000000002e-01, 8.3299999999999996e-01], 
            "tabulate_coordinates_2": [9.8699999999999999e-01, 7.8300000000000003e-01, 1.9100000000000000e-01], 
            "tabulate_coordinates_3": [1.2300000000000000e-01, 5.6100000000000005e-01, 6.6700000000000004e-01], 
            "tabulate_coordinates_4": [6.9900000287999997e-01, 7.0900000074000002e-01, 3.4966666507999999e-01], 
            "tabulate_coordinates_5": [4.1099999711999996e-01, 6.3499999926000006e-01, 5.0833333492000010e-01], 
            "tabulate_coordinates_6": [4.1500000146000005e-01, 6.9833333402000008e-01, 7.7766666722000000e-01], 
            "tabulate_coordinates_7": [2.6899999854000001e-01, 6.2966666598000010e-01, 7.2233333278000011e-01], 
            "tabulate_coordinates_8": [7.0299999857999995e-01, 7.7233333328000009e-01, 6.1900000214000006e-01], 
            "tabulate_coordinates_9": [8.4500000141999998e-01, 7.7766666672000007e-01, 4.0499999786000002e-01], 
            "tabulate_coordinates_10": [6.4300000260000001e-01, 4.1433333260000005e-01, 5.2699999930000008e-01], 
            "tabulate_coordinates_11": [3.8299999740000001e-01, 4.8766666740000003e-01, 5.9700000070000003e-01], 
            "tabulate_coordinates_12": [9.3099999972000003e-01, 4.8833333186000005e-01, 3.6833333422000003e-01], 
            "tabulate_coordinates_13": [9.5900000027999999e-01, 6.3566666814000006e-01, 2.7966666577999999e-01], 
            "tabulate_coordinates_14": [7.8900000114000002e-01, 4.8299999857999998e-01, 5.8233333208000004e-01], 
            "tabulate_coordinates_15": [6.7499999886000006e-01, 6.2500000142000012e-01, 7.0766666791999999e-01], 
            "tabulate_coordinates_16": [5.5699999443000003e-01, 7.0366665962999997e-01, 5.6366666102999996e-01], 
            "tabulate_coordinates_17": [6.7099999329000004e-01, 5.6166666105000007e-01, 4.3833332894999999e-01], 
            "tabulate_coordinates_18": [5.2899999471000003e-01, 5.5633332777000000e-01, 6.5233332681000000e-01], 
            "tabulate_coordinates_19": [8.1699999182999994e-01, 6.3033332703000000e-01, 4.9366666173000001e-01], 
            "num_sub_dofmaps": 0, 
        },
        "default_cell_integral": 1, 
        "cell_integral": {
            "tabulate_tensor": [9.8626072217580007e-05, 1.2328258944351600e-05, 1.2328258944351600e-05, 1.2328258944351600e-05, 1.8492387919452001e-05, 1.8492387919452001e-05, 1.8492387919452001e-05, 1.8492387919452001e-05, 1.8492387919452001e-05, 1.8492387919452001e-05, -7.3969553334726003e-05, 3.6984777495822000e-05, -7.3969553334726003e-05, 3.6984777495822000e-05, -7.3969553334726003e-05, 3.6984777495822000e-05, 2.2190865834726000e-04, 1.1095433083054800e-04, 1.1095433083054800e-04, 1.1095433083054800e-04, 1.2328258944351600e-05, 9.8626072217580007e-05, 1.2328258944351600e-05, 1.2328258944351600e-05, 1.8492387919452001e-05, 1.8492387919452001e-05, -7.3969553334726003e-05, 3.6984777495822000e-05, -7.3969553334726003e-05, 3.6984777495822000e-05, 1.8492387919452001e-05, 1.8492387919452001e-05, 1.8492387919452001e-05, 1.8492387919452001e-05, 3.6984777495822000e-05, -7.3969553334726003e-05, 1.1095433083054800e-04, 2.2190865834726000e-04, 1.1095433083054800e-04, 1.1095433083054800e-04, 1.2328258944351600e-05, 1.2328258944351600e-05, 9.8626072217580007e-05, 1.2328258944351600e-05, -7.3969553334726003e-05, 3.6984777495822000e-05, 1.8492387919452001e-05, 1.8492387919452001e-05, 3.6984777495822000e-05, -7.3969553334726003e-05, 1.8492387919452001e-05, 1.8492387919452001e-05, 3.6984777495822000e-05, -7.3969553334726003e-05, 1.8492387919452001e-05, 1.8492387919452001e-05, 1.1095433083054800e-04, 1.1095433083054800e-04, 2.2190865834726000e-04, 1.1095433083054800e-04, 1.2328258944351600e-05, 1.2328258944351600e-05, 1.2328258944351600e-05, 9.8626072217580007e-05, 3.6984777495822000e-05, -7.3969553334726003e-05, 3.6984777495822000e-05, -7.3969553334726003e-05, 1.8492387919452001e-05, 1.8492387919452001e-05, 3.6984777495822000e-05, -7.3969553334726003e-05, 1.8492387919452001e-05, 1.8492387919452001e-05, 1.8492387919452001e-05, 1.8492387919452001e-05, 1.1095433083054800e-04, 1.1095433083054800e-04, 1.1095433083054800e-04, 2.2190865834726000e-04, 1.8492387919452001e-05, 1.8492387919452001e-05, -7.3969553334726003e-05, 3.6984777495822000e-05, 6.6572597504178000e-04, -3.3286299580547997e-04, 0.0, -1.6643149790273999e-04, -1.6643149790273999e-04, 3.3286299580547997e-04, 0.0, -1.6643149790273999e-04, -1.6643149790273999e-04, 3.3286299580547997e-04, 0.0, 0.0, 0.0, 0.0, -3.3286299580547997e-04, 0.0, 1.8492387919452001e-05, 1.8492387919452001e-05, 3.6984777495822000e-05, -7.3969553334726003e-05, -3.3286299580547997e-04, 6.6572597504178000e-04, -1.6643149790273999e-04, 3.3286299580547997e-04, 0.0, -1.6643149790273999e-04, -1.6643149790273999e-04, 3.3286299580547997e-04, 0.0, -1.6643149790273999e-04, 0.0, 0.0, 0.0, 0.0, 0.0, -3.3286299580547997e-04, 1.8492387919452001e-05, -7.3969553334726003e-05, 1.8492387919452001e-05, 3.6984777495822000e-05, 0.0, -1.6643149790273999e-04, 6.6572597504178000e-04, -3.3286299580547997e-04, 3.3286299580547997e-04, -1.6643149790273999e-04, 0.0, -1.6643149790273999e-04, 0.0, 0.0, -1.6643149790273999e-04, 3.3286299580547997e-04, 0.0, -3.3286299580547997e-04, 0.0, 0.0, 1.8492387919452001e-05, 3.6984777495822000e-05, 1.8492387919452001e-05, -7.3969553334726003e-05, -1.6643149790273999e-04, 3.3286299580547997e-04, -3.3286299580547997e-04, 6.6572597504178000e-04, -1.6643149790273999e-04, 0.0, -1.6643149790273999e-04, 3.3286299580547997e-04, 0.0, 0.0, 0.0, -1.6643149790273999e-04, 0.0, 0.0, 0.0, -3.3286299580547997e-04, 1.8492387919452001e-05, -7.3969553334726003e-05, 3.6984777495822000e-05, 1.8492387919452001e-05, -1.6643149790273999e-04, 0.0, 3.3286299580547997e-04, -1.6643149790273999e-04, 6.6572597504178000e-04, -3.3286299580547997e-04, 0.0, 0.0, 0.0, -1.6643149790273999e-04, -1.6643149790273999e-04, 3.3286299580547997e-04, 0.0, -3.3286299580547997e-04, 0.0, 0.0, 1.8492387919452001e-05, 3.6984777495822000e-05, -7.3969553334726003e-05, 1.8492387919452001e-05, 3.3286299580547997e-04, -1.6643149790273999e-04, -1.6643149790273999e-04, 0.0, -3.3286299580547997e-04, 6.6572597504178000e-04, 0.0, 0.0, -1.6643149790273999e-04, 3.3286299580547997e-04, 0.0, -1.6643149790273999e-04, 0.0, 0.0, -3.3286299580547997e-04, 0.0, -7.3969553334726003e-05, 1.8492387919452001e-05, 1.8492387919452001e-05, 3.6984777495822000e-05, 0.0, -1.6643149790273999e-04, 0.0, -1.6643149790273999e-04, 0.0, 0.0, 6.6572597504178000e-04, -3.3286299580547997e-04, 3.3286299580547997e-04, -1.6643149790273999e-04, 3.3286299580547997e-04, -1.6643149790273999e-04, -3.3286299580547997e-04, 0.0, 0.0, 0.0, 3.6984777495822000e-05, 1.8492387919452001e-05, 1.8492387919452001e-05, -7.3969553334726003e-05, -1.6643149790273999e-04, 3.3286299580547997e-04, -1.6643149790273999e-04, 3.3286299580547997e-04, 0.0, 0.0, -3.3286299580547997e-04, 6.6572597504178000e-04, -1.6643149790273999e-04, 0.0, -1.6643149790273999e-04, 0.0, 0.0, 0.0, 0.0, -3.3286299580547997e-04, -7.3969553334726003e-05, 1.8492387919452001e-05, 3.6984777495822000e-05, 1.8492387919452001e-05, -1.6643149790273999e-04, 0.0, 0.0, 0.0, 0.0, -1.6643149790273999e-04, 3.3286299580547997e-04, -1.6643149790273999e-04, 6.6572597504178000e-04, -3.3286299580547997e-04, 3.3286299580547997e-04, -1.6643149790273999e-04, -3.3286299580547997e-04, 0.0, 0.0, 0.0, 3.6984777495822000e-05, 1.8492387919452001e-05, -7.3969553334726003e-05, 1.8492387919452001e-05, 3.3286299580547997e-04, -1.6643149790273999e-04, 0.0, 0.0, -1.6643149790273999e-04, 3.3286299580547997e-04, -1.6643149790273999e-04, 0.0, -3.3286299580547997e-04, 6.6572597504178000e-04, -1.6643149790273999e-04, 0.0, 0.0, 0.0, -3.3286299580547997e-04, 0.0, -7.3969553334726003e-05, 3.6984777495822000e-05, 1.8492387919452001e-05, 1.8492387919452001e-05, 0.0, 0.0, -1.6643149790273999e-04, 0.0, -1.6643149790273999e-04, 0.0, 3.3286299580547997e-04, -1.6643149790273999e-04, 3.3286299580547997e-04, -1.6643149790273999e-04, 6.6572597504178000e-04, -3.3286299580547997e-04, -3.3286299580547997e-04, 0.0, 0.0, 0.0, 3.6984777495822000e-05, -7.3969553334726003e-05, 1.8492387919452001e-05, 1.8492387919452001e-05, 0.0, 0.0, 3.3286299580547997e-04, -1.6643149790273999e-04, 3.3286299580547997e-04, -1.6643149790273999e-04, -1.6643149790273999e-04, 0.0, -1.6643149790273999e-04, 0.0, -3.3286299580547997e-04, 6.6572597504178000e-04, 0.0, -3.3286299580547997e-04, 0.0, 0.0, 2.2190865834726000e-04, 1.1095433083054800e-04, 1.1095433083054800e-04, 1.1095433083054800e-04, 0.0, 0.0, 0.0, 0.0, 0.0, 0.0, -3.3286299580547997e-04, 0.0, -3.3286299580547997e-04, 0.0, -3.3286299580547997e-04, 0.0, 2.6629039995822003e-03, 1.3314519666527400e-03, 1.3314519666527400e-03, 1.3314519666527400e-03, 1.1095433083054800e-04, 2.2190865834726000e-04, 1.1095433083054800e-04, 1.1095433083054800e-04, 0.0, 0.0, -3.3286299580547997e-04, 0.0, -3.3286299580547997e-04, 0.0, 0.0, 0.0, 0.0, 0.0, 0.0, -3.3286299580547997e-04, 1.3314519666527400e-03, 2.6629039995822003e-03, 1.3314519666527400e-03, 1.3314519666527400e-03, 1.1095433083054800e-04, 1.1095433083054800e-04, 2.2190865834726000e-04, 1.1095433083054800e-04, -3.3286299580547997e-04, 0.0, 0.0, 0.0, 0.0, -3.3286299580547997e-04, 0.0, 0.0, 0.0, -3.3286299580547997e-04, 0.0, 0.0, 1.3314519666527400e-03, 1.3314519666527400e-03, 2.6629039995822003e-03, 1.3314519666527400e-03, 1.1095433083054800e-04, 1.1095433083054800e-04, 1.1095433083054800e-04, 2.2190865834726000e-04, 0.0, -3.3286299580547997e-04, 0.0, -3.3286299580547997e-04, 0.0, 0.0, 0.0, -3.3286299580547997e-04, 0.0, 0.0, 0.0, 0.0, 1.3314519666527400e-03, 1.3314519666527400e-03, 1.3314519666527400e-03, 2.6629039995822003e-03], 
        },
        "default_exterior_facet_integral": 0, 
        "default_interior_facet_integral": 0, 
        "default_point_integral": 0, 
    },
}
