{
    "finite_element_0": {
        "cell_shape": 0, 
        "space_dimension": 3, 
        "value_rank": 0, 
        "evaluate_basis:_0": [1.7212916129802547e+00], 
        "evaluate_basis:_1": [4.1429011547390235e+00], 
        "evaluate_basis:_2": [-4.8641927693973104e+00], 
        "evaluate_basis_all": [1.7212916129802547e+00, 4.1429011547390235e+00, -4.8641927693973104e+00], 
        "evaluate_basis_derivatives_0_0": [1.7212916129802547e+00], 
        "evaluate_basis_derivatives_0_1": [-4.4041714469373430e+00, 5.4858977672377431e+00], 
        "evaluate_basis_derivatives_0_2": [5.2528879623766667e+00, -6.5430709706797083e+00, -6.5430709706797083e+00, 8.1501410336536715e+00], 
        "evaluate_basis_derivatives_1_0": [4.1429011547390235e+00], 
        "evaluate_basis_derivatives_1_1": [-6.6960894077797679e+00, 8.3407429465326945e+00], 
        "evaluate_basis_derivatives_1_2": [5.2528879623766667e+00, -6.5430709706797083e+00, -6.5430709706797083e+00, 8.1501410336536715e+00], 
        "evaluate_basis_derivatives_2_0": [-4.8641927693973104e+00], 
        "evaluate_basis_derivatives_2_1": [1.1100260854717110e+01, -1.3826640713770438e+01], 
        "evaluate_basis_derivatives_2_2": [-1.0505775924753333e+01, 1.3086141941359417e+01, 1.3086141941359417e+01, -1.6300282067307343e+01], 
        "evaluate_basis_derivatives_all_0": [1.7212916129802547e+00, 4.1429011547390235e+00, -4.8641927693973104e+00], 
        "evaluate_basis_derivatives_all_1": [-4.4041714469373430e+00, 5.4858977672377431e+00, -6.6960894077797679e+00, 8.3407429465326945e+00, 1.1100260854717110e+01, -1.3826640713770438e+01], 
        "evaluate_basis_derivatives_all_2": [5.2528879623766667e+00, -6.5430709706797083e+00, -6.5430709706797083e+00, 8.1501410336536715e+00, 5.2528879623766667e+00, -6.5430709706797083e+00, -6.5430709706797083e+00, 8.1501410336536715e+00, -1.0505775924753333e+01, 1.3086141941359417e+01, 1.3086141941359417e+01, -1.6300282067307343e+01], 
        "evaluate_dof_0": 3.0792300000000006e-01, 
        "evaluate_dof_1": 4.3028700000000003e-01, 
        "evaluate_dof_2": 4.0552800000000000e-01, 
        "evaluate_dofs": [3.0792300000000006e-01, 4.3028700000000003e-01, 4.0552800000000000e-01], 
        "interpolate_vertex_values": [3.0792300000000006e-01, 4.3028700000000003e-01], 
        "num_sub_elements": 0, 
    },
    "finite_element_1": {
        "cell_shape": 0, 
        "space_dimension": 6, 
        "value_rank": 1, 
        "value_dimension_0": 2, 
        "evaluate_basis:_0": [1.7212916129802547e+00, 0.0], 
        "evaluate_basis:_1": [4.1429011547390235e+00, 0.0], 
        "evaluate_basis:_2": [-4.8641927693973104e+00, 0.0], 
        "evaluate_basis:_3": [0.0, 1.7212916129802547e+00], 
        "evaluate_basis:_4": [0.0, 4.1429011547390235e+00], 
        "evaluate_basis:_5": [0.0, -4.8641927693973104e+00], 
        "evaluate_basis_all": [1.7212916129802547e+00, 0.0, 4.1429011547390235e+00, 0.0, -4.8641927693973104e+00, 0.0, 0.0, 1.7212916129802547e+00, 0.0, 4.1429011547390235e+00, 0.0, -4.8641927693973104e+00], 
        "evaluate_basis_derivatives_0_0": [1.7212916129802547e+00, 0.0], 
        "evaluate_basis_derivatives_0_1": [-4.4041714469373430e+00, 5.4858977672377431e+00, 0.0, 0.0], 
        "evaluate_basis_derivatives_0_2": [5.2528879623766667e+00, -6.5430709706797083e+00, -6.5430709706797083e+00, 8.1501410336536715e+00, 0.0, 0.0, 0.0, 0.0], 
        "evaluate_basis_derivatives_1_0": [4.1429011547390235e+00, 0.0], 
        "evaluate_basis_derivatives_1_1": [-6.6960894077797679e+00, 8.3407429465326945e+00, 0.0, 0.0], 
        "evaluate_basis_derivatives_1_2": [5.2528879623766667e+00, -6.5430709706797083e+00, -6.5430709706797083e+00, 8.1501410336536715e+00, 0.0, 0.0, 0.0, 0.0], 
        "evaluate_basis_derivatives_2_0": [-4.8641927693973104e+00, 0.0], 
        "evaluate_basis_derivatives_2_1": [1.1100260854717110e+01, -1.3826640713770438e+01, 0.0, 0.0], 
        "evaluate_basis_derivatives_2_2": [-1.0505775924753333e+01, 1.3086141941359417e+01, 1.3086141941359417e+01, -1.6300282067307343e+01, 0.0, 0.0, 0.0, 0.0], 
        "evaluate_basis_derivatives_3_0": [0.0, 1.7212916129802547e+00], 
        "evaluate_basis_derivatives_3_1": [0.0, 0.0, -4.4041714469373430e+00, 5.4858977672377431e+00], 
        "evaluate_basis_derivatives_3_2": [0.0, 0.0, 0.0, 0.0, 5.2528879623766667e+00, -6.5430709706797083e+00, -6.5430709706797083e+00, 8.1501410336536715e+00], 
        "evaluate_basis_derivatives_4_0": [0.0, 4.1429011547390235e+00], 
        "evaluate_basis_derivatives_4_1": [0.0, 0.0, -6.6960894077797679e+00, 8.3407429465326945e+00], 
        "evaluate_basis_derivatives_4_2": [0.0, 0.0, 0.0, 0.0, 5.2528879623766667e+00, -6.5430709706797083e+00, -6.5430709706797083e+00, 8.1501410336536715e+00], 
        "evaluate_basis_derivatives_5_0": [0.0, -4.8641927693973104e+00], 
        "evaluate_basis_derivatives_5_1": [0.0, 0.0, 1.1100260854717110e+01, -1.3826640713770438e+01], 
        "evaluate_basis_derivatives_5_2": [0.0, 0.0, 0.0, 0.0, -1.0505775924753333e+01, 1.3086141941359417e+01, 1.3086141941359417e+01, -1.6300282067307343e+01], 
        "evaluate_basis_derivatives_all_0": [1.7212916129802547e+00, 0.0, 4.1429011547390235e+00, 0.0, -4.8641927693973104e+00, 0.0, 0.0, 1.7212916129802547e+00, 0.0, 4.1429011547390235e+00, 0.0, -4.8641927693973104e+00], 
        "evaluate_basis_derivatives_all_1": [-4.4041714469373430e+00, 5.4858977672377431e+00, 0.0, 0.0, -6.6960894077797679e+00, 8.3407429465326945e+00, 0.0, 0.0, 1.1100260854717110e+01, -1.3826640713770438e+01, 0.0, 0.0, 0.0, 0.0, -4.4041714469373430e+00, 5.4858977672377431e+00, 0.0, 0.0, -6.6960894077797679e+00, 8.3407429465326945e+00, 0.0, 0.0, 1.1100260854717110e+01, -1.3826640713770438e+01], 
        "evaluate_basis_derivatives_all_2": [5.2528879623766667e+00, -6.5430709706797083e+00, -6.5430709706797083e+00, 8.1501410336536715e+00, 0.0, 0.0, 0.0, 0.0, 5.2528879623766667e+00, -6.5430709706797083e+00, -6.5430709706797083e+00, 8.1501410336536715e+00, 0.0, 0.0, 0.0, 0.0, -1.0505775924753333e+01, 1.3086141941359417e+01, 1.3086141941359417e+01, -1.6300282067307343e+01, 0.0, 0.0, 0.0, 0.0, 0.0, 0.0, 0.0, 0.0, 5.2528879623766667e+00, -6.5430709706797083e+00, -6.5430709706797083e+00, 8.1501410336536715e+00, 0.0, 0.0, 0.0, 0.0, 5.2528879623766667e+00, -6.5430709706797083e+00, -6.5430709706797083e+00, 8.1501410336536715e+00, 0.0, 0.0, 0.0, 0.0, -1.0505775924753333e+01, 1.3086141941359417e+01, 1.3086141941359417e+01, -1.6300282067307343e+01], 
        "evaluate_dof_0": 3.0792300000000006e-01, 
        "evaluate_dof_1": 4.3028700000000003e-01, 
        "evaluate_dof_2": 4.0552800000000000e-01, 
        "evaluate_dof_3": 1.2316920000000002e+00, 
        "evaluate_dof_4": 1.7211480000000001e+00, 
        "evaluate_dof_5": 1.6221120000000000e+00, 
        "evaluate_dofs": [3.0792300000000006e-01, 4.3028700000000003e-01, 4.0552800000000000e-01, 1.2316920000000002e+00, 1.7211480000000001e+00, 1.6221120000000000e+00], 
        "interpolate_vertex_values": [3.0792300000000006e-01, 1.2316920000000002e+00, 4.3028700000000003e-01, 1.7211480000000001e+00], 
        "num_sub_elements": 2, 
        "finite_element_0": {
            "cell_shape": 0, 
            "space_dimension": 3, 
            "value_rank": 0, 
            "evaluate_basis:_0": [1.7212916129802547e+00], 
            "evaluate_basis:_1": [4.1429011547390235e+00], 
            "evaluate_basis:_2": [-4.8641927693973104e+00], 
            "evaluate_basis_all": [1.7212916129802547e+00, 4.1429011547390235e+00, -4.8641927693973104e+00], 
            "evaluate_basis_derivatives_0_0": [1.7212916129802547e+00], 
            "evaluate_basis_derivatives_0_1": [-4.4041714469373430e+00, 5.4858977672377431e+00], 
            "evaluate_basis_derivatives_0_2": [5.2528879623766667e+00, -6.5430709706797083e+00, -6.5430709706797083e+00, 8.1501410336536715e+00], 
            "evaluate_basis_derivatives_1_0": [4.1429011547390235e+00], 
            "evaluate_basis_derivatives_1_1": [-6.6960894077797679e+00, 8.3407429465326945e+00], 
            "evaluate_basis_derivatives_1_2": [5.2528879623766667e+00, -6.5430709706797083e+00, -6.5430709706797083e+00, 8.1501410336536715e+00], 
            "evaluate_basis_derivatives_2_0": [-4.8641927693973104e+00], 
            "evaluate_basis_derivatives_2_1": [1.1100260854717110e+01, -1.3826640713770438e+01], 
            "evaluate_basis_derivatives_2_2": [-1.0505775924753333e+01, 1.3086141941359417e+01, 1.3086141941359417e+01, -1.6300282067307343e+01], 
            "evaluate_basis_derivatives_all_0": [1.7212916129802547e+00, 4.1429011547390235e+00, -4.8641927693973104e+00], 
            "evaluate_basis_derivatives_all_1": [-4.4041714469373430e+00, 5.4858977672377431e+00, -6.6960894077797679e+00, 8.3407429465326945e+00, 1.1100260854717110e+01, -1.3826640713770438e+01], 
            "evaluate_basis_derivatives_all_2": [5.2528879623766667e+00, -6.5430709706797083e+00, -6.5430709706797083e+00, 8.1501410336536715e+00, 5.2528879623766667e+00, -6.5430709706797083e+00, -6.5430709706797083e+00, 8.1501410336536715e+00, -1.0505775924753333e+01, 1.3086141941359417e+01, 1.3086141941359417e+01, -1.6300282067307343e+01], 
            "evaluate_dof_0": 3.0792300000000006e-01, 
            "evaluate_dof_1": 4.3028700000000003e-01, 
            "evaluate_dof_2": 4.0552800000000000e-01, 
            "evaluate_dofs": [3.0792300000000006e-01, 4.3028700000000003e-01, 4.0552800000000000e-01], 
            "interpolate_vertex_values": [3.0792300000000006e-01, 4.3028700000000003e-01], 
            "num_sub_elements": 0, 
        },
        "finite_element_1": {
            "cell_shape": 0, 
            "space_dimension": 3, 
            "value_rank": 0, 
            "evaluate_basis:_0": [1.7212916129802547e+00], 
            "evaluate_basis:_1": [4.1429011547390235e+00], 
            "evaluate_basis:_2": [-4.8641927693973104e+00], 
            "evaluate_basis_all": [1.7212916129802547e+00, 4.1429011547390235e+00, -4.8641927693973104e+00], 
            "evaluate_basis_derivatives_0_0": [1.7212916129802547e+00], 
            "evaluate_basis_derivatives_0_1": [-4.4041714469373430e+00, 5.4858977672377431e+00], 
            "evaluate_basis_derivatives_0_2": [5.2528879623766667e+00, -6.5430709706797083e+00, -6.5430709706797083e+00, 8.1501410336536715e+00], 
            "evaluate_basis_derivatives_1_0": [4.1429011547390235e+00], 
            "evaluate_basis_derivatives_1_1": [-6.6960894077797679e+00, 8.3407429465326945e+00], 
            "evaluate_basis_derivatives_1_2": [5.2528879623766667e+00, -6.5430709706797083e+00, -6.5430709706797083e+00, 8.1501410336536715e+00], 
            "evaluate_basis_derivatives_2_0": [-4.8641927693973104e+00], 
            "evaluate_basis_derivatives_2_1": [1.1100260854717110e+01, -1.3826640713770438e+01], 
            "evaluate_basis_derivatives_2_2": [-1.0505775924753333e+01, 1.3086141941359417e+01, 1.3086141941359417e+01, -1.6300282067307343e+01], 
            "evaluate_basis_derivatives_all_0": [1.7212916129802547e+00, 4.1429011547390235e+00, -4.8641927693973104e+00], 
            "evaluate_basis_derivatives_all_1": [-4.4041714469373430e+00, 5.4858977672377431e+00, -6.6960894077797679e+00, 8.3407429465326945e+00, 1.1100260854717110e+01, -1.3826640713770438e+01], 
            "evaluate_basis_derivatives_all_2": [5.2528879623766667e+00, -6.5430709706797083e+00, -6.5430709706797083e+00, 8.1501410336536715e+00, 5.2528879623766667e+00, -6.5430709706797083e+00, -6.5430709706797083e+00, 8.1501410336536715e+00, -1.0505775924753333e+01, 1.3086141941359417e+01, 1.3086141941359417e+01, -1.6300282067307343e+01], 
            "evaluate_dof_0": 3.0792300000000006e-01, 
            "evaluate_dof_1": 4.3028700000000003e-01, 
            "evaluate_dof_2": 4.0552800000000000e-01, 
            "evaluate_dofs": [3.0792300000000006e-01, 4.3028700000000003e-01, 4.0552800000000000e-01], 
            "interpolate_vertex_values": [3.0792300000000006e-01, 4.3028700000000003e-01], 
            "num_sub_elements": 0, 
        },
    },
    "finite_element_2": {
        "cell_shape": 0, 
        "space_dimension": 2, 
        "value_rank": 0, 
        "evaluate_basis:_0": [-7.1080477171840029e-01], 
        "evaluate_basis:_1": [1.7108047700403688e+00], 
        "evaluate_basis_all": [-7.1080477171840029e-01, 1.7108047700403688e+00], 
        "evaluate_basis_derivatives_0_0": [-7.1080477171840029e-01], 
        "evaluate_basis_derivatives_0_1": [1.1459589804212122e+00, -1.4274225896474753e+00], 
        "evaluate_basis_derivatives_0_2": [0.0, 0.0, 0.0, 0.0], 
        "evaluate_basis_derivatives_1_0": [1.7108047700403688e+00], 
        "evaluate_basis_derivatives_1_1": [-1.1459589804212122e+00, 1.4274225896474753e+00], 
        "evaluate_basis_derivatives_1_2": [0.0, 0.0, 0.0, 0.0], 
        "evaluate_basis_derivatives_all_0": [-7.1080477171840029e-01, 1.7108047700403688e+00], 
        "evaluate_basis_derivatives_all_1": [1.1459589804212122e+00, -1.4274225896474753e+00, -1.1459589804212122e+00, 1.4274225896474753e+00], 
        "evaluate_basis_derivatives_all_2": [0.0, 0.0, 0.0, 0.0, 0.0, 0.0, 0.0, 0.0], 
        "evaluate_dof_0": 3.0792300000000006e-01, 
        "evaluate_dof_1": 4.3028700000000003e-01, 
        "evaluate_dofs": [3.0792300000000006e-01, 4.3028700000000003e-01], 
        "interpolate_vertex_values": [3.0792300000000006e-01, 4.3028700000000003e-01], 
        "num_sub_elements": 0, 
    },
    "finite_element_3": {
        "cell_shape": 0, 
        "space_dimension": 8, 
        "value_rank": 1, 
        "value_dimension_0": 3, 
        "evaluate_basis:_0": [1.7212916129802547e+00, 0.0, 0.0], 
        "evaluate_basis:_1": [4.1429011547390235e+00, 0.0, 0.0], 
        "evaluate_basis:_2": [-4.8641927693973104e+00, 0.0, 0.0], 
        "evaluate_basis:_3": [0.0, 1.7212916129802547e+00, 0.0], 
        "evaluate_basis:_4": [0.0, 4.1429011547390235e+00, 0.0], 
        "evaluate_basis:_5": [0.0, -4.8641927693973104e+00, 0.0], 
        "evaluate_basis:_6": [0.0, 0.0, -7.1080477171840029e-01], 
        "evaluate_basis:_7": [0.0, 0.0, 1.7108047700403688e+00], 
        "evaluate_basis_all": [1.7212916129802547e+00, 0.0, 0.0, 4.1429011547390235e+00, 0.0, 0.0, -4.8641927693973104e+00, 0.0, 0.0, 0.0, 1.7212916129802547e+00, 0.0, 0.0, 4.1429011547390235e+00, 0.0, 0.0, -4.8641927693973104e+00, 0.0, 0.0, 0.0, -7.1080477171840029e-01, 0.0, 0.0, 1.7108047700403688e+00], 
        "evaluate_basis_derivatives_0_0": [1.7212916129802547e+00, 0.0, 0.0], 
        "evaluate_basis_derivatives_0_1": [-4.4041714469373430e+00, 5.4858977672377431e+00, 0.0, 0.0, 0.0, 0.0], 
        "evaluate_basis_derivatives_0_2": [5.2528879623766667e+00, -6.5430709706797083e+00, -6.5430709706797083e+00, 8.1501410336536715e+00, 0.0, 0.0, 0.0, 0.0, 0.0, 0.0, 0.0, 0.0], 
        "evaluate_basis_derivatives_1_0": [4.1429011547390235e+00, 0.0, 0.0], 
        "evaluate_basis_derivatives_1_1": [-6.6960894077797679e+00, 8.3407429465326945e+00, 0.0, 0.0, 0.0, 0.0], 
        "evaluate_basis_derivatives_1_2": [5.2528879623766667e+00, -6.5430709706797083e+00, -6.5430709706797083e+00, 8.1501410336536715e+00, 0.0, 0.0, 0.0, 0.0, 0.0, 0.0, 0.0, 0.0], 
        "evaluate_basis_derivatives_2_0": [-4.8641927693973104e+00, 0.0, 0.0], 
        "evaluate_basis_derivatives_2_1": [1.1100260854717110e+01, -1.3826640713770438e+01, 0.0, 0.0, 0.0, 0.0], 
        "evaluate_basis_derivatives_2_2": [-1.0505775924753333e+01, 1.3086141941359417e+01, 1.3086141941359417e+01, -1.6300282067307343e+01, 0.0, 0.0, 0.0, 0.0, 0.0, 0.0, 0.0, 0.0], 
        "evaluate_basis_derivatives_3_0": [0.0, 1.7212916129802547e+00, 0.0], 
        "evaluate_basis_derivatives_3_1": [0.0, 0.0, -4.4041714469373430e+00, 5.4858977672377431e+00, 0.0, 0.0], 
        "evaluate_basis_derivatives_3_2": [0.0, 0.0, 0.0, 0.0, 5.2528879623766667e+00, -6.5430709706797083e+00, -6.5430709706797083e+00, 8.1501410336536715e+00, 0.0, 0.0, 0.0, 0.0], 
        "evaluate_basis_derivatives_4_0": [0.0, 4.1429011547390235e+00, 0.0], 
        "evaluate_basis_derivatives_4_1": [0.0, 0.0, -6.6960894077797679e+00, 8.3407429465326945e+00, 0.0, 0.0], 
        "evaluate_basis_derivatives_4_2": [0.0, 0.0, 0.0, 0.0, 5.2528879623766667e+00, -6.5430709706797083e+00, -6.5430709706797083e+00, 8.1501410336536715e+00, 0.0, 0.0, 0.0, 0.0], 
        "evaluate_basis_derivatives_5_0": [0.0, -4.8641927693973104e+00, 0.0], 
        "evaluate_basis_derivatives_5_1": [0.0, 0.0, 1.1100260854717110e+01, -1.3826640713770438e+01, 0.0, 0.0], 
        "evaluate_basis_derivatives_5_2": [0.0, 0.0, 0.0, 0.0, -1.0505775924753333e+01, 1.3086141941359417e+01, 1.3086141941359417e+01, -1.6300282067307343e+01, 0.0, 0.0, 0.0, 0.0], 
        "evaluate_basis_derivatives_6_0": [0.0, 0.0, -7.1080477171840029e-01], 
        "evaluate_basis_derivatives_6_1": [0.0, 0.0, 0.0, 0.0, 1.1459589804212122e+00, -1.4274225896474753e+00], 
        "evaluate_basis_derivatives_6_2": [0.0, 0.0, 0.0, 0.0, 0.0, 0.0, 0.0, 0.0, 0.0, 0.0, 0.0, 0.0], 
        "evaluate_basis_derivatives_7_0": [0.0, 0.0, 1.7108047700403688e+00], 
        "evaluate_basis_derivatives_7_1": [0.0, 0.0, 0.0, 0.0, -1.1459589804212122e+00, 1.4274225896474753e+00], 
        "evaluate_basis_derivatives_7_2": [0.0, 0.0, 0.0, 0.0, 0.0, 0.0, 0.0, 0.0, 0.0, 0.0, 0.0, 0.0], 
        "evaluate_basis_derivatives_all_0": [1.7212916129802547e+00, 0.0, 0.0, 4.1429011547390235e+00, 0.0, 0.0, -4.8641927693973104e+00, 0.0, 0.0, 0.0, 1.7212916129802547e+00, 0.0, 0.0, 4.1429011547390235e+00, 0.0, 0.0, -4.8641927693973104e+00, 0.0, 0.0, 0.0, -7.1080477171840029e-01, 0.0, 0.0, 1.7108047700403688e+00], 
        "evaluate_basis_derivatives_all_1": [-4.4041714469373430e+00, 5.4858977672377431e+00, 0.0, 0.0, 0.0, 0.0, -6.6960894077797679e+00, 8.3407429465326945e+00, 0.0, 0.0, 0.0, 0.0, 1.1100260854717110e+01, -1.3826640713770438e+01, 0.0, 0.0, 0.0, 0.0, 0.0, 0.0, -4.4041714469373430e+00, 5.4858977672377431e+00, 0.0, 0.0, 0.0, 0.0, -6.6960894077797679e+00, 8.3407429465326945e+00, 0.0, 0.0, 0.0, 0.0, 1.1100260854717110e+01, -1.3826640713770438e+01, 0.0, 0.0, 0.0, 0.0, 0.0, 0.0, 1.1459589804212122e+00, -1.4274225896474753e+00, 0.0, 0.0, 0.0, 0.0, -1.1459589804212122e+00, 1.4274225896474753e+00], 
        "evaluate_basis_derivatives_all_2": [5.2528879623766667e+00, -6.5430709706797083e+00, -6.5430709706797083e+00, 8.1501410336536715e+00, 0.0, 0.0, 0.0, 0.0, 0.0, 0.0, 0.0, 0.0, 5.2528879623766667e+00, -6.5430709706797083e+00, -6.5430709706797083e+00, 8.1501410336536715e+00, 0.0, 0.0, 0.0, 0.0, 0.0, 0.0, 0.0, 0.0, -1.0505775924753333e+01, 1.3086141941359417e+01, 1.3086141941359417e+01, -1.6300282067307343e+01, 0.0, 0.0, 0.0, 0.0, 0.0, 0.0, 0.0, 0.0, 0.0, 0.0, 0.0, 0.0, 5.2528879623766667e+00, -6.5430709706797083e+00, -6.5430709706797083e+00, 8.1501410336536715e+00, 0.0, 0.0, 0.0, 0.0, 0.0, 0.0, 0.0, 0.0, 5.2528879623766667e+00, -6.5430709706797083e+00, -6.5430709706797083e+00, 8.1501410336536715e+00, 0.0, 0.0, 0.0, 0.0, 0.0, 0.0, 0.0, 0.0, -1.0505775924753333e+01, 1.3086141941359417e+01, 1.3086141941359417e+01, -1.6300282067307343e+01, 0.0, 0.0, 0.0, 0.0, 0.0, 0.0, 0.0, 0.0, 0.0, 0.0, 0.0, 0.0, 0.0, 0.0, 0.0, 0.0, 0.0, 0.0, 0.0, 0.0, 0.0, 0.0, 0.0, 0.0, 0.0, 0.0, 0.0, 0.0], 
        "evaluate_dof_0": 3.0792300000000006e-01, 
        "evaluate_dof_1": 4.3028700000000003e-01, 
        "evaluate_dof_2": 4.0552800000000000e-01, 
        "evaluate_dof_3": 1.2316920000000002e+00, 
        "evaluate_dof_4": 1.7211480000000001e+00, 
        "evaluate_dof_5": 1.6221120000000000e+00, 
        "evaluate_dof_6": 2.7713070000000006e+00, 
        "evaluate_dof_7": 3.8725830000000010e+00, 
        "evaluate_dofs": [3.0792300000000006e-01, 4.3028700000000003e-01, 4.0552800000000000e-01, 1.2316920000000002e+00, 1.7211480000000001e+00, 1.6221120000000000e+00, 2.7713070000000006e+00, 3.8725830000000010e+00], 
        "interpolate_vertex_values": [3.0792300000000006e-01, 1.2316920000000002e+00, 2.7713070000000006e+00, 4.3028700000000003e-01, 1.7211480000000001e+00, 3.8725830000000010e+00], 
        "num_sub_elements": 2, 
        "finite_element_0": {
            "cell_shape": 0, 
            "space_dimension": 6, 
            "value_rank": 1, 
            "value_dimension_0": 2, 
            "evaluate_basis:_0": [1.7212916129802547e+00, 0.0], 
            "evaluate_basis:_1": [4.1429011547390235e+00, 0.0], 
            "evaluate_basis:_2": [-4.8641927693973104e+00, 0.0], 
            "evaluate_basis:_3": [0.0, 1.7212916129802547e+00], 
            "evaluate_basis:_4": [0.0, 4.1429011547390235e+00], 
            "evaluate_basis:_5": [0.0, -4.8641927693973104e+00], 
            "evaluate_basis_all": [1.7212916129802547e+00, 0.0, 4.1429011547390235e+00, 0.0, -4.8641927693973104e+00, 0.0, 0.0, 1.7212916129802547e+00, 0.0, 4.1429011547390235e+00, 0.0, -4.8641927693973104e+00], 
            "evaluate_basis_derivatives_0_0": [1.7212916129802547e+00, 0.0], 
            "evaluate_basis_derivatives_0_1": [-4.4041714469373430e+00, 5.4858977672377431e+00, 0.0, 0.0], 
            "evaluate_basis_derivatives_0_2": [5.2528879623766667e+00, -6.5430709706797083e+00, -6.5430709706797083e+00, 8.1501410336536715e+00, 0.0, 0.0, 0.0, 0.0], 
            "evaluate_basis_derivatives_1_0": [4.1429011547390235e+00, 0.0], 
            "evaluate_basis_derivatives_1_1": [-6.6960894077797679e+00, 8.3407429465326945e+00, 0.0, 0.0], 
            "evaluate_basis_derivatives_1_2": [5.2528879623766667e+00, -6.5430709706797083e+00, -6.5430709706797083e+00, 8.1501410336536715e+00, 0.0, 0.0, 0.0, 0.0], 
            "evaluate_basis_derivatives_2_0": [-4.8641927693973104e+00, 0.0], 
            "evaluate_basis_derivatives_2_1": [1.1100260854717110e+01, -1.3826640713770438e+01, 0.0, 0.0], 
            "evaluate_basis_derivatives_2_2": [-1.0505775924753333e+01, 1.3086141941359417e+01, 1.3086141941359417e+01, -1.6300282067307343e+01, 0.0, 0.0, 0.0, 0.0], 
            "evaluate_basis_derivatives_3_0": [0.0, 1.7212916129802547e+00], 
            "evaluate_basis_derivatives_3_1": [0.0, 0.0, -4.4041714469373430e+00, 5.4858977672377431e+00], 
            "evaluate_basis_derivatives_3_2": [0.0, 0.0, 0.0, 0.0, 5.2528879623766667e+00, -6.5430709706797083e+00, -6.5430709706797083e+00, 8.1501410336536715e+00], 
            "evaluate_basis_derivatives_4_0": [0.0, 4.1429011547390235e+00], 
            "evaluate_basis_derivatives_4_1": [0.0, 0.0, -6.6960894077797679e+00, 8.3407429465326945e+00], 
            "evaluate_basis_derivatives_4_2": [0.0, 0.0, 0.0, 0.0, 5.2528879623766667e+00, -6.5430709706797083e+00, -6.5430709706797083e+00, 8.1501410336536715e+00], 
            "evaluate_basis_derivatives_5_0": [0.0, -4.8641927693973104e+00], 
            "evaluate_basis_derivatives_5_1": [0.0, 0.0, 1.1100260854717110e+01, -1.3826640713770438e+01], 
            "evaluate_basis_derivatives_5_2": [0.0, 0.0, 0.0, 0.0, -1.0505775924753333e+01, 1.3086141941359417e+01, 1.3086141941359417e+01, -1.6300282067307343e+01], 
            "evaluate_basis_derivatives_all_0": [1.7212916129802547e+00, 0.0, 4.1429011547390235e+00, 0.0, -4.8641927693973104e+00, 0.0, 0.0, 1.7212916129802547e+00, 0.0, 4.1429011547390235e+00, 0.0, -4.8641927693973104e+00], 
            "evaluate_basis_derivatives_all_1": [-4.4041714469373430e+00, 5.4858977672377431e+00, 0.0, 0.0, -6.6960894077797679e+00, 8.3407429465326945e+00, 0.0, 0.0, 1.1100260854717110e+01, -1.3826640713770438e+01, 0.0, 0.0, 0.0, 0.0, -4.4041714469373430e+00, 5.4858977672377431e+00, 0.0, 0.0, -6.6960894077797679e+00, 8.3407429465326945e+00, 0.0, 0.0, 1.1100260854717110e+01, -1.3826640713770438e+01], 
            "evaluate_basis_derivatives_all_2": [5.2528879623766667e+00, -6.5430709706797083e+00, -6.5430709706797083e+00, 8.1501410336536715e+00, 0.0, 0.0, 0.0, 0.0, 5.2528879623766667e+00, -6.5430709706797083e+00, -6.5430709706797083e+00, 8.1501410336536715e+00, 0.0, 0.0, 0.0, 0.0, -1.0505775924753333e+01, 1.3086141941359417e+01, 1.3086141941359417e+01, -1.6300282067307343e+01, 0.0, 0.0, 0.0, 0.0, 0.0, 0.0, 0.0, 0.0, 5.2528879623766667e+00, -6.5430709706797083e+00, -6.5430709706797083e+00, 8.1501410336536715e+00, 0.0, 0.0, 0.0, 0.0, 5.2528879623766667e+00, -6.5430709706797083e+00, -6.5430709706797083e+00, 8.1501410336536715e+00, 0.0, 0.0, 0.0, 0.0, -1.0505775924753333e+01, 1.3086141941359417e+01, 1.3086141941359417e+01, -1.6300282067307343e+01], 
            "evaluate_dof_0": 3.0792300000000006e-01, 
            "evaluate_dof_1": 4.3028700000000003e-01, 
            "evaluate_dof_2": 4.0552800000000000e-01, 
            "evaluate_dof_3": 1.2316920000000002e+00, 
            "evaluate_dof_4": 1.7211480000000001e+00, 
            "evaluate_dof_5": 1.6221120000000000e+00, 
            "evaluate_dofs": [3.0792300000000006e-01, 4.3028700000000003e-01, 4.0552800000000000e-01, 1.2316920000000002e+00, 1.7211480000000001e+00, 1.6221120000000000e+00], 
            "interpolate_vertex_values": [3.0792300000000006e-01, 1.2316920000000002e+00, 4.3028700000000003e-01, 1.7211480000000001e+00], 
            "num_sub_elements": 2, 
            "finite_element_0": {
                "cell_shape": 0, 
                "space_dimension": 3, 
                "value_rank": 0, 
                "evaluate_basis:_0": [1.7212916129802547e+00], 
                "evaluate_basis:_1": [4.1429011547390235e+00], 
                "evaluate_basis:_2": [-4.8641927693973104e+00], 
                "evaluate_basis_all": [1.7212916129802547e+00, 4.1429011547390235e+00, -4.8641927693973104e+00], 
                "evaluate_basis_derivatives_0_0": [1.7212916129802547e+00], 
                "evaluate_basis_derivatives_0_1": [-4.4041714469373430e+00, 5.4858977672377431e+00], 
                "evaluate_basis_derivatives_0_2": [5.2528879623766667e+00, -6.5430709706797083e+00, -6.5430709706797083e+00, 8.1501410336536715e+00], 
                "evaluate_basis_derivatives_1_0": [4.1429011547390235e+00], 
                "evaluate_basis_derivatives_1_1": [-6.6960894077797679e+00, 8.3407429465326945e+00], 
                "evaluate_basis_derivatives_1_2": [5.2528879623766667e+00, -6.5430709706797083e+00, -6.5430709706797083e+00, 8.1501410336536715e+00], 
                "evaluate_basis_derivatives_2_0": [-4.8641927693973104e+00], 
                "evaluate_basis_derivatives_2_1": [1.1100260854717110e+01, -1.3826640713770438e+01], 
                "evaluate_basis_derivatives_2_2": [-1.0505775924753333e+01, 1.3086141941359417e+01, 1.3086141941359417e+01, -1.6300282067307343e+01], 
                "evaluate_basis_derivatives_all_0": [1.7212916129802547e+00, 4.1429011547390235e+00, -4.8641927693973104e+00], 
                "evaluate_basis_derivatives_all_1": [-4.4041714469373430e+00, 5.4858977672377431e+00, -6.6960894077797679e+00, 8.3407429465326945e+00, 1.1100260854717110e+01, -1.3826640713770438e+01], 
                "evaluate_basis_derivatives_all_2": [5.2528879623766667e+00, -6.5430709706797083e+00, -6.5430709706797083e+00, 8.1501410336536715e+00, 5.2528879623766667e+00, -6.5430709706797083e+00, -6.5430709706797083e+00, 8.1501410336536715e+00, -1.0505775924753333e+01, 1.3086141941359417e+01, 1.3086141941359417e+01, -1.6300282067307343e+01], 
                "evaluate_dof_0": 3.0792300000000006e-01, 
                "evaluate_dof_1": 4.3028700000000003e-01, 
                "evaluate_dof_2": 4.0552800000000000e-01, 
                "evaluate_dofs": [3.0792300000000006e-01, 4.3028700000000003e-01, 4.0552800000000000e-01], 
                "interpolate_vertex_values": [3.0792300000000006e-01, 4.3028700000000003e-01], 
                "num_sub_elements": 0, 
            },
            "finite_element_1": {
                "cell_shape": 0, 
                "space_dimension": 3, 
                "value_rank": 0, 
                "evaluate_basis:_0": [1.7212916129802547e+00], 
                "evaluate_basis:_1": [4.1429011547390235e+00], 
                "evaluate_basis:_2": [-4.8641927693973104e+00], 
                "evaluate_basis_all": [1.7212916129802547e+00, 4.1429011547390235e+00, -4.8641927693973104e+00], 
                "evaluate_basis_derivatives_0_0": [1.7212916129802547e+00], 
                "evaluate_basis_derivatives_0_1": [-4.4041714469373430e+00, 5.4858977672377431e+00], 
                "evaluate_basis_derivatives_0_2": [5.2528879623766667e+00, -6.5430709706797083e+00, -6.5430709706797083e+00, 8.1501410336536715e+00], 
                "evaluate_basis_derivatives_1_0": [4.1429011547390235e+00], 
                "evaluate_basis_derivatives_1_1": [-6.6960894077797679e+00, 8.3407429465326945e+00], 
                "evaluate_basis_derivatives_1_2": [5.2528879623766667e+00, -6.5430709706797083e+00, -6.5430709706797083e+00, 8.1501410336536715e+00], 
                "evaluate_basis_derivatives_2_0": [-4.8641927693973104e+00], 
                "evaluate_basis_derivatives_2_1": [1.1100260854717110e+01, -1.3826640713770438e+01], 
                "evaluate_basis_derivatives_2_2": [-1.0505775924753333e+01, 1.3086141941359417e+01, 1.3086141941359417e+01, -1.6300282067307343e+01], 
                "evaluate_basis_derivatives_all_0": [1.7212916129802547e+00, 4.1429011547390235e+00, -4.8641927693973104e+00], 
                "evaluate_basis_derivatives_all_1": [-4.4041714469373430e+00, 5.4858977672377431e+00, -6.6960894077797679e+00, 8.3407429465326945e+00, 1.1100260854717110e+01, -1.3826640713770438e+01], 
                "evaluate_basis_derivatives_all_2": [5.2528879623766667e+00, -6.5430709706797083e+00, -6.5430709706797083e+00, 8.1501410336536715e+00, 5.2528879623766667e+00, -6.5430709706797083e+00, -6.5430709706797083e+00, 8.1501410336536715e+00, -1.0505775924753333e+01, 1.3086141941359417e+01, 1.3086141941359417e+01, -1.6300282067307343e+01], 
                "evaluate_dof_0": 3.0792300000000006e-01, 
                "evaluate_dof_1": 4.3028700000000003e-01, 
                "evaluate_dof_2": 4.0552800000000000e-01, 
                "evaluate_dofs": [3.0792300000000006e-01, 4.3028700000000003e-01, 4.0552800000000000e-01], 
                "interpolate_vertex_values": [3.0792300000000006e-01, 4.3028700000000003e-01], 
                "num_sub_elements": 0, 
            },
        },
        "finite_element_1": {
            "cell_shape": 0, 
            "space_dimension": 2, 
            "value_rank": 0, 
            "evaluate_basis:_0": [-7.1080477171840029e-01], 
            "evaluate_basis:_1": [1.7108047700403688e+00], 
            "evaluate_basis_all": [-7.1080477171840029e-01, 1.7108047700403688e+00], 
            "evaluate_basis_derivatives_0_0": [-7.1080477171840029e-01], 
            "evaluate_basis_derivatives_0_1": [1.1459589804212122e+00, -1.4274225896474753e+00], 
            "evaluate_basis_derivatives_0_2": [0.0, 0.0, 0.0, 0.0], 
            "evaluate_basis_derivatives_1_0": [1.7108047700403688e+00], 
            "evaluate_basis_derivatives_1_1": [-1.1459589804212122e+00, 1.4274225896474753e+00], 
            "evaluate_basis_derivatives_1_2": [0.0, 0.0, 0.0, 0.0], 
            "evaluate_basis_derivatives_all_0": [-7.1080477171840029e-01, 1.7108047700403688e+00], 
            "evaluate_basis_derivatives_all_1": [1.1459589804212122e+00, -1.4274225896474753e+00, -1.1459589804212122e+00, 1.4274225896474753e+00], 
            "evaluate_basis_derivatives_all_2": [0.0, 0.0, 0.0, 0.0, 0.0, 0.0, 0.0, 0.0], 
            "evaluate_dof_0": 3.0792300000000006e-01, 
            "evaluate_dof_1": 4.3028700000000003e-01, 
            "evaluate_dofs": [3.0792300000000006e-01, 4.3028700000000003e-01], 
            "interpolate_vertex_values": [3.0792300000000006e-01, 4.3028700000000003e-01], 
            "num_sub_elements": 0, 
        },
    },
}
