{
    "form_0": {
        "num_coefficients": 1, 
        "has_cell_integrals": 1, 
        "has_exterior_facet_integrals": 0, 
        "has_interior_facet_integrals": 0, 
        "has_point_integrals": 0, 
        "num_cell_domains": 0, 
        "num_exterior_facet_domains": 0, 
        "num_interior_facet_domains": 0, 
        "num_point_domains": 0, 
        "finite_element_0": {
            "cell_shape": 3, 
            "space_dimension": 12, 
            "value_rank": 1, 
            "value_dimension_0": 3, 
            "evaluate_basis:_0": [6.5138066282759177e-01, 0.0, 0.0], 
            "evaluate_basis:_1": [-1.6643198169361997e+00, 0.0, 0.0], 
            "evaluate_basis:_2": [1.1330457769257019e-01, 0.0, 0.0], 
            "evaluate_basis:_3": [1.8996345630323292e+00, 0.0, 0.0], 
            "evaluate_basis:_4": [0.0, 6.5138066282759177e-01, 0.0], 
            "evaluate_basis:_5": [0.0, -1.6643198169361997e+00, 0.0], 
            "evaluate_basis:_6": [0.0, 1.1330457769257019e-01, 0.0], 
            "evaluate_basis:_7": [0.0, 1.8996345630323292e+00, 0.0], 
            "evaluate_basis:_8": [0.0, 0.0, 6.5138066282759177e-01], 
            "evaluate_basis:_9": [0.0, 0.0, -1.6643198169361997e+00], 
            "evaluate_basis:_10": [0.0, 0.0, 1.1330457769257019e-01], 
            "evaluate_basis:_11": [0.0, 0.0, 1.8996345630323292e+00], 
            "evaluate_basis_all": [6.5138066282759177e-01, 0.0, 0.0, -1.6643198169361997e+00, 0.0, 0.0, 1.1330457769257019e-01, 0.0, 0.0, 1.8996345630323292e+00, 0.0, 0.0, 0.0, 6.5138066282759177e-01, 0.0, 0.0, -1.6643198169361997e+00, 0.0, 0.0, 1.1330457769257019e-01, 0.0, 0.0, 1.8996345630323292e+00, 0.0, 0.0, 0.0, 6.5138066282759177e-01, 0.0, 0.0, -1.6643198169361997e+00, 0.0, 0.0, 1.1330457769257019e-01, 0.0, 0.0, 1.8996345630323292e+00], 
            "evaluate_basis_derivatives_0_0": [6.5138066282759177e-01, 0.0, 0.0], 
            "evaluate_basis_derivatives_0_1": [8.1421051112794429e-01, -2.1238951557882415e+00, 4.8733859461364548e-01, 0.0, 0.0, 0.0, 0.0, 0.0, 0.0], 
            "evaluate_basis_derivatives_0_2": [0.0, 0.0, 0.0, 0.0, 0.0, 0.0, 0.0, 0.0, 0.0, 0.0, 0.0, 0.0, 0.0, 0.0, 0.0, 0.0, 0.0, 0.0, 0.0, 0.0, 0.0, 0.0, 0.0, 0.0, 0.0, 0.0, 0.0], 
            "evaluate_basis_derivatives_1_0": [-1.6643198169361997e+00, 0.0, 0.0], 
            "evaluate_basis_derivatives_1_1": [9.1338256307038557e-01, 1.1457416830848857e+00, 2.1922630297147019e+00, 0.0, 0.0, 0.0, 0.0, 0.0, 0.0], 
            "evaluate_basis_derivatives_1_2": [0.0, 0.0, 0.0, 0.0, 0.0, 0.0, 0.0, 0.0, 0.0, 0.0, 0.0, 0.0, 0.0, 0.0, 0.0, 0.0, 0.0, 0.0, 0.0, 0.0, 0.0, 0.0, 0.0, 0.0, 0.0, 0.0, 0.0], 
            "evaluate_basis_derivatives_2_0": [1.1330457769257019e-01, 0.0, 0.0], 
            "evaluate_basis_derivatives_2_1": [-4.0677945777071893e-02, 1.3365779106852225e+00, -1.5513139558714450e+00, 0.0, 0.0, 0.0, 0.0, 0.0, 0.0], 
            "evaluate_basis_derivatives_2_2": [0.0, 0.0, 0.0, 0.0, 0.0, 0.0, 0.0, 0.0, 0.0, 0.0, 0.0, 0.0, 0.0, 0.0, 0.0, 0.0, 0.0, 0.0, 0.0, 0.0, 0.0, 0.0, 0.0, 0.0, 0.0, 0.0, 0.0], 
            "evaluate_basis_derivatives_3_0": [1.8996345630323292e+00, 0.0, 0.0], 
            "evaluate_basis_derivatives_3_1": [-1.6869151224516048e+00, -3.5842450052290431e-01, -1.1282875921693927e+00, 0.0, 0.0, 0.0, 0.0, 0.0, 0.0], 
            "evaluate_basis_derivatives_3_2": [0.0, 0.0, 0.0, 0.0, 0.0, 0.0, 0.0, 0.0, 0.0, 0.0, 0.0, 0.0, 0.0, 0.0, 0.0, 0.0, 0.0, 0.0, 0.0, 0.0, 0.0, 0.0, 0.0, 0.0, 0.0, 0.0, 0.0], 
            "evaluate_basis_derivatives_4_0": [0.0, 6.5138066282759177e-01, 0.0], 
            "evaluate_basis_derivatives_4_1": [0.0, 0.0, 0.0, 8.1421051112794429e-01, -2.1238951557882415e+00, 4.8733859461364548e-01, 0.0, 0.0, 0.0], 
            "evaluate_basis_derivatives_4_2": [0.0, 0.0, 0.0, 0.0, 0.0, 0.0, 0.0, 0.0, 0.0, 0.0, 0.0, 0.0, 0.0, 0.0, 0.0, 0.0, 0.0, 0.0, 0.0, 0.0, 0.0, 0.0, 0.0, 0.0, 0.0, 0.0, 0.0], 
            "evaluate_basis_derivatives_5_0": [0.0, -1.6643198169361997e+00, 0.0], 
            "evaluate_basis_derivatives_5_1": [0.0, 0.0, 0.0, 9.1338256307038557e-01, 1.1457416830848857e+00, 2.1922630297147019e+00, 0.0, 0.0, 0.0], 
            "evaluate_basis_derivatives_5_2": [0.0, 0.0, 0.0, 0.0, 0.0, 0.0, 0.0, 0.0, 0.0, 0.0, 0.0, 0.0, 0.0, 0.0, 0.0, 0.0, 0.0, 0.0, 0.0, 0.0, 0.0, 0.0, 0.0, 0.0, 0.0, 0.0, 0.0], 
            "evaluate_basis_derivatives_6_0": [0.0, 1.1330457769257019e-01, 0.0], 
            "evaluate_basis_derivatives_6_1": [0.0, 0.0, 0.0, -4.0677945777071893e-02, 1.3365779106852225e+00, -1.5513139558714450e+00, 0.0, 0.0, 0.0], 
            "evaluate_basis_derivatives_6_2": [0.0, 0.0, 0.0, 0.0, 0.0, 0.0, 0.0, 0.0, 0.0, 0.0, 0.0, 0.0, 0.0, 0.0, 0.0, 0.0, 0.0, 0.0, 0.0, 0.0, 0.0, 0.0, 0.0, 0.0, 0.0, 0.0, 0.0], 
            "evaluate_basis_derivatives_7_0": [0.0, 1.8996345630323292e+00, 0.0], 
            "evaluate_basis_derivatives_7_1": [0.0, 0.0, 0.0, -1.6869151224516048e+00, -3.5842450052290431e-01, -1.1282875921693927e+00, 0.0, 0.0, 0.0], 
            "evaluate_basis_derivatives_7_2": [0.0, 0.0, 0.0, 0.0, 0.0, 0.0, 0.0, 0.0, 0.0, 0.0, 0.0, 0.0, 0.0, 0.0, 0.0, 0.0, 0.0, 0.0, 0.0, 0.0, 0.0, 0.0, 0.0, 0.0, 0.0, 0.0, 0.0], 
            "evaluate_basis_derivatives_8_0": [0.0, 0.0, 6.5138066282759177e-01], 
            "evaluate_basis_derivatives_8_1": [0.0, 0.0, 0.0, 0.0, 0.0, 0.0, 8.1421051112794429e-01, -2.1238951557882415e+00, 4.8733859461364548e-01], 
            "evaluate_basis_derivatives_8_2": [0.0, 0.0, 0.0, 0.0, 0.0, 0.0, 0.0, 0.0, 0.0, 0.0, 0.0, 0.0, 0.0, 0.0, 0.0, 0.0, 0.0, 0.0, 0.0, 0.0, 0.0, 0.0, 0.0, 0.0, 0.0, 0.0, 0.0], 
            "evaluate_basis_derivatives_9_0": [0.0, 0.0, -1.6643198169361997e+00], 
            "evaluate_basis_derivatives_9_1": [0.0, 0.0, 0.0, 0.0, 0.0, 0.0, 9.1338256307038557e-01, 1.1457416830848857e+00, 2.1922630297147019e+00], 
            "evaluate_basis_derivatives_9_2": [0.0, 0.0, 0.0, 0.0, 0.0, 0.0, 0.0, 0.0, 0.0, 0.0, 0.0, 0.0, 0.0, 0.0, 0.0, 0.0, 0.0, 0.0, 0.0, 0.0, 0.0, 0.0, 0.0, 0.0, 0.0, 0.0, 0.0], 
            "evaluate_basis_derivatives_10_0": [0.0, 0.0, 1.1330457769257019e-01], 
            "evaluate_basis_derivatives_10_1": [0.0, 0.0, 0.0, 0.0, 0.0, 0.0, -4.0677945777071893e-02, 1.3365779106852225e+00, -1.5513139558714450e+00], 
            "evaluate_basis_derivatives_10_2": [0.0, 0.0, 0.0, 0.0, 0.0, 0.0, 0.0, 0.0, 0.0, 0.0, 0.0, 0.0, 0.0, 0.0, 0.0, 0.0, 0.0, 0.0, 0.0, 0.0, 0.0, 0.0, 0.0, 0.0, 0.0, 0.0, 0.0], 
            "evaluate_basis_derivatives_11_0": [0.0, 0.0, 1.8996345630323292e+00], 
            "evaluate_basis_derivatives_11_1": [0.0, 0.0, 0.0, 0.0, 0.0, 0.0, -1.6869151224516048e+00, -3.5842450052290431e-01, -1.1282875921693927e+00], 
            "evaluate_basis_derivatives_11_2": [0.0, 0.0, 0.0, 0.0, 0.0, 0.0, 0.0, 0.0, 0.0, 0.0, 0.0, 0.0, 0.0, 0.0, 0.0, 0.0, 0.0, 0.0, 0.0, 0.0, 0.0, 0.0, 0.0, 0.0, 0.0, 0.0, 0.0], 
            "evaluate_basis_derivatives_all_0": [6.5138066282759177e-01, 0.0, 0.0, -1.6643198169361997e+00, 0.0, 0.0, 1.1330457769257019e-01, 0.0, 0.0, 1.8996345630323292e+00, 0.0, 0.0, 0.0, 6.5138066282759177e-01, 0.0, 0.0, -1.6643198169361997e+00, 0.0, 0.0, 1.1330457769257019e-01, 0.0, 0.0, 1.8996345630323292e+00, 0.0, 0.0, 0.0, 6.5138066282759177e-01, 0.0, 0.0, -1.6643198169361997e+00, 0.0, 0.0, 1.1330457769257019e-01, 0.0, 0.0, 1.8996345630323292e+00], 
            "evaluate_basis_derivatives_all_1": [8.1421051112794429e-01, -2.1238951557882415e+00, 4.8733859461364548e-01, 0.0, 0.0, 0.0, 0.0, 0.0, 0.0, 9.1338256307038557e-01, 1.1457416830848857e+00, 2.1922630297147019e+00, 0.0, 0.0, 0.0, 0.0, 0.0, 0.0, -4.0677945777071893e-02, 1.3365779106852225e+00, -1.5513139558714450e+00, 0.0, 0.0, 0.0, 0.0, 0.0, 0.0, -1.6869151224516048e+00, -3.5842450052290431e-01, -1.1282875921693927e+00, 0.0, 0.0, 0.0, 0.0, 0.0, 0.0, 0.0, 0.0, 0.0, 8.1421051112794429e-01, -2.1238951557882415e+00, 4.8733859461364548e-01, 0.0, 0.0, 0.0, 0.0, 0.0, 0.0, 9.1338256307038557e-01, 1.1457416830848857e+00, 2.1922630297147019e+00, 0.0, 0.0, 0.0, 0.0, 0.0, 0.0, -4.0677945777071893e-02, 1.3365779106852225e+00, -1.5513139558714450e+00, 0.0, 0.0, 0.0, 0.0, 0.0, 0.0, -1.6869151224516048e+00, -3.5842450052290431e-01, -1.1282875921693927e+00, 0.0, 0.0, 0.0, 0.0, 0.0, 0.0, 0.0, 0.0, 0.0, 8.1421051112794429e-01, -2.1238951557882415e+00, 4.8733859461364548e-01, 0.0, 0.0, 0.0, 0.0, 0.0, 0.0, 9.1338256307038557e-01, 1.1457416830848857e+00, 2.1922630297147019e+00, 0.0, 0.0, 0.0, 0.0, 0.0, 0.0, -4.0677945777071893e-02, 1.3365779106852225e+00, -1.5513139558714450e+00, 0.0, 0.0, 0.0, 0.0, 0.0, 0.0, -1.6869151224516048e+00, -3.5842450052290431e-01, -1.1282875921693927e+00], 
            "evaluate_basis_derivatives_all_2": [0.0, 0.0, 0.0, 0.0, 0.0, 0.0, 0.0, 0.0, 0.0, 0.0, 0.0, 0.0, 0.0, 0.0, 0.0, 0.0, 0.0, 0.0, 0.0, 0.0, 0.0, 0.0, 0.0, 0.0, 0.0, 0.0, 0.0, 0.0, 0.0, 0.0, 0.0, 0.0, 0.0, 0.0, 0.0, 0.0, 0.0, 0.0, 0.0, 0.0, 0.0, 0.0, 0.0, 0.0, 0.0, 0.0, 0.0, 0.0, 0.0, 0.0, 0.0, 0.0, 0.0, 0.0, 0.0, 0.0, 0.0, 0.0, 0.0, 0.0, 0.0, 0.0, 0.0, 0.0, 0.0, 0.0, 0.0, 0.0, 0.0, 0.0, 0.0, 0.0, 0.0, 0.0, 0.0, 0.0, 0.0, 0.0, 0.0, 0.0, 0.0, 0.0, 0.0, 0.0, 0.0, 0.0, 0.0, 0.0, 0.0, 0.0, 0.0, 0.0, 0.0, 0.0, 0.0, 0.0, 0.0, 0.0, 0.0, 0.0, 0.0, 0.0, 0.0, 0.0, 0.0, 0.0, 0.0, 0.0, 0.0, 0.0, 0.0, 0.0, 0.0, 0.0, 0.0, 0.0, 0.0, 0.0, 0.0, 0.0, 0.0, 0.0, 0.0, 0.0, 0.0, 0.0, 0.0, 0.0, 0.0, 0.0, 0.0, 0.0, 0.0, 0.0, 0.0, 0.0, 0.0, 0.0, 0.0, 0.0, 0.0, 0.0, 0.0, 0.0, 0.0, 0.0, 0.0, 0.0, 0.0, 0.0, 0.0, 0.0, 0.0, 0.0, 0.0, 0.0, 0.0, 0.0, 0.0, 0.0, 0.0, 0.0, 0.0, 0.0, 0.0, 0.0, 0.0, 0.0, 0.0, 0.0, 0.0, 0.0, 0.0, 0.0, 0.0, 0.0, 0.0, 0.0, 0.0, 0.0, 0.0, 0.0, 0.0, 0.0, 0.0, 0.0, 0.0, 0.0, 0.0, 0.0, 0.0, 0.0, 0.0, 0.0, 0.0, 0.0, 0.0, 0.0, 0.0, 0.0, 0.0, 0.0, 0.0, 0.0, 0.0, 0.0, 0.0, 0.0, 0.0, 0.0, 0.0, 0.0, 0.0, 0.0, 0.0, 0.0, 0.0, 0.0, 0.0, 0.0, 0.0, 0.0, 0.0, 0.0, 0.0, 0.0, 0.0, 0.0, 0.0, 0.0, 0.0, 0.0, 0.0, 0.0, 0.0, 0.0, 0.0, 0.0, 0.0, 0.0, 0.0, 0.0, 0.0, 0.0, 0.0, 0.0, 0.0, 0.0, 0.0, 0.0, 0.0, 0.0, 0.0, 0.0, 0.0, 0.0, 0.0, 0.0, 0.0, 0.0, 0.0, 0.0, 0.0, 0.0, 0.0, 0.0, 0.0, 0.0, 0.0, 0.0, 0.0, 0.0, 0.0, 0.0, 0.0, 0.0, 0.0, 0.0, 0.0, 0.0, 0.0, 0.0, 0.0, 0.0, 0.0, 0.0, 0.0, 0.0, 0.0, 0.0, 0.0, 0.0, 0.0, 0.0, 0.0, 0.0, 0.0, 0.0, 0.0, 0.0, 0.0, 0.0, 0.0, 0.0, 0.0, 0.0, 0.0, 0.0, 0.0, 0.0, 0.0, 0.0, 0.0, 0.0, 0.0, 0.0, 0.0, 0.0, 0.0, 0.0, 0.0, 0.0, 0.0, 0.0], 
            "evaluate_dof_0": 1.4072081100000003e-01, 
            "evaluate_dof_1": 3.5842907099999999e-01, 
            "evaluate_dof_2": 1.4760881100000001e-01, 
            "evaluate_dof_3": 4.6025001000000010e-02, 
            "evaluate_dof_4": 1.1257664880000002e+00, 
            "evaluate_dof_5": 2.8674325679999999e+00, 
            "evaluate_dof_6": 1.1808704880000001e+00, 
            "evaluate_dof_7": 3.6820000800000008e-01, 
            "evaluate_dof_8": 3.7994618970000009e+00, 
            "evaluate_dof_9": 9.6775849170000008e+00, 
            "evaluate_dof_10": 3.9854378969999997e+00, 
            "evaluate_dof_11": 1.2426750270000004e+00, 
            "evaluate_dofs": [1.4072081100000003e-01, 3.5842907099999999e-01, 1.4760881100000001e-01, 4.6025001000000010e-02, 1.1257664880000002e+00, 2.8674325679999999e+00, 1.1808704880000001e+00, 3.6820000800000008e-01, 3.7994618970000009e+00, 9.6775849170000008e+00, 3.9854378969999997e+00, 1.2426750270000004e+00], 
            "interpolate_vertex_values": [1.4072081100000003e-01, 1.1257664880000002e+00, 3.7994618970000009e+00, 3.5842907099999999e-01, 2.8674325679999999e+00, 9.6775849170000008e+00, 1.4760881100000001e-01, 1.1808704880000001e+00, 3.9854378969999997e+00, 4.6025001000000010e-02, 3.6820000800000008e-01, 1.2426750270000004e+00], 
            "num_sub_elements": 3, 
            "finite_element_0": {
                "cell_shape": 3, 
                "space_dimension": 4, 
                "value_rank": 0, 
                "evaluate_basis:_0": [6.5138066282759177e-01], 
                "evaluate_basis:_1": [-1.6643198169361997e+00], 
                "evaluate_basis:_2": [1.1330457769257019e-01], 
                "evaluate_basis:_3": [1.8996345630323292e+00], 
                "evaluate_basis_all": [6.5138066282759177e-01, -1.6643198169361997e+00, 1.1330457769257019e-01, 1.8996345630323292e+00], 
                "evaluate_basis_derivatives_0_0": [6.5138066282759177e-01], 
                "evaluate_basis_derivatives_0_1": [8.1421051112794429e-01, -2.1238951557882415e+00, 4.8733859461364548e-01], 
                "evaluate_basis_derivatives_0_2": [0.0, 0.0, 0.0, 0.0, 0.0, 0.0, 0.0, 0.0, 0.0], 
                "evaluate_basis_derivatives_1_0": [-1.6643198169361997e+00], 
                "evaluate_basis_derivatives_1_1": [9.1338256307038557e-01, 1.1457416830848857e+00, 2.1922630297147019e+00], 
                "evaluate_basis_derivatives_1_2": [0.0, 0.0, 0.0, 0.0, 0.0, 0.0, 0.0, 0.0, 0.0], 
                "evaluate_basis_derivatives_2_0": [1.1330457769257019e-01], 
                "evaluate_basis_derivatives_2_1": [-4.0677945777071893e-02, 1.3365779106852225e+00, -1.5513139558714450e+00], 
                "evaluate_basis_derivatives_2_2": [0.0, 0.0, 0.0, 0.0, 0.0, 0.0, 0.0, 0.0, 0.0], 
                "evaluate_basis_derivatives_3_0": [1.8996345630323292e+00], 
                "evaluate_basis_derivatives_3_1": [-1.6869151224516048e+00, -3.5842450052290431e-01, -1.1282875921693927e+00], 
                "evaluate_basis_derivatives_3_2": [0.0, 0.0, 0.0, 0.0, 0.0, 0.0, 0.0, 0.0, 0.0], 
                "evaluate_basis_derivatives_all_0": [6.5138066282759177e-01, -1.6643198169361997e+00, 1.1330457769257019e-01, 1.8996345630323292e+00], 
                "evaluate_basis_derivatives_all_1": [8.1421051112794429e-01, -2.1238951557882415e+00, 4.8733859461364548e-01, 9.1338256307038557e-01, 1.1457416830848857e+00, 2.1922630297147019e+00, -4.0677945777071893e-02, 1.3365779106852225e+00, -1.5513139558714450e+00, -1.6869151224516048e+00, -3.5842450052290431e-01, -1.1282875921693927e+00], 
                "evaluate_basis_derivatives_all_2": [0.0, 0.0, 0.0, 0.0, 0.0, 0.0, 0.0, 0.0, 0.0, 0.0, 0.0, 0.0, 0.0, 0.0, 0.0, 0.0, 0.0, 0.0, 0.0, 0.0, 0.0, 0.0, 0.0, 0.0, 0.0, 0.0, 0.0, 0.0, 0.0, 0.0, 0.0, 0.0, 0.0, 0.0, 0.0, 0.0], 
                "evaluate_dof_0": 1.4072081100000003e-01, 
                "evaluate_dof_1": 3.5842907099999999e-01, 
                "evaluate_dof_2": 1.4760881100000001e-01, 
                "evaluate_dof_3": 4.6025001000000010e-02, 
                "evaluate_dofs": [1.4072081100000003e-01, 3.5842907099999999e-01, 1.4760881100000001e-01, 4.6025001000000010e-02], 
                "interpolate_vertex_values": [1.4072081100000003e-01, 3.5842907099999999e-01, 1.4760881100000001e-01, 4.6025001000000010e-02], 
                "num_sub_elements": 0, 
            },
            "finite_element_1": {
                "cell_shape": 3, 
                "space_dimension": 4, 
                "value_rank": 0, 
                "evaluate_basis:_0": [6.5138066282759177e-01], 
                "evaluate_basis:_1": [-1.6643198169361997e+00], 
                "evaluate_basis:_2": [1.1330457769257019e-01], 
                "evaluate_basis:_3": [1.8996345630323292e+00], 
                "evaluate_basis_all": [6.5138066282759177e-01, -1.6643198169361997e+00, 1.1330457769257019e-01, 1.8996345630323292e+00], 
                "evaluate_basis_derivatives_0_0": [6.5138066282759177e-01], 
                "evaluate_basis_derivatives_0_1": [8.1421051112794429e-01, -2.1238951557882415e+00, 4.8733859461364548e-01], 
                "evaluate_basis_derivatives_0_2": [0.0, 0.0, 0.0, 0.0, 0.0, 0.0, 0.0, 0.0, 0.0], 
                "evaluate_basis_derivatives_1_0": [-1.6643198169361997e+00], 
                "evaluate_basis_derivatives_1_1": [9.1338256307038557e-01, 1.1457416830848857e+00, 2.1922630297147019e+00], 
                "evaluate_basis_derivatives_1_2": [0.0, 0.0, 0.0, 0.0, 0.0, 0.0, 0.0, 0.0, 0.0], 
                "evaluate_basis_derivatives_2_0": [1.1330457769257019e-01], 
                "evaluate_basis_derivatives_2_1": [-4.0677945777071893e-02, 1.3365779106852225e+00, -1.5513139558714450e+00], 
                "evaluate_basis_derivatives_2_2": [0.0, 0.0, 0.0, 0.0, 0.0, 0.0, 0.0, 0.0, 0.0], 
                "evaluate_basis_derivatives_3_0": [1.8996345630323292e+00], 
                "evaluate_basis_derivatives_3_1": [-1.6869151224516048e+00, -3.5842450052290431e-01, -1.1282875921693927e+00], 
                "evaluate_basis_derivatives_3_2": [0.0, 0.0, 0.0, 0.0, 0.0, 0.0, 0.0, 0.0, 0.0], 
                "evaluate_basis_derivatives_all_0": [6.5138066282759177e-01, -1.6643198169361997e+00, 1.1330457769257019e-01, 1.8996345630323292e+00], 
                "evaluate_basis_derivatives_all_1": [8.1421051112794429e-01, -2.1238951557882415e+00, 4.8733859461364548e-01, 9.1338256307038557e-01, 1.1457416830848857e+00, 2.1922630297147019e+00, -4.0677945777071893e-02, 1.3365779106852225e+00, -1.5513139558714450e+00, -1.6869151224516048e+00, -3.5842450052290431e-01, -1.1282875921693927e+00], 
                "evaluate_basis_derivatives_all_2": [0.0, 0.0, 0.0, 0.0, 0.0, 0.0, 0.0, 0.0, 0.0, 0.0, 0.0, 0.0, 0.0, 0.0, 0.0, 0.0, 0.0, 0.0, 0.0, 0.0, 0.0, 0.0, 0.0, 0.0, 0.0, 0.0, 0.0, 0.0, 0.0, 0.0, 0.0, 0.0, 0.0, 0.0, 0.0, 0.0], 
                "evaluate_dof_0": 1.4072081100000003e-01, 
                "evaluate_dof_1": 3.5842907099999999e-01, 
                "evaluate_dof_2": 1.4760881100000001e-01, 
                "evaluate_dof_3": 4.6025001000000010e-02, 
                "evaluate_dofs": [1.4072081100000003e-01, 3.5842907099999999e-01, 1.4760881100000001e-01, 4.6025001000000010e-02], 
                "interpolate_vertex_values": [1.4072081100000003e-01, 3.5842907099999999e-01, 1.4760881100000001e-01, 4.6025001000000010e-02], 
                "num_sub_elements": 0, 
            },
            "finite_element_2": {
                "cell_shape": 3, 
                "space_dimension": 4, 
                "value_rank": 0, 
                "evaluate_basis:_0": [6.5138066282759177e-01], 
                "evaluate_basis:_1": [-1.6643198169361997e+00], 
                "evaluate_basis:_2": [1.1330457769257019e-01], 
                "evaluate_basis:_3": [1.8996345630323292e+00], 
                "evaluate_basis_all": [6.5138066282759177e-01, -1.6643198169361997e+00, 1.1330457769257019e-01, 1.8996345630323292e+00], 
                "evaluate_basis_derivatives_0_0": [6.5138066282759177e-01], 
                "evaluate_basis_derivatives_0_1": [8.1421051112794429e-01, -2.1238951557882415e+00, 4.8733859461364548e-01], 
                "evaluate_basis_derivatives_0_2": [0.0, 0.0, 0.0, 0.0, 0.0, 0.0, 0.0, 0.0, 0.0], 
                "evaluate_basis_derivatives_1_0": [-1.6643198169361997e+00], 
                "evaluate_basis_derivatives_1_1": [9.1338256307038557e-01, 1.1457416830848857e+00, 2.1922630297147019e+00], 
                "evaluate_basis_derivatives_1_2": [0.0, 0.0, 0.0, 0.0, 0.0, 0.0, 0.0, 0.0, 0.0], 
                "evaluate_basis_derivatives_2_0": [1.1330457769257019e-01], 
                "evaluate_basis_derivatives_2_1": [-4.0677945777071893e-02, 1.3365779106852225e+00, -1.5513139558714450e+00], 
                "evaluate_basis_derivatives_2_2": [0.0, 0.0, 0.0, 0.0, 0.0, 0.0, 0.0, 0.0, 0.0], 
                "evaluate_basis_derivatives_3_0": [1.8996345630323292e+00], 
                "evaluate_basis_derivatives_3_1": [-1.6869151224516048e+00, -3.5842450052290431e-01, -1.1282875921693927e+00], 
                "evaluate_basis_derivatives_3_2": [0.0, 0.0, 0.0, 0.0, 0.0, 0.0, 0.0, 0.0, 0.0], 
                "evaluate_basis_derivatives_all_0": [6.5138066282759177e-01, -1.6643198169361997e+00, 1.1330457769257019e-01, 1.8996345630323292e+00], 
                "evaluate_basis_derivatives_all_1": [8.1421051112794429e-01, -2.1238951557882415e+00, 4.8733859461364548e-01, 9.1338256307038557e-01, 1.1457416830848857e+00, 2.1922630297147019e+00, -4.0677945777071893e-02, 1.3365779106852225e+00, -1.5513139558714450e+00, -1.6869151224516048e+00, -3.5842450052290431e-01, -1.1282875921693927e+00], 
                "evaluate_basis_derivatives_all_2": [0.0, 0.0, 0.0, 0.0, 0.0, 0.0, 0.0, 0.0, 0.0, 0.0, 0.0, 0.0, 0.0, 0.0, 0.0, 0.0, 0.0, 0.0, 0.0, 0.0, 0.0, 0.0, 0.0, 0.0, 0.0, 0.0, 0.0, 0.0, 0.0, 0.0, 0.0, 0.0, 0.0, 0.0, 0.0, 0.0], 
                "evaluate_dof_0": 1.4072081100000003e-01, 
                "evaluate_dof_1": 3.5842907099999999e-01, 
                "evaluate_dof_2": 1.4760881100000001e-01, 
                "evaluate_dof_3": 4.6025001000000010e-02, 
                "evaluate_dofs": [1.4072081100000003e-01, 3.5842907099999999e-01, 1.4760881100000001e-01, 4.6025001000000010e-02], 
                "interpolate_vertex_values": [1.4072081100000003e-01, 3.5842907099999999e-01, 1.4760881100000001e-01, 4.6025001000000010e-02], 
                "num_sub_elements": 0, 
            },
        },
        "finite_element_1": {
            "cell_shape": 3, 
            "space_dimension": 12, 
            "value_rank": 1, 
            "value_dimension_0": 3, 
            "evaluate_basis:_0": [6.5138066282759177e-01, 0.0, 0.0], 
            "evaluate_basis:_1": [-1.6643198169361997e+00, 0.0, 0.0], 
            "evaluate_basis:_2": [1.1330457769257019e-01, 0.0, 0.0], 
            "evaluate_basis:_3": [1.8996345630323292e+00, 0.0, 0.0], 
            "evaluate_basis:_4": [0.0, 6.5138066282759177e-01, 0.0], 
            "evaluate_basis:_5": [0.0, -1.6643198169361997e+00, 0.0], 
            "evaluate_basis:_6": [0.0, 1.1330457769257019e-01, 0.0], 
            "evaluate_basis:_7": [0.0, 1.8996345630323292e+00, 0.0], 
            "evaluate_basis:_8": [0.0, 0.0, 6.5138066282759177e-01], 
            "evaluate_basis:_9": [0.0, 0.0, -1.6643198169361997e+00], 
            "evaluate_basis:_10": [0.0, 0.0, 1.1330457769257019e-01], 
            "evaluate_basis:_11": [0.0, 0.0, 1.8996345630323292e+00], 
            "evaluate_basis_all": [6.5138066282759177e-01, 0.0, 0.0, -1.6643198169361997e+00, 0.0, 0.0, 1.1330457769257019e-01, 0.0, 0.0, 1.8996345630323292e+00, 0.0, 0.0, 0.0, 6.5138066282759177e-01, 0.0, 0.0, -1.6643198169361997e+00, 0.0, 0.0, 1.1330457769257019e-01, 0.0, 0.0, 1.8996345630323292e+00, 0.0, 0.0, 0.0, 6.5138066282759177e-01, 0.0, 0.0, -1.6643198169361997e+00, 0.0, 0.0, 1.1330457769257019e-01, 0.0, 0.0, 1.8996345630323292e+00], 
            "evaluate_basis_derivatives_0_0": [6.5138066282759177e-01, 0.0, 0.0], 
            "evaluate_basis_derivatives_0_1": [8.1421051112794429e-01, -2.1238951557882415e+00, 4.8733859461364548e-01, 0.0, 0.0, 0.0, 0.0, 0.0, 0.0], 
            "evaluate_basis_derivatives_0_2": [0.0, 0.0, 0.0, 0.0, 0.0, 0.0, 0.0, 0.0, 0.0, 0.0, 0.0, 0.0, 0.0, 0.0, 0.0, 0.0, 0.0, 0.0, 0.0, 0.0, 0.0, 0.0, 0.0, 0.0, 0.0, 0.0, 0.0], 
            "evaluate_basis_derivatives_1_0": [-1.6643198169361997e+00, 0.0, 0.0], 
            "evaluate_basis_derivatives_1_1": [9.1338256307038557e-01, 1.1457416830848857e+00, 2.1922630297147019e+00, 0.0, 0.0, 0.0, 0.0, 0.0, 0.0], 
            "evaluate_basis_derivatives_1_2": [0.0, 0.0, 0.0, 0.0, 0.0, 0.0, 0.0, 0.0, 0.0, 0.0, 0.0, 0.0, 0.0, 0.0, 0.0, 0.0, 0.0, 0.0, 0.0, 0.0, 0.0, 0.0, 0.0, 0.0, 0.0, 0.0, 0.0], 
            "evaluate_basis_derivatives_2_0": [1.1330457769257019e-01, 0.0, 0.0], 
            "evaluate_basis_derivatives_2_1": [-4.0677945777071893e-02, 1.3365779106852225e+00, -1.5513139558714450e+00, 0.0, 0.0, 0.0, 0.0, 0.0, 0.0], 
            "evaluate_basis_derivatives_2_2": [0.0, 0.0, 0.0, 0.0, 0.0, 0.0, 0.0, 0.0, 0.0, 0.0, 0.0, 0.0, 0.0, 0.0, 0.0, 0.0, 0.0, 0.0, 0.0, 0.0, 0.0, 0.0, 0.0, 0.0, 0.0, 0.0, 0.0], 
            "evaluate_basis_derivatives_3_0": [1.8996345630323292e+00, 0.0, 0.0], 
            "evaluate_basis_derivatives_3_1": [-1.6869151224516048e+00, -3.5842450052290431e-01, -1.1282875921693927e+00, 0.0, 0.0, 0.0, 0.0, 0.0, 0.0], 
            "evaluate_basis_derivatives_3_2": [0.0, 0.0, 0.0, 0.0, 0.0, 0.0, 0.0, 0.0, 0.0, 0.0, 0.0, 0.0, 0.0, 0.0, 0.0, 0.0, 0.0, 0.0, 0.0, 0.0, 0.0, 0.0, 0.0, 0.0, 0.0, 0.0, 0.0], 
            "evaluate_basis_derivatives_4_0": [0.0, 6.5138066282759177e-01, 0.0], 
            "evaluate_basis_derivatives_4_1": [0.0, 0.0, 0.0, 8.1421051112794429e-01, -2.1238951557882415e+00, 4.8733859461364548e-01, 0.0, 0.0, 0.0], 
            "evaluate_basis_derivatives_4_2": [0.0, 0.0, 0.0, 0.0, 0.0, 0.0, 0.0, 0.0, 0.0, 0.0, 0.0, 0.0, 0.0, 0.0, 0.0, 0.0, 0.0, 0.0, 0.0, 0.0, 0.0, 0.0, 0.0, 0.0, 0.0, 0.0, 0.0], 
            "evaluate_basis_derivatives_5_0": [0.0, -1.6643198169361997e+00, 0.0], 
            "evaluate_basis_derivatives_5_1": [0.0, 0.0, 0.0, 9.1338256307038557e-01, 1.1457416830848857e+00, 2.1922630297147019e+00, 0.0, 0.0, 0.0], 
            "evaluate_basis_derivatives_5_2": [0.0, 0.0, 0.0, 0.0, 0.0, 0.0, 0.0, 0.0, 0.0, 0.0, 0.0, 0.0, 0.0, 0.0, 0.0, 0.0, 0.0, 0.0, 0.0, 0.0, 0.0, 0.0, 0.0, 0.0, 0.0, 0.0, 0.0], 
            "evaluate_basis_derivatives_6_0": [0.0, 1.1330457769257019e-01, 0.0], 
            "evaluate_basis_derivatives_6_1": [0.0, 0.0, 0.0, -4.0677945777071893e-02, 1.3365779106852225e+00, -1.5513139558714450e+00, 0.0, 0.0, 0.0], 
            "evaluate_basis_derivatives_6_2": [0.0, 0.0, 0.0, 0.0, 0.0, 0.0, 0.0, 0.0, 0.0, 0.0, 0.0, 0.0, 0.0, 0.0, 0.0, 0.0, 0.0, 0.0, 0.0, 0.0, 0.0, 0.0, 0.0, 0.0, 0.0, 0.0, 0.0], 
            "evaluate_basis_derivatives_7_0": [0.0, 1.8996345630323292e+00, 0.0], 
            "evaluate_basis_derivatives_7_1": [0.0, 0.0, 0.0, -1.6869151224516048e+00, -3.5842450052290431e-01, -1.1282875921693927e+00, 0.0, 0.0, 0.0], 
            "evaluate_basis_derivatives_7_2": [0.0, 0.0, 0.0, 0.0, 0.0, 0.0, 0.0, 0.0, 0.0, 0.0, 0.0, 0.0, 0.0, 0.0, 0.0, 0.0, 0.0, 0.0, 0.0, 0.0, 0.0, 0.0, 0.0, 0.0, 0.0, 0.0, 0.0], 
            "evaluate_basis_derivatives_8_0": [0.0, 0.0, 6.5138066282759177e-01], 
            "evaluate_basis_derivatives_8_1": [0.0, 0.0, 0.0, 0.0, 0.0, 0.0, 8.1421051112794429e-01, -2.1238951557882415e+00, 4.8733859461364548e-01], 
            "evaluate_basis_derivatives_8_2": [0.0, 0.0, 0.0, 0.0, 0.0, 0.0, 0.0, 0.0, 0.0, 0.0, 0.0, 0.0, 0.0, 0.0, 0.0, 0.0, 0.0, 0.0, 0.0, 0.0, 0.0, 0.0, 0.0, 0.0, 0.0, 0.0, 0.0], 
            "evaluate_basis_derivatives_9_0": [0.0, 0.0, -1.6643198169361997e+00], 
            "evaluate_basis_derivatives_9_1": [0.0, 0.0, 0.0, 0.0, 0.0, 0.0, 9.1338256307038557e-01, 1.1457416830848857e+00, 2.1922630297147019e+00], 
            "evaluate_basis_derivatives_9_2": [0.0, 0.0, 0.0, 0.0, 0.0, 0.0, 0.0, 0.0, 0.0, 0.0, 0.0, 0.0, 0.0, 0.0, 0.0, 0.0, 0.0, 0.0, 0.0, 0.0, 0.0, 0.0, 0.0, 0.0, 0.0, 0.0, 0.0], 
            "evaluate_basis_derivatives_10_0": [0.0, 0.0, 1.1330457769257019e-01], 
            "evaluate_basis_derivatives_10_1": [0.0, 0.0, 0.0, 0.0, 0.0, 0.0, -4.0677945777071893e-02, 1.3365779106852225e+00, -1.5513139558714450e+00], 
            "evaluate_basis_derivatives_10_2": [0.0, 0.0, 0.0, 0.0, 0.0, 0.0, 0.0, 0.0, 0.0, 0.0, 0.0, 0.0, 0.0, 0.0, 0.0, 0.0, 0.0, 0.0, 0.0, 0.0, 0.0, 0.0, 0.0, 0.0, 0.0, 0.0, 0.0], 
            "evaluate_basis_derivatives_11_0": [0.0, 0.0, 1.8996345630323292e+00], 
            "evaluate_basis_derivatives_11_1": [0.0, 0.0, 0.0, 0.0, 0.0, 0.0, -1.6869151224516048e+00, -3.5842450052290431e-01, -1.1282875921693927e+00], 
            "evaluate_basis_derivatives_11_2": [0.0, 0.0, 0.0, 0.0, 0.0, 0.0, 0.0, 0.0, 0.0, 0.0, 0.0, 0.0, 0.0, 0.0, 0.0, 0.0, 0.0, 0.0, 0.0, 0.0, 0.0, 0.0, 0.0, 0.0, 0.0, 0.0, 0.0], 
            "evaluate_basis_derivatives_all_0": [6.5138066282759177e-01, 0.0, 0.0, -1.6643198169361997e+00, 0.0, 0.0, 1.1330457769257019e-01, 0.0, 0.0, 1.8996345630323292e+00, 0.0, 0.0, 0.0, 6.5138066282759177e-01, 0.0, 0.0, -1.6643198169361997e+00, 0.0, 0.0, 1.1330457769257019e-01, 0.0, 0.0, 1.8996345630323292e+00, 0.0, 0.0, 0.0, 6.5138066282759177e-01, 0.0, 0.0, -1.6643198169361997e+00, 0.0, 0.0, 1.1330457769257019e-01, 0.0, 0.0, 1.8996345630323292e+00], 
            "evaluate_basis_derivatives_all_1": [8.1421051112794429e-01, -2.1238951557882415e+00, 4.8733859461364548e-01, 0.0, 0.0, 0.0, 0.0, 0.0, 0.0, 9.1338256307038557e-01, 1.1457416830848857e+00, 2.1922630297147019e+00, 0.0, 0.0, 0.0, 0.0, 0.0, 0.0, -4.0677945777071893e-02, 1.3365779106852225e+00, -1.5513139558714450e+00, 0.0, 0.0, 0.0, 0.0, 0.0, 0.0, -1.6869151224516048e+00, -3.5842450052290431e-01, -1.1282875921693927e+00, 0.0, 0.0, 0.0, 0.0, 0.0, 0.0, 0.0, 0.0, 0.0, 8.1421051112794429e-01, -2.1238951557882415e+00, 4.8733859461364548e-01, 0.0, 0.0, 0.0, 0.0, 0.0, 0.0, 9.1338256307038557e-01, 1.1457416830848857e+00, 2.1922630297147019e+00, 0.0, 0.0, 0.0, 0.0, 0.0, 0.0, -4.0677945777071893e-02, 1.3365779106852225e+00, -1.5513139558714450e+00, 0.0, 0.0, 0.0, 0.0, 0.0, 0.0, -1.6869151224516048e+00, -3.5842450052290431e-01, -1.1282875921693927e+00, 0.0, 0.0, 0.0, 0.0, 0.0, 0.0, 0.0, 0.0, 0.0, 8.1421051112794429e-01, -2.1238951557882415e+00, 4.8733859461364548e-01, 0.0, 0.0, 0.0, 0.0, 0.0, 0.0, 9.1338256307038557e-01, 1.1457416830848857e+00, 2.1922630297147019e+00, 0.0, 0.0, 0.0, 0.0, 0.0, 0.0, -4.0677945777071893e-02, 1.3365779106852225e+00, -1.5513139558714450e+00, 0.0, 0.0, 0.0, 0.0, 0.0, 0.0, -1.6869151224516048e+00, -3.5842450052290431e-01, -1.1282875921693927e+00], 
            "evaluate_basis_derivatives_all_2": [0.0, 0.0, 0.0, 0.0, 0.0, 0.0, 0.0, 0.0, 0.0, 0.0, 0.0, 0.0, 0.0, 0.0, 0.0, 0.0, 0.0, 0.0, 0.0, 0.0, 0.0, 0.0, 0.0, 0.0, 0.0, 0.0, 0.0, 0.0, 0.0, 0.0, 0.0, 0.0, 0.0, 0.0, 0.0, 0.0, 0.0, 0.0, 0.0, 0.0, 0.0, 0.0, 0.0, 0.0, 0.0, 0.0, 0.0, 0.0, 0.0, 0.0, 0.0, 0.0, 0.0, 0.0, 0.0, 0.0, 0.0, 0.0, 0.0, 0.0, 0.0, 0.0, 0.0, 0.0, 0.0, 0.0, 0.0, 0.0, 0.0, 0.0, 0.0, 0.0, 0.0, 0.0, 0.0, 0.0, 0.0, 0.0, 0.0, 0.0, 0.0, 0.0, 0.0, 0.0, 0.0, 0.0, 0.0, 0.0, 0.0, 0.0, 0.0, 0.0, 0.0, 0.0, 0.0, 0.0, 0.0, 0.0, 0.0, 0.0, 0.0, 0.0, 0.0, 0.0, 0.0, 0.0, 0.0, 0.0, 0.0, 0.0, 0.0, 0.0, 0.0, 0.0, 0.0, 0.0, 0.0, 0.0, 0.0, 0.0, 0.0, 0.0, 0.0, 0.0, 0.0, 0.0, 0.0, 0.0, 0.0, 0.0, 0.0, 0.0, 0.0, 0.0, 0.0, 0.0, 0.0, 0.0, 0.0, 0.0, 0.0, 0.0, 0.0, 0.0, 0.0, 0.0, 0.0, 0.0, 0.0, 0.0, 0.0, 0.0, 0.0, 0.0, 0.0, 0.0, 0.0, 0.0, 0.0, 0.0, 0.0, 0.0, 0.0, 0.0, 0.0, 0.0, 0.0, 0.0, 0.0, 0.0, 0.0, 0.0, 0.0, 0.0, 0.0, 0.0, 0.0, 0.0, 0.0, 0.0, 0.0, 0.0, 0.0, 0.0, 0.0, 0.0, 0.0, 0.0, 0.0, 0.0, 0.0, 0.0, 0.0, 0.0, 0.0, 0.0, 0.0, 0.0, 0.0, 0.0, 0.0, 0.0, 0.0, 0.0, 0.0, 0.0, 0.0, 0.0, 0.0, 0.0, 0.0, 0.0, 0.0, 0.0, 0.0, 0.0, 0.0, 0.0, 0.0, 0.0, 0.0, 0.0, 0.0, 0.0, 0.0, 0.0, 0.0, 0.0, 0.0, 0.0, 0.0, 0.0, 0.0, 0.0, 0.0, 0.0, 0.0, 0.0, 0.0, 0.0, 0.0, 0.0, 0.0, 0.0, 0.0, 0.0, 0.0, 0.0, 0.0, 0.0, 0.0, 0.0, 0.0, 0.0, 0.0, 0.0, 0.0, 0.0, 0.0, 0.0, 0.0, 0.0, 0.0, 0.0, 0.0, 0.0, 0.0, 0.0, 0.0, 0.0, 0.0, 0.0, 0.0, 0.0, 0.0, 0.0, 0.0, 0.0, 0.0, 0.0, 0.0, 0.0, 0.0, 0.0, 0.0, 0.0, 0.0, 0.0, 0.0, 0.0, 0.0, 0.0, 0.0, 0.0, 0.0, 0.0, 0.0, 0.0, 0.0, 0.0, 0.0, 0.0, 0.0, 0.0, 0.0, 0.0, 0.0, 0.0, 0.0, 0.0, 0.0, 0.0, 0.0, 0.0, 0.0, 0.0, 0.0, 0.0, 0.0, 0.0, 0.0, 0.0, 0.0, 0.0], 
            "evaluate_dof_0": 1.4072081100000003e-01, 
            "evaluate_dof_1": 3.5842907099999999e-01, 
            "evaluate_dof_2": 1.4760881100000001e-01, 
            "evaluate_dof_3": 4.6025001000000010e-02, 
            "evaluate_dof_4": 1.1257664880000002e+00, 
            "evaluate_dof_5": 2.8674325679999999e+00, 
            "evaluate_dof_6": 1.1808704880000001e+00, 
            "evaluate_dof_7": 3.6820000800000008e-01, 
            "evaluate_dof_8": 3.7994618970000009e+00, 
            "evaluate_dof_9": 9.6775849170000008e+00, 
            "evaluate_dof_10": 3.9854378969999997e+00, 
            "evaluate_dof_11": 1.2426750270000004e+00, 
            "evaluate_dofs": [1.4072081100000003e-01, 3.5842907099999999e-01, 1.4760881100000001e-01, 4.6025001000000010e-02, 1.1257664880000002e+00, 2.8674325679999999e+00, 1.1808704880000001e+00, 3.6820000800000008e-01, 3.7994618970000009e+00, 9.6775849170000008e+00, 3.9854378969999997e+00, 1.2426750270000004e+00], 
            "interpolate_vertex_values": [1.4072081100000003e-01, 1.1257664880000002e+00, 3.7994618970000009e+00, 3.5842907099999999e-01, 2.8674325679999999e+00, 9.6775849170000008e+00, 1.4760881100000001e-01, 1.1808704880000001e+00, 3.9854378969999997e+00, 4.6025001000000010e-02, 3.6820000800000008e-01, 1.2426750270000004e+00], 
            "num_sub_elements": 3, 
            "finite_element_0": {
                "cell_shape": 3, 
                "space_dimension": 4, 
                "value_rank": 0, 
                "evaluate_basis:_0": [6.5138066282759177e-01], 
                "evaluate_basis:_1": [-1.6643198169361997e+00], 
                "evaluate_basis:_2": [1.1330457769257019e-01], 
                "evaluate_basis:_3": [1.8996345630323292e+00], 
                "evaluate_basis_all": [6.5138066282759177e-01, -1.6643198169361997e+00, 1.1330457769257019e-01, 1.8996345630323292e+00], 
                "evaluate_basis_derivatives_0_0": [6.5138066282759177e-01], 
                "evaluate_basis_derivatives_0_1": [8.1421051112794429e-01, -2.1238951557882415e+00, 4.8733859461364548e-01], 
                "evaluate_basis_derivatives_0_2": [0.0, 0.0, 0.0, 0.0, 0.0, 0.0, 0.0, 0.0, 0.0], 
                "evaluate_basis_derivatives_1_0": [-1.6643198169361997e+00], 
                "evaluate_basis_derivatives_1_1": [9.1338256307038557e-01, 1.1457416830848857e+00, 2.1922630297147019e+00], 
                "evaluate_basis_derivatives_1_2": [0.0, 0.0, 0.0, 0.0, 0.0, 0.0, 0.0, 0.0, 0.0], 
                "evaluate_basis_derivatives_2_0": [1.1330457769257019e-01], 
                "evaluate_basis_derivatives_2_1": [-4.0677945777071893e-02, 1.3365779106852225e+00, -1.5513139558714450e+00], 
                "evaluate_basis_derivatives_2_2": [0.0, 0.0, 0.0, 0.0, 0.0, 0.0, 0.0, 0.0, 0.0], 
                "evaluate_basis_derivatives_3_0": [1.8996345630323292e+00], 
                "evaluate_basis_derivatives_3_1": [-1.6869151224516048e+00, -3.5842450052290431e-01, -1.1282875921693927e+00], 
                "evaluate_basis_derivatives_3_2": [0.0, 0.0, 0.0, 0.0, 0.0, 0.0, 0.0, 0.0, 0.0], 
                "evaluate_basis_derivatives_all_0": [6.5138066282759177e-01, -1.6643198169361997e+00, 1.1330457769257019e-01, 1.8996345630323292e+00], 
                "evaluate_basis_derivatives_all_1": [8.1421051112794429e-01, -2.1238951557882415e+00, 4.8733859461364548e-01, 9.1338256307038557e-01, 1.1457416830848857e+00, 2.1922630297147019e+00, -4.0677945777071893e-02, 1.3365779106852225e+00, -1.5513139558714450e+00, -1.6869151224516048e+00, -3.5842450052290431e-01, -1.1282875921693927e+00], 
                "evaluate_basis_derivatives_all_2": [0.0, 0.0, 0.0, 0.0, 0.0, 0.0, 0.0, 0.0, 0.0, 0.0, 0.0, 0.0, 0.0, 0.0, 0.0, 0.0, 0.0, 0.0, 0.0, 0.0, 0.0, 0.0, 0.0, 0.0, 0.0, 0.0, 0.0, 0.0, 0.0, 0.0, 0.0, 0.0, 0.0, 0.0, 0.0, 0.0], 
                "evaluate_dof_0": 1.4072081100000003e-01, 
                "evaluate_dof_1": 3.5842907099999999e-01, 
                "evaluate_dof_2": 1.4760881100000001e-01, 
                "evaluate_dof_3": 4.6025001000000010e-02, 
                "evaluate_dofs": [1.4072081100000003e-01, 3.5842907099999999e-01, 1.4760881100000001e-01, 4.6025001000000010e-02], 
                "interpolate_vertex_values": [1.4072081100000003e-01, 3.5842907099999999e-01, 1.4760881100000001e-01, 4.6025001000000010e-02], 
                "num_sub_elements": 0, 
            },
            "finite_element_1": {
                "cell_shape": 3, 
                "space_dimension": 4, 
                "value_rank": 0, 
                "evaluate_basis:_0": [6.5138066282759177e-01], 
                "evaluate_basis:_1": [-1.6643198169361997e+00], 
                "evaluate_basis:_2": [1.1330457769257019e-01], 
                "evaluate_basis:_3": [1.8996345630323292e+00], 
                "evaluate_basis_all": [6.5138066282759177e-01, -1.6643198169361997e+00, 1.1330457769257019e-01, 1.8996345630323292e+00], 
                "evaluate_basis_derivatives_0_0": [6.5138066282759177e-01], 
                "evaluate_basis_derivatives_0_1": [8.1421051112794429e-01, -2.1238951557882415e+00, 4.8733859461364548e-01], 
                "evaluate_basis_derivatives_0_2": [0.0, 0.0, 0.0, 0.0, 0.0, 0.0, 0.0, 0.0, 0.0], 
                "evaluate_basis_derivatives_1_0": [-1.6643198169361997e+00], 
                "evaluate_basis_derivatives_1_1": [9.1338256307038557e-01, 1.1457416830848857e+00, 2.1922630297147019e+00], 
                "evaluate_basis_derivatives_1_2": [0.0, 0.0, 0.0, 0.0, 0.0, 0.0, 0.0, 0.0, 0.0], 
                "evaluate_basis_derivatives_2_0": [1.1330457769257019e-01], 
                "evaluate_basis_derivatives_2_1": [-4.0677945777071893e-02, 1.3365779106852225e+00, -1.5513139558714450e+00], 
                "evaluate_basis_derivatives_2_2": [0.0, 0.0, 0.0, 0.0, 0.0, 0.0, 0.0, 0.0, 0.0], 
                "evaluate_basis_derivatives_3_0": [1.8996345630323292e+00], 
                "evaluate_basis_derivatives_3_1": [-1.6869151224516048e+00, -3.5842450052290431e-01, -1.1282875921693927e+00], 
                "evaluate_basis_derivatives_3_2": [0.0, 0.0, 0.0, 0.0, 0.0, 0.0, 0.0, 0.0, 0.0], 
                "evaluate_basis_derivatives_all_0": [6.5138066282759177e-01, -1.6643198169361997e+00, 1.1330457769257019e-01, 1.8996345630323292e+00], 
                "evaluate_basis_derivatives_all_1": [8.1421051112794429e-01, -2.1238951557882415e+00, 4.8733859461364548e-01, 9.1338256307038557e-01, 1.1457416830848857e+00, 2.1922630297147019e+00, -4.0677945777071893e-02, 1.3365779106852225e+00, -1.5513139558714450e+00, -1.6869151224516048e+00, -3.5842450052290431e-01, -1.1282875921693927e+00], 
                "evaluate_basis_derivatives_all_2": [0.0, 0.0, 0.0, 0.0, 0.0, 0.0, 0.0, 0.0, 0.0, 0.0, 0.0, 0.0, 0.0, 0.0, 0.0, 0.0, 0.0, 0.0, 0.0, 0.0, 0.0, 0.0, 0.0, 0.0, 0.0, 0.0, 0.0, 0.0, 0.0, 0.0, 0.0, 0.0, 0.0, 0.0, 0.0, 0.0], 
                "evaluate_dof_0": 1.4072081100000003e-01, 
                "evaluate_dof_1": 3.5842907099999999e-01, 
                "evaluate_dof_2": 1.4760881100000001e-01, 
                "evaluate_dof_3": 4.6025001000000010e-02, 
                "evaluate_dofs": [1.4072081100000003e-01, 3.5842907099999999e-01, 1.4760881100000001e-01, 4.6025001000000010e-02], 
                "interpolate_vertex_values": [1.4072081100000003e-01, 3.5842907099999999e-01, 1.4760881100000001e-01, 4.6025001000000010e-02], 
                "num_sub_elements": 0, 
            },
            "finite_element_2": {
                "cell_shape": 3, 
                "space_dimension": 4, 
                "value_rank": 0, 
                "evaluate_basis:_0": [6.5138066282759177e-01], 
                "evaluate_basis:_1": [-1.6643198169361997e+00], 
                "evaluate_basis:_2": [1.1330457769257019e-01], 
                "evaluate_basis:_3": [1.8996345630323292e+00], 
                "evaluate_basis_all": [6.5138066282759177e-01, -1.6643198169361997e+00, 1.1330457769257019e-01, 1.8996345630323292e+00], 
                "evaluate_basis_derivatives_0_0": [6.5138066282759177e-01], 
                "evaluate_basis_derivatives_0_1": [8.1421051112794429e-01, -2.1238951557882415e+00, 4.8733859461364548e-01], 
                "evaluate_basis_derivatives_0_2": [0.0, 0.0, 0.0, 0.0, 0.0, 0.0, 0.0, 0.0, 0.0], 
                "evaluate_basis_derivatives_1_0": [-1.6643198169361997e+00], 
                "evaluate_basis_derivatives_1_1": [9.1338256307038557e-01, 1.1457416830848857e+00, 2.1922630297147019e+00], 
                "evaluate_basis_derivatives_1_2": [0.0, 0.0, 0.0, 0.0, 0.0, 0.0, 0.0, 0.0, 0.0], 
                "evaluate_basis_derivatives_2_0": [1.1330457769257019e-01], 
                "evaluate_basis_derivatives_2_1": [-4.0677945777071893e-02, 1.3365779106852225e+00, -1.5513139558714450e+00], 
                "evaluate_basis_derivatives_2_2": [0.0, 0.0, 0.0, 0.0, 0.0, 0.0, 0.0, 0.0, 0.0], 
                "evaluate_basis_derivatives_3_0": [1.8996345630323292e+00], 
                "evaluate_basis_derivatives_3_1": [-1.6869151224516048e+00, -3.5842450052290431e-01, -1.1282875921693927e+00], 
                "evaluate_basis_derivatives_3_2": [0.0, 0.0, 0.0, 0.0, 0.0, 0.0, 0.0, 0.0, 0.0], 
                "evaluate_basis_derivatives_all_0": [6.5138066282759177e-01, -1.6643198169361997e+00, 1.1330457769257019e-01, 1.8996345630323292e+00], 
                "evaluate_basis_derivatives_all_1": [8.1421051112794429e-01, -2.1238951557882415e+00, 4.8733859461364548e-01, 9.1338256307038557e-01, 1.1457416830848857e+00, 2.1922630297147019e+00, -4.0677945777071893e-02, 1.3365779106852225e+00, -1.5513139558714450e+00, -1.6869151224516048e+00, -3.5842450052290431e-01, -1.1282875921693927e+00], 
                "evaluate_basis_derivatives_all_2": [0.0, 0.0, 0.0, 0.0, 0.0, 0.0, 0.0, 0.0, 0.0, 0.0, 0.0, 0.0, 0.0, 0.0, 0.0, 0.0, 0.0, 0.0, 0.0, 0.0, 0.0, 0.0, 0.0, 0.0, 0.0, 0.0, 0.0, 0.0, 0.0, 0.0, 0.0, 0.0, 0.0, 0.0, 0.0, 0.0], 
                "evaluate_dof_0": 1.4072081100000003e-01, 
                "evaluate_dof_1": 3.5842907099999999e-01, 
                "evaluate_dof_2": 1.4760881100000001e-01, 
                "evaluate_dof_3": 4.6025001000000010e-02, 
                "evaluate_dofs": [1.4072081100000003e-01, 3.5842907099999999e-01, 1.4760881100000001e-01, 4.6025001000000010e-02], 
                "interpolate_vertex_values": [1.4072081100000003e-01, 3.5842907099999999e-01, 1.4760881100000001e-01, 4.6025001000000010e-02], 
                "num_sub_elements": 0, 
            },
        },
        "dofmap_0": {
            "needs_mesh_entities_0": 1, 
            "needs_mesh_entities_1": 0, 
            "needs_mesh_entities_2": 0, 
            "needs_mesh_entities_3": 0, 
            "global_dimension": 30003, 
            "local_dimension": 12, 
            "geometric_dimension": 3, 
            "num_facet_dofs": 9, 
            "num_entity_dofs_0": 3, 
            "num_entity_dofs_1": 0, 
            "num_entity_dofs_2": 0, 
            "num_entity_dofs_3": 0, 
            "tabulate_dofs": [0, 0, 0, 0, 10001, 10001, 10001, 10001, 20002, 20002, 20002, 20002], 
            "tabulate_facet_dofs_0": [1, 2, 3, 5, 6, 7, 9, 10, 11], 
            "tabulate_facet_dofs_1": [0, 2, 3, 4, 6, 7, 8, 10, 11], 
            "tabulate_facet_dofs_2": [0, 1, 3, 4, 5, 7, 8, 9, 11], 
            "tabulate_facet_dofs_3": [0, 1, 2, 4, 5, 6, 8, 9, 10], 
            "tabulate_entity_dofs_0_0": [0, 4, 8], 
            "tabulate_entity_dofs_0_1": [1, 5, 9], 
            "tabulate_entity_dofs_0_2": [2, 6, 10], 
            "tabulate_entity_dofs_0_3": [3, 7, 11], 
            "tabulate_entity_dofs_1_0": [], 
            "tabulate_entity_dofs_1_1": [], 
            "tabulate_entity_dofs_1_2": [], 
            "tabulate_entity_dofs_1_3": [], 
            "tabulate_entity_dofs_1_4": [], 
            "tabulate_entity_dofs_1_5": [], 
            "tabulate_entity_dofs_2_0": [], 
            "tabulate_entity_dofs_2_1": [], 
            "tabulate_entity_dofs_2_2": [], 
            "tabulate_entity_dofs_2_3": [], 
            "tabulate_entity_dofs_3_0": [], 
            "tabulate_coordinates_0": [9.0300000000000002e-01, 3.4100000000000003e-01, 4.5700000000000002e-01], 
            "tabulate_coordinates_1": [5.6100000000000005e-01, 7.6700000000000002e-01, 8.3299999999999996e-01], 
            "tabulate_coordinates_2": [9.8699999999999999e-01, 7.8300000000000003e-01, 1.9100000000000000e-01], 
            "tabulate_coordinates_3": [1.2300000000000000e-01, 5.6100000000000005e-01, 6.6700000000000004e-01], 
            "tabulate_coordinates_4": [9.0300000000000002e-01, 3.4100000000000003e-01, 4.5700000000000002e-01], 
            "tabulate_coordinates_5": [5.6100000000000005e-01, 7.6700000000000002e-01, 8.3299999999999996e-01], 
            "tabulate_coordinates_6": [9.8699999999999999e-01, 7.8300000000000003e-01, 1.9100000000000000e-01], 
            "tabulate_coordinates_7": [1.2300000000000000e-01, 5.6100000000000005e-01, 6.6700000000000004e-01], 
            "tabulate_coordinates_8": [9.0300000000000002e-01, 3.4100000000000003e-01, 4.5700000000000002e-01], 
            "tabulate_coordinates_9": [5.6100000000000005e-01, 7.6700000000000002e-01, 8.3299999999999996e-01], 
            "tabulate_coordinates_10": [9.8699999999999999e-01, 7.8300000000000003e-01, 1.9100000000000000e-01], 
            "tabulate_coordinates_11": [1.2300000000000000e-01, 5.6100000000000005e-01, 6.6700000000000004e-01], 
            "num_sub_dofmaps": 3, 
            "dofmap_0": {
                "needs_mesh_entities_0": 1, 
                "needs_mesh_entities_1": 0, 
                "needs_mesh_entities_2": 0, 
                "needs_mesh_entities_3": 0, 
                "global_dimension": 10001, 
                "local_dimension": 4, 
                "geometric_dimension": 3, 
                "num_facet_dofs": 3, 
                "num_entity_dofs_0": 1, 
                "num_entity_dofs_1": 0, 
                "num_entity_dofs_2": 0, 
                "num_entity_dofs_3": 0, 
                "tabulate_dofs": [0, 0, 0, 0], 
                "tabulate_facet_dofs_0": [1, 2, 3], 
                "tabulate_facet_dofs_1": [0, 2, 3], 
                "tabulate_facet_dofs_2": [0, 1, 3], 
                "tabulate_facet_dofs_3": [0, 1, 2], 
                "tabulate_entity_dofs_0_0": [0], 
                "tabulate_entity_dofs_0_1": [1], 
                "tabulate_entity_dofs_0_2": [2], 
                "tabulate_entity_dofs_0_3": [3], 
                "tabulate_entity_dofs_1_0": [], 
                "tabulate_entity_dofs_1_1": [], 
                "tabulate_entity_dofs_1_2": [], 
                "tabulate_entity_dofs_1_3": [], 
                "tabulate_entity_dofs_1_4": [], 
                "tabulate_entity_dofs_1_5": [], 
                "tabulate_entity_dofs_2_0": [], 
                "tabulate_entity_dofs_2_1": [], 
                "tabulate_entity_dofs_2_2": [], 
                "tabulate_entity_dofs_2_3": [], 
                "tabulate_entity_dofs_3_0": [], 
                "tabulate_coordinates_0": [9.0300000000000002e-01, 3.4100000000000003e-01, 4.5700000000000002e-01], 
                "tabulate_coordinates_1": [5.6100000000000005e-01, 7.6700000000000002e-01, 8.3299999999999996e-01], 
                "tabulate_coordinates_2": [9.8699999999999999e-01, 7.8300000000000003e-01, 1.9100000000000000e-01], 
                "tabulate_coordinates_3": [1.2300000000000000e-01, 5.6100000000000005e-01, 6.6700000000000004e-01], 
                "num_sub_dofmaps": 0, 
            },
            "dofmap_1": {
                "needs_mesh_entities_0": 1, 
                "needs_mesh_entities_1": 0, 
                "needs_mesh_entities_2": 0, 
                "needs_mesh_entities_3": 0, 
                "global_dimension": 10001, 
                "local_dimension": 4, 
                "geometric_dimension": 3, 
                "num_facet_dofs": 3, 
                "num_entity_dofs_0": 1, 
                "num_entity_dofs_1": 0, 
                "num_entity_dofs_2": 0, 
                "num_entity_dofs_3": 0, 
                "tabulate_dofs": [0, 0, 0, 0], 
                "tabulate_facet_dofs_0": [1, 2, 3], 
                "tabulate_facet_dofs_1": [0, 2, 3], 
                "tabulate_facet_dofs_2": [0, 1, 3], 
                "tabulate_facet_dofs_3": [0, 1, 2], 
                "tabulate_entity_dofs_0_0": [0], 
                "tabulate_entity_dofs_0_1": [1], 
                "tabulate_entity_dofs_0_2": [2], 
                "tabulate_entity_dofs_0_3": [3], 
                "tabulate_entity_dofs_1_0": [], 
                "tabulate_entity_dofs_1_1": [], 
                "tabulate_entity_dofs_1_2": [], 
                "tabulate_entity_dofs_1_3": [], 
                "tabulate_entity_dofs_1_4": [], 
                "tabulate_entity_dofs_1_5": [], 
                "tabulate_entity_dofs_2_0": [], 
                "tabulate_entity_dofs_2_1": [], 
                "tabulate_entity_dofs_2_2": [], 
                "tabulate_entity_dofs_2_3": [], 
                "tabulate_entity_dofs_3_0": [], 
                "tabulate_coordinates_0": [9.0300000000000002e-01, 3.4100000000000003e-01, 4.5700000000000002e-01], 
                "tabulate_coordinates_1": [5.6100000000000005e-01, 7.6700000000000002e-01, 8.3299999999999996e-01], 
                "tabulate_coordinates_2": [9.8699999999999999e-01, 7.8300000000000003e-01, 1.9100000000000000e-01], 
                "tabulate_coordinates_3": [1.2300000000000000e-01, 5.6100000000000005e-01, 6.6700000000000004e-01], 
                "num_sub_dofmaps": 0, 
            },
            "dofmap_2": {
                "needs_mesh_entities_0": 1, 
                "needs_mesh_entities_1": 0, 
                "needs_mesh_entities_2": 0, 
                "needs_mesh_entities_3": 0, 
                "global_dimension": 10001, 
                "local_dimension": 4, 
                "geometric_dimension": 3, 
                "num_facet_dofs": 3, 
                "num_entity_dofs_0": 1, 
                "num_entity_dofs_1": 0, 
                "num_entity_dofs_2": 0, 
                "num_entity_dofs_3": 0, 
                "tabulate_dofs": [0, 0, 0, 0], 
                "tabulate_facet_dofs_0": [1, 2, 3], 
                "tabulate_facet_dofs_1": [0, 2, 3], 
                "tabulate_facet_dofs_2": [0, 1, 3], 
                "tabulate_facet_dofs_3": [0, 1, 2], 
                "tabulate_entity_dofs_0_0": [0], 
                "tabulate_entity_dofs_0_1": [1], 
                "tabulate_entity_dofs_0_2": [2], 
                "tabulate_entity_dofs_0_3": [3], 
                "tabulate_entity_dofs_1_0": [], 
                "tabulate_entity_dofs_1_1": [], 
                "tabulate_entity_dofs_1_2": [], 
                "tabulate_entity_dofs_1_3": [], 
                "tabulate_entity_dofs_1_4": [], 
                "tabulate_entity_dofs_1_5": [], 
                "tabulate_entity_dofs_2_0": [], 
                "tabulate_entity_dofs_2_1": [], 
                "tabulate_entity_dofs_2_2": [], 
                "tabulate_entity_dofs_2_3": [], 
                "tabulate_entity_dofs_3_0": [], 
                "tabulate_coordinates_0": [9.0300000000000002e-01, 3.4100000000000003e-01, 4.5700000000000002e-01], 
                "tabulate_coordinates_1": [5.6100000000000005e-01, 7.6700000000000002e-01, 8.3299999999999996e-01], 
                "tabulate_coordinates_2": [9.8699999999999999e-01, 7.8300000000000003e-01, 1.9100000000000000e-01], 
                "tabulate_coordinates_3": [1.2300000000000000e-01, 5.6100000000000005e-01, 6.6700000000000004e-01], 
                "num_sub_dofmaps": 0, 
            },
        },
        "dofmap_1": {
            "needs_mesh_entities_0": 1, 
            "needs_mesh_entities_1": 0, 
            "needs_mesh_entities_2": 0, 
            "needs_mesh_entities_3": 0, 
            "global_dimension": 30003, 
            "local_dimension": 12, 
            "geometric_dimension": 3, 
            "num_facet_dofs": 9, 
            "num_entity_dofs_0": 3, 
            "num_entity_dofs_1": 0, 
            "num_entity_dofs_2": 0, 
            "num_entity_dofs_3": 0, 
            "tabulate_dofs": [0, 0, 0, 0, 10001, 10001, 10001, 10001, 20002, 20002, 20002, 20002], 
            "tabulate_facet_dofs_0": [1, 2, 3, 5, 6, 7, 9, 10, 11], 
            "tabulate_facet_dofs_1": [0, 2, 3, 4, 6, 7, 8, 10, 11], 
            "tabulate_facet_dofs_2": [0, 1, 3, 4, 5, 7, 8, 9, 11], 
            "tabulate_facet_dofs_3": [0, 1, 2, 4, 5, 6, 8, 9, 10], 
            "tabulate_entity_dofs_0_0": [0, 4, 8], 
            "tabulate_entity_dofs_0_1": [1, 5, 9], 
            "tabulate_entity_dofs_0_2": [2, 6, 10], 
            "tabulate_entity_dofs_0_3": [3, 7, 11], 
            "tabulate_entity_dofs_1_0": [], 
            "tabulate_entity_dofs_1_1": [], 
            "tabulate_entity_dofs_1_2": [], 
            "tabulate_entity_dofs_1_3": [], 
            "tabulate_entity_dofs_1_4": [], 
            "tabulate_entity_dofs_1_5": [], 
            "tabulate_entity_dofs_2_0": [], 
            "tabulate_entity_dofs_2_1": [], 
            "tabulate_entity_dofs_2_2": [], 
            "tabulate_entity_dofs_2_3": [], 
            "tabulate_entity_dofs_3_0": [], 
            "tabulate_coordinates_0": [9.0300000000000002e-01, 3.4100000000000003e-01, 4.5700000000000002e-01], 
            "tabulate_coordinates_1": [5.6100000000000005e-01, 7.6700000000000002e-01, 8.3299999999999996e-01], 
            "tabulate_coordinates_2": [9.8699999999999999e-01, 7.8300000000000003e-01, 1.9100000000000000e-01], 
            "tabulate_coordinates_3": [1.2300000000000000e-01, 5.6100000000000005e-01, 6.6700000000000004e-01], 
            "tabulate_coordinates_4": [9.0300000000000002e-01, 3.4100000000000003e-01, 4.5700000000000002e-01], 
            "tabulate_coordinates_5": [5.6100000000000005e-01, 7.6700000000000002e-01, 8.3299999999999996e-01], 
            "tabulate_coordinates_6": [9.8699999999999999e-01, 7.8300000000000003e-01, 1.9100000000000000e-01], 
            "tabulate_coordinates_7": [1.2300000000000000e-01, 5.6100000000000005e-01, 6.6700000000000004e-01], 
            "tabulate_coordinates_8": [9.0300000000000002e-01, 3.4100000000000003e-01, 4.5700000000000002e-01], 
            "tabulate_coordinates_9": [5.6100000000000005e-01, 7.6700000000000002e-01, 8.3299999999999996e-01], 
            "tabulate_coordinates_10": [9.8699999999999999e-01, 7.8300000000000003e-01, 1.9100000000000000e-01], 
            "tabulate_coordinates_11": [1.2300000000000000e-01, 5.6100000000000005e-01, 6.6700000000000004e-01], 
            "num_sub_dofmaps": 3, 
            "dofmap_0": {
                "needs_mesh_entities_0": 1, 
                "needs_mesh_entities_1": 0, 
                "needs_mesh_entities_2": 0, 
                "needs_mesh_entities_3": 0, 
                "global_dimension": 10001, 
                "local_dimension": 4, 
                "geometric_dimension": 3, 
                "num_facet_dofs": 3, 
                "num_entity_dofs_0": 1, 
                "num_entity_dofs_1": 0, 
                "num_entity_dofs_2": 0, 
                "num_entity_dofs_3": 0, 
                "tabulate_dofs": [0, 0, 0, 0], 
                "tabulate_facet_dofs_0": [1, 2, 3], 
                "tabulate_facet_dofs_1": [0, 2, 3], 
                "tabulate_facet_dofs_2": [0, 1, 3], 
                "tabulate_facet_dofs_3": [0, 1, 2], 
                "tabulate_entity_dofs_0_0": [0], 
                "tabulate_entity_dofs_0_1": [1], 
                "tabulate_entity_dofs_0_2": [2], 
                "tabulate_entity_dofs_0_3": [3], 
                "tabulate_entity_dofs_1_0": [], 
                "tabulate_entity_dofs_1_1": [], 
                "tabulate_entity_dofs_1_2": [], 
                "tabulate_entity_dofs_1_3": [], 
                "tabulate_entity_dofs_1_4": [], 
                "tabulate_entity_dofs_1_5": [], 
                "tabulate_entity_dofs_2_0": [], 
                "tabulate_entity_dofs_2_1": [], 
                "tabulate_entity_dofs_2_2": [], 
                "tabulate_entity_dofs_2_3": [], 
                "tabulate_entity_dofs_3_0": [], 
                "tabulate_coordinates_0": [9.0300000000000002e-01, 3.4100000000000003e-01, 4.5700000000000002e-01], 
                "tabulate_coordinates_1": [5.6100000000000005e-01, 7.6700000000000002e-01, 8.3299999999999996e-01], 
                "tabulate_coordinates_2": [9.8699999999999999e-01, 7.8300000000000003e-01, 1.9100000000000000e-01], 
                "tabulate_coordinates_3": [1.2300000000000000e-01, 5.6100000000000005e-01, 6.6700000000000004e-01], 
                "num_sub_dofmaps": 0, 
            },
            "dofmap_1": {
                "needs_mesh_entities_0": 1, 
                "needs_mesh_entities_1": 0, 
                "needs_mesh_entities_2": 0, 
                "needs_mesh_entities_3": 0, 
                "global_dimension": 10001, 
                "local_dimension": 4, 
                "geometric_dimension": 3, 
                "num_facet_dofs": 3, 
                "num_entity_dofs_0": 1, 
                "num_entity_dofs_1": 0, 
                "num_entity_dofs_2": 0, 
                "num_entity_dofs_3": 0, 
                "tabulate_dofs": [0, 0, 0, 0], 
                "tabulate_facet_dofs_0": [1, 2, 3], 
                "tabulate_facet_dofs_1": [0, 2, 3], 
                "tabulate_facet_dofs_2": [0, 1, 3], 
                "tabulate_facet_dofs_3": [0, 1, 2], 
                "tabulate_entity_dofs_0_0": [0], 
                "tabulate_entity_dofs_0_1": [1], 
                "tabulate_entity_dofs_0_2": [2], 
                "tabulate_entity_dofs_0_3": [3], 
                "tabulate_entity_dofs_1_0": [], 
                "tabulate_entity_dofs_1_1": [], 
                "tabulate_entity_dofs_1_2": [], 
                "tabulate_entity_dofs_1_3": [], 
                "tabulate_entity_dofs_1_4": [], 
                "tabulate_entity_dofs_1_5": [], 
                "tabulate_entity_dofs_2_0": [], 
                "tabulate_entity_dofs_2_1": [], 
                "tabulate_entity_dofs_2_2": [], 
                "tabulate_entity_dofs_2_3": [], 
                "tabulate_entity_dofs_3_0": [], 
                "tabulate_coordinates_0": [9.0300000000000002e-01, 3.4100000000000003e-01, 4.5700000000000002e-01], 
                "tabulate_coordinates_1": [5.6100000000000005e-01, 7.6700000000000002e-01, 8.3299999999999996e-01], 
                "tabulate_coordinates_2": [9.8699999999999999e-01, 7.8300000000000003e-01, 1.9100000000000000e-01], 
                "tabulate_coordinates_3": [1.2300000000000000e-01, 5.6100000000000005e-01, 6.6700000000000004e-01], 
                "num_sub_dofmaps": 0, 
            },
            "dofmap_2": {
                "needs_mesh_entities_0": 1, 
                "needs_mesh_entities_1": 0, 
                "needs_mesh_entities_2": 0, 
                "needs_mesh_entities_3": 0, 
                "global_dimension": 10001, 
                "local_dimension": 4, 
                "geometric_dimension": 3, 
                "num_facet_dofs": 3, 
                "num_entity_dofs_0": 1, 
                "num_entity_dofs_1": 0, 
                "num_entity_dofs_2": 0, 
                "num_entity_dofs_3": 0, 
                "tabulate_dofs": [0, 0, 0, 0], 
                "tabulate_facet_dofs_0": [1, 2, 3], 
                "tabulate_facet_dofs_1": [0, 2, 3], 
                "tabulate_facet_dofs_2": [0, 1, 3], 
                "tabulate_facet_dofs_3": [0, 1, 2], 
                "tabulate_entity_dofs_0_0": [0], 
                "tabulate_entity_dofs_0_1": [1], 
                "tabulate_entity_dofs_0_2": [2], 
                "tabulate_entity_dofs_0_3": [3], 
                "tabulate_entity_dofs_1_0": [], 
                "tabulate_entity_dofs_1_1": [], 
                "tabulate_entity_dofs_1_2": [], 
                "tabulate_entity_dofs_1_3": [], 
                "tabulate_entity_dofs_1_4": [], 
                "tabulate_entity_dofs_1_5": [], 
                "tabulate_entity_dofs_2_0": [], 
                "tabulate_entity_dofs_2_1": [], 
                "tabulate_entity_dofs_2_2": [], 
                "tabulate_entity_dofs_2_3": [], 
                "tabulate_entity_dofs_3_0": [], 
                "tabulate_coordinates_0": [9.0300000000000002e-01, 3.4100000000000003e-01, 4.5700000000000002e-01], 
                "tabulate_coordinates_1": [5.6100000000000005e-01, 7.6700000000000002e-01, 8.3299999999999996e-01], 
                "tabulate_coordinates_2": [9.8699999999999999e-01, 7.8300000000000003e-01, 1.9100000000000000e-01], 
                "tabulate_coordinates_3": [1.2300000000000000e-01, 5.6100000000000005e-01, 6.6700000000000004e-01], 
                "num_sub_dofmaps": 0, 
            },
        },
        "default_cell_integral": 1, 
        "cell_integral": {
            "tabulate_tensor": [1.5188415079825891e-03, 1.6569180118659631e-03, 1.7949945157493372e-03, 1.9330710196327110e-03, 4.2803715300748293e-03, 4.4184480339582027e-03, 4.5565245378415770e-03, 4.6946010417249504e-03, 0.0, 0.0, 0.0, 0.0], 
        },
        "default_exterior_facet_integral": 0, 
        "default_interior_facet_integral": 0, 
        "default_point_integral": 0, 
    },
}
