{
    "form_0": {
        "num_coefficients": 0, 
        "has_cell_integrals": 1, 
        "has_exterior_facet_integrals": 0, 
        "has_interior_facet_integrals": 0, 
        "has_point_integrals": 0, 
        "num_cell_domains": 0, 
        "num_exterior_facet_domains": 0, 
        "num_interior_facet_domains": 0, 
        "num_point_domains": 0, 
        "finite_element_0": {
            "cell_shape": 1, 
            "space_dimension": 11, 
            "value_rank": 1, 
            "value_dimension_0": 3, 
            "evaluate_basis:_0": [1.4718852622922429e+00, 0.0, 0.0], 
            "evaluate_basis:_1": [2.0266705413493233e+00, 0.0, 0.0], 
            "evaluate_basis:_2": [-2.4985557203629258e+00, 0.0, 0.0], 
            "evaluate_basis:_3": [0.0, 1.4718852622922429e+00, 0.0], 
            "evaluate_basis:_4": [0.0, 2.0266705413493233e+00, 0.0], 
            "evaluate_basis:_5": [0.0, -2.4985557203629258e+00, 0.0], 
            "evaluate_basis:_6": [-2.0123796306119272e+02, 0.0, 0.0], 
            "evaluate_basis:_7": [0.0, -2.0123796306119272e+02, 0.0], 
            "evaluate_basis:_8": [0.0, 0.0, 1.4718852622922429e+00], 
            "evaluate_basis:_9": [0.0, 0.0, 2.0266705413493233e+00], 
            "evaluate_basis:_10": [0.0, 0.0, -2.4985557203629258e+00], 
            "evaluate_basis_all": [1.4718852622922429e+00, 0.0, 0.0, 2.0266705413493233e+00, 0.0, 0.0, -2.4985557203629258e+00, 0.0, 0.0, 0.0, 1.4718852622922429e+00, 0.0, 0.0, 2.0266705413493233e+00, 0.0, 0.0, -2.4985557203629258e+00, 0.0, -2.0123796306119272e+02, 0.0, 0.0, 0.0, -2.0123796306119272e+02, 0.0, 0.0, 0.0, 1.4718852622922429e+00, 0.0, 0.0, 2.0266705413493233e+00, 0.0, 0.0, -2.4985557203629258e+00], 
            "evaluate_basis_derivatives_0_0": [1.4718852622922429e+00, 0.0, 0.0], 
            "evaluate_basis_derivatives_0_1": [8.5585277568607676e-02, -2.2787085025842555e+00, 0.0, 0.0, 0.0, 0.0], 
            "evaluate_basis_derivatives_0_2": [0.0, 0.0, 0.0, 0.0, 0.0, 0.0, 0.0, 0.0, 0.0, 0.0, 0.0, 0.0], 
            "evaluate_basis_derivatives_1_0": [2.0266705413493233e+00, 0.0, 0.0], 
            "evaluate_basis_derivatives_1_1": [-2.3642938479375970e+00, 4.4932274890774304e-01, 0.0, 0.0, 0.0, 0.0], 
            "evaluate_basis_derivatives_1_2": [0.0, 0.0, 0.0, 0.0, 0.0, 0.0, 0.0, 0.0, 0.0, 0.0, 0.0, 0.0], 
            "evaluate_basis_derivatives_2_0": [-2.4985557203629258e+00, 0.0, 0.0], 
            "evaluate_basis_derivatives_2_1": [2.2787085020077340e+00, 1.8293856987949413e+00, 0.0, 0.0, 0.0, 0.0], 
            "evaluate_basis_derivatives_2_2": [0.0, 0.0, 0.0, 0.0, 0.0, 0.0, 0.0, 0.0, 0.0, 0.0, 0.0, 0.0], 
            "evaluate_basis_derivatives_3_0": [0.0, 1.4718852622922429e+00, 0.0], 
            "evaluate_basis_derivatives_3_1": [0.0, 0.0, 8.5585277568607676e-02, -2.2787085025842555e+00, 0.0, 0.0], 
            "evaluate_basis_derivatives_3_2": [0.0, 0.0, 0.0, 0.0, 0.0, 0.0, 0.0, 0.0, 0.0, 0.0, 0.0, 0.0], 
            "evaluate_basis_derivatives_4_0": [0.0, 2.0266705413493233e+00, 0.0], 
            "evaluate_basis_derivatives_4_1": [0.0, 0.0, -2.3642938479375970e+00, 4.4932274890774304e-01, 0.0, 0.0], 
            "evaluate_basis_derivatives_4_2": [0.0, 0.0, 0.0, 0.0, 0.0, 0.0, 0.0, 0.0, 0.0, 0.0, 0.0, 0.0], 
            "evaluate_basis_derivatives_5_0": [0.0, -2.4985557203629258e+00, 0.0], 
            "evaluate_basis_derivatives_5_1": [0.0, 0.0, 2.2787085020077340e+00, 1.8293856987949413e+00, 0.0, 0.0], 
            "evaluate_basis_derivatives_5_2": [0.0, 0.0, 0.0, 0.0, 0.0, 0.0, 0.0, 0.0, 0.0, 0.0, 0.0, 0.0], 
            "evaluate_basis_derivatives_6_0": [-2.0123796306119272e+02, 0.0, 0.0], 
            "evaluate_basis_derivatives_6_1": [4.0659198793036455e+02, 4.1427425927847219e+02, 0.0, 0.0, 0.0, 0.0], 
            "evaluate_basis_derivatives_6_2": [-3.7956633644984214e+02, -7.7280807139902345e+02, -7.7280808207625887e+02, -2.5274028816657929e+02, 0.0, 0.0, 0.0, 0.0, 0.0, 0.0, 0.0, 0.0], 
            "evaluate_basis_derivatives_7_0": [0.0, -2.0123796306119272e+02, 0.0], 
            "evaluate_basis_derivatives_7_1": [0.0, 0.0, 4.0659198793036455e+02, 4.1427425927847219e+02, 0.0, 0.0], 
            "evaluate_basis_derivatives_7_2": [0.0, 0.0, 0.0, 0.0, -3.7956633644984214e+02, -7.7280807139902345e+02, -7.7280808207625887e+02, -2.5274028816657929e+02, 0.0, 0.0, 0.0, 0.0], 
            "evaluate_basis_derivatives_8_0": [0.0, 0.0, 1.4718852622922429e+00], 
            "evaluate_basis_derivatives_8_1": [0.0, 0.0, 0.0, 0.0, 8.5585277568607676e-02, -2.2787085025842555e+00], 
            "evaluate_basis_derivatives_8_2": [0.0, 0.0, 0.0, 0.0, 0.0, 0.0, 0.0, 0.0, 0.0, 0.0, 0.0, 0.0], 
            "evaluate_basis_derivatives_9_0": [0.0, 0.0, 2.0266705413493233e+00], 
            "evaluate_basis_derivatives_9_1": [0.0, 0.0, 0.0, 0.0, -2.3642938479375970e+00, 4.4932274890774304e-01], 
            "evaluate_basis_derivatives_9_2": [0.0, 0.0, 0.0, 0.0, 0.0, 0.0, 0.0, 0.0, 0.0, 0.0, 0.0, 0.0], 
            "evaluate_basis_derivatives_10_0": [0.0, 0.0, -2.4985557203629258e+00], 
            "evaluate_basis_derivatives_10_1": [0.0, 0.0, 0.0, 0.0, 2.2787085020077340e+00, 1.8293856987949413e+00], 
            "evaluate_basis_derivatives_10_2": [0.0, 0.0, 0.0, 0.0, 0.0, 0.0, 0.0, 0.0, 0.0, 0.0, 0.0, 0.0], 
            "evaluate_basis_derivatives_all_0": [1.4718852622922429e+00, 0.0, 0.0, 2.0266705413493233e+00, 0.0, 0.0, -2.4985557203629258e+00, 0.0, 0.0, 0.0, 1.4718852622922429e+00, 0.0, 0.0, 2.0266705413493233e+00, 0.0, 0.0, -2.4985557203629258e+00, 0.0, -2.0123796306119272e+02, 0.0, 0.0, 0.0, -2.0123796306119272e+02, 0.0, 0.0, 0.0, 1.4718852622922429e+00, 0.0, 0.0, 2.0266705413493233e+00, 0.0, 0.0, -2.4985557203629258e+00], 
            "evaluate_basis_derivatives_all_1": [8.5585277568607676e-02, -2.2787085025842555e+00, 0.0, 0.0, 0.0, 0.0, -2.3642938479375970e+00, 4.4932274890774304e-01, 0.0, 0.0, 0.0, 0.0, 2.2787085020077340e+00, 1.8293856987949413e+00, 0.0, 0.0, 0.0, 0.0, 0.0, 0.0, 8.5585277568607676e-02, -2.2787085025842555e+00, 0.0, 0.0, 0.0, 0.0, -2.3642938479375970e+00, 4.4932274890774304e-01, 0.0, 0.0, 0.0, 0.0, 2.2787085020077340e+00, 1.8293856987949413e+00, 0.0, 0.0, 4.0659198793036455e+02, 4.1427425927847219e+02, 0.0, 0.0, 0.0, 0.0, 0.0, 0.0, 4.0659198793036455e+02, 4.1427425927847219e+02, 0.0, 0.0, 0.0, 0.0, 0.0, 0.0, 8.5585277568607676e-02, -2.2787085025842555e+00, 0.0, 0.0, 0.0, 0.0, -2.3642938479375970e+00, 4.4932274890774304e-01, 0.0, 0.0, 0.0, 0.0, 2.2787085020077340e+00, 1.8293856987949413e+00], 
            "evaluate_basis_derivatives_all_2": [0.0, 0.0, 0.0, 0.0, 0.0, 0.0, 0.0, 0.0, 0.0, 0.0, 0.0, 0.0, 0.0, 0.0, 0.0, 0.0, 0.0, 0.0, 0.0, 0.0, 0.0, 0.0, 0.0, 0.0, 0.0, 0.0, 0.0, 0.0, 0.0, 0.0, 0.0, 0.0, 0.0, 0.0, 0.0, 0.0, 0.0, 0.0, 0.0, 0.0, 0.0, 0.0, 0.0, 0.0, 0.0, 0.0, 0.0, 0.0, 0.0, 0.0, 0.0, 0.0, 0.0, 0.0, 0.0, 0.0, 0.0, 0.0, 0.0, 0.0, 0.0, 0.0, 0.0, 0.0, 0.0, 0.0, 0.0, 0.0, 0.0, 0.0, 0.0, 0.0, -3.7956633644984214e+02, -7.7280807139902345e+02, -7.7280808207625887e+02, -2.5274028816657929e+02, 0.0, 0.0, 0.0, 0.0, 0.0, 0.0, 0.0, 0.0, 0.0, 0.0, 0.0, 0.0, -3.7956633644984214e+02, -7.7280807139902345e+02, -7.7280808207625887e+02, -2.5274028816657929e+02, 0.0, 0.0, 0.0, 0.0, 0.0, 0.0, 0.0, 0.0, 0.0, 0.0, 0.0, 0.0, 0.0, 0.0, 0.0, 0.0, 0.0, 0.0, 0.0, 0.0, 0.0, 0.0, 0.0, 0.0, 0.0, 0.0, 0.0, 0.0, 0.0, 0.0, 0.0, 0.0, 0.0, 0.0, 0.0, 0.0, 0.0, 0.0, 0.0, 0.0], 
            "evaluate_dof_0": 3.0792300000000006e-01, 
            "evaluate_dof_1": 4.3028700000000003e-01, 
            "evaluate_dof_2": 7.7282099999999998e-01, 
            "evaluate_dof_3": 1.2316920000000002e+00, 
            "evaluate_dof_4": 1.7211480000000001e+00, 
            "evaluate_dof_5": 3.0912839999999999e+00, 
            "evaluate_dof_6": 5.1498232303368663e-01, 
            "evaluate_dof_7": 2.0599292921347465e+00, 
            "evaluate_dof_8": 2.7713070000000006e+00, 
            "evaluate_dof_9": 3.8725830000000010e+00, 
            "evaluate_dof_10": 6.9553890000000003e+00, 
            "evaluate_dofs": [3.0792300000000006e-01, 4.3028700000000003e-01, 7.7282099999999998e-01, 1.2316920000000002e+00, 1.7211480000000001e+00, 3.0912839999999999e+00, 5.1498232303368663e-01, 2.0599292921347465e+00, 2.7713070000000006e+00, 3.8725830000000010e+00, 6.9553890000000003e+00], 
            "interpolate_vertex_values": [3.0792300000000006e-01, 1.2316920000000002e+00, 2.7713070000000006e+00, 4.3028700000000003e-01, 1.7211480000000001e+00, 3.8725830000000010e+00, 7.7282099999999998e-01, 3.0912839999999999e+00, 6.9553890000000003e+00], 
            "num_sub_elements": 2, 
            "finite_element_0": {
                "cell_shape": 1, 
                "space_dimension": 8, 
                "value_rank": 1, 
                "value_dimension_0": 2, 
                "evaluate_basis:_0": [1.4718852622922429e+00, 0.0], 
                "evaluate_basis:_1": [2.0266705413493233e+00, 0.0], 
                "evaluate_basis:_2": [-2.4985557203629258e+00, 0.0], 
                "evaluate_basis:_3": [0.0, 1.4718852622922429e+00], 
                "evaluate_basis:_4": [0.0, 2.0266705413493233e+00], 
                "evaluate_basis:_5": [0.0, -2.4985557203629258e+00], 
                "evaluate_basis:_6": [-2.0123796306119272e+02, 0.0], 
                "evaluate_basis:_7": [0.0, -2.0123796306119272e+02], 
                "evaluate_basis_all": [1.4718852622922429e+00, 0.0, 2.0266705413493233e+00, 0.0, -2.4985557203629258e+00, 0.0, 0.0, 1.4718852622922429e+00, 0.0, 2.0266705413493233e+00, 0.0, -2.4985557203629258e+00, -2.0123796306119272e+02, 0.0, 0.0, -2.0123796306119272e+02], 
                "evaluate_basis_derivatives_0_0": [1.4718852622922429e+00, 0.0], 
                "evaluate_basis_derivatives_0_1": [8.5585277568607676e-02, -2.2787085025842555e+00, 0.0, 0.0], 
                "evaluate_basis_derivatives_0_2": [0.0, 0.0, 0.0, 0.0, 0.0, 0.0, 0.0, 0.0], 
                "evaluate_basis_derivatives_1_0": [2.0266705413493233e+00, 0.0], 
                "evaluate_basis_derivatives_1_1": [-2.3642938479375970e+00, 4.4932274890774304e-01, 0.0, 0.0], 
                "evaluate_basis_derivatives_1_2": [0.0, 0.0, 0.0, 0.0, 0.0, 0.0, 0.0, 0.0], 
                "evaluate_basis_derivatives_2_0": [-2.4985557203629258e+00, 0.0], 
                "evaluate_basis_derivatives_2_1": [2.2787085020077340e+00, 1.8293856987949413e+00, 0.0, 0.0], 
                "evaluate_basis_derivatives_2_2": [0.0, 0.0, 0.0, 0.0, 0.0, 0.0, 0.0, 0.0], 
                "evaluate_basis_derivatives_3_0": [0.0, 1.4718852622922429e+00], 
                "evaluate_basis_derivatives_3_1": [0.0, 0.0, 8.5585277568607676e-02, -2.2787085025842555e+00], 
                "evaluate_basis_derivatives_3_2": [0.0, 0.0, 0.0, 0.0, 0.0, 0.0, 0.0, 0.0], 
                "evaluate_basis_derivatives_4_0": [0.0, 2.0266705413493233e+00], 
                "evaluate_basis_derivatives_4_1": [0.0, 0.0, -2.3642938479375970e+00, 4.4932274890774304e-01], 
                "evaluate_basis_derivatives_4_2": [0.0, 0.0, 0.0, 0.0, 0.0, 0.0, 0.0, 0.0], 
                "evaluate_basis_derivatives_5_0": [0.0, -2.4985557203629258e+00], 
                "evaluate_basis_derivatives_5_1": [0.0, 0.0, 2.2787085020077340e+00, 1.8293856987949413e+00], 
                "evaluate_basis_derivatives_5_2": [0.0, 0.0, 0.0, 0.0, 0.0, 0.0, 0.0, 0.0], 
                "evaluate_basis_derivatives_6_0": [-2.0123796306119272e+02, 0.0], 
                "evaluate_basis_derivatives_6_1": [4.0659198793036455e+02, 4.1427425927847219e+02, 0.0, 0.0], 
                "evaluate_basis_derivatives_6_2": [-3.7956633644984214e+02, -7.7280807139902345e+02, -7.7280808207625887e+02, -2.5274028816657929e+02, 0.0, 0.0, 0.0, 0.0], 
                "evaluate_basis_derivatives_7_0": [0.0, -2.0123796306119272e+02], 
                "evaluate_basis_derivatives_7_1": [0.0, 0.0, 4.0659198793036455e+02, 4.1427425927847219e+02], 
                "evaluate_basis_derivatives_7_2": [0.0, 0.0, 0.0, 0.0, -3.7956633644984214e+02, -7.7280807139902345e+02, -7.7280808207625887e+02, -2.5274028816657929e+02], 
                "evaluate_basis_derivatives_all_0": [1.4718852622922429e+00, 0.0, 2.0266705413493233e+00, 0.0, -2.4985557203629258e+00, 0.0, 0.0, 1.4718852622922429e+00, 0.0, 2.0266705413493233e+00, 0.0, -2.4985557203629258e+00, -2.0123796306119272e+02, 0.0, 0.0, -2.0123796306119272e+02], 
                "evaluate_basis_derivatives_all_1": [8.5585277568607676e-02, -2.2787085025842555e+00, 0.0, 0.0, -2.3642938479375970e+00, 4.4932274890774304e-01, 0.0, 0.0, 2.2787085020077340e+00, 1.8293856987949413e+00, 0.0, 0.0, 0.0, 0.0, 8.5585277568607676e-02, -2.2787085025842555e+00, 0.0, 0.0, -2.3642938479375970e+00, 4.4932274890774304e-01, 0.0, 0.0, 2.2787085020077340e+00, 1.8293856987949413e+00, 4.0659198793036455e+02, 4.1427425927847219e+02, 0.0, 0.0, 0.0, 0.0, 4.0659198793036455e+02, 4.1427425927847219e+02], 
                "evaluate_basis_derivatives_all_2": [0.0, 0.0, 0.0, 0.0, 0.0, 0.0, 0.0, 0.0, 0.0, 0.0, 0.0, 0.0, 0.0, 0.0, 0.0, 0.0, 0.0, 0.0, 0.0, 0.0, 0.0, 0.0, 0.0, 0.0, 0.0, 0.0, 0.0, 0.0, 0.0, 0.0, 0.0, 0.0, 0.0, 0.0, 0.0, 0.0, 0.0, 0.0, 0.0, 0.0, 0.0, 0.0, 0.0, 0.0, 0.0, 0.0, 0.0, 0.0, -3.7956633644984214e+02, -7.7280807139902345e+02, -7.7280808207625887e+02, -2.5274028816657929e+02, 0.0, 0.0, 0.0, 0.0, 0.0, 0.0, 0.0, 0.0, -3.7956633644984214e+02, -7.7280807139902345e+02, -7.7280808207625887e+02, -2.5274028816657929e+02], 
                "evaluate_dof_0": 3.0792300000000006e-01, 
                "evaluate_dof_1": 4.3028700000000003e-01, 
                "evaluate_dof_2": 7.7282099999999998e-01, 
                "evaluate_dof_3": 1.2316920000000002e+00, 
                "evaluate_dof_4": 1.7211480000000001e+00, 
                "evaluate_dof_5": 3.0912839999999999e+00, 
                "evaluate_dof_6": 5.1498232303368663e-01, 
                "evaluate_dof_7": 2.0599292921347465e+00, 
                "evaluate_dofs": [3.0792300000000006e-01, 4.3028700000000003e-01, 7.7282099999999998e-01, 1.2316920000000002e+00, 1.7211480000000001e+00, 3.0912839999999999e+00, 5.1498232303368663e-01, 2.0599292921347465e+00], 
                "interpolate_vertex_values": [3.0792300000000006e-01, 1.2316920000000002e+00, 4.3028700000000003e-01, 1.7211480000000001e+00, 7.7282099999999998e-01, 3.0912839999999999e+00], 
                "num_sub_elements": 0, 
            },
            "finite_element_1": {
                "cell_shape": 1, 
                "space_dimension": 3, 
                "value_rank": 0, 
                "evaluate_basis:_0": [1.4718852622922429e+00], 
                "evaluate_basis:_1": [2.0266705413493233e+00], 
                "evaluate_basis:_2": [-2.4985557203629258e+00], 
                "evaluate_basis_all": [1.4718852622922429e+00, 2.0266705413493233e+00, -2.4985557203629258e+00], 
                "evaluate_basis_derivatives_0_0": [1.4718852622922429e+00], 
                "evaluate_basis_derivatives_0_1": [8.5585277568607676e-02, -2.2787085025842555e+00], 
                "evaluate_basis_derivatives_0_2": [0.0, 0.0, 0.0, 0.0], 
                "evaluate_basis_derivatives_1_0": [2.0266705413493233e+00], 
                "evaluate_basis_derivatives_1_1": [-2.3642938479375970e+00, 4.4932274890774304e-01], 
                "evaluate_basis_derivatives_1_2": [0.0, 0.0, 0.0, 0.0], 
                "evaluate_basis_derivatives_2_0": [-2.4985557203629258e+00], 
                "evaluate_basis_derivatives_2_1": [2.2787085020077340e+00, 1.8293856987949413e+00], 
                "evaluate_basis_derivatives_2_2": [0.0, 0.0, 0.0, 0.0], 
                "evaluate_basis_derivatives_all_0": [1.4718852622922429e+00, 2.0266705413493233e+00, -2.4985557203629258e+00], 
                "evaluate_basis_derivatives_all_1": [8.5585277568607676e-02, -2.2787085025842555e+00, -2.3642938479375970e+00, 4.4932274890774304e-01, 2.2787085020077340e+00, 1.8293856987949413e+00], 
                "evaluate_basis_derivatives_all_2": [0.0, 0.0, 0.0, 0.0, 0.0, 0.0, 0.0, 0.0, 0.0, 0.0, 0.0, 0.0], 
                "evaluate_dof_0": 3.0792300000000006e-01, 
                "evaluate_dof_1": 4.3028700000000003e-01, 
                "evaluate_dof_2": 7.7282099999999998e-01, 
                "evaluate_dofs": [3.0792300000000006e-01, 4.3028700000000003e-01, 7.7282099999999998e-01], 
                "interpolate_vertex_values": [3.0792300000000006e-01, 4.3028700000000003e-01, 7.7282099999999998e-01], 
                "num_sub_elements": 0, 
            },
        },
        "finite_element_1": {
            "cell_shape": 1, 
            "space_dimension": 11, 
            "value_rank": 1, 
            "value_dimension_0": 3, 
            "evaluate_basis:_0": [1.4718852622922429e+00, 0.0, 0.0], 
            "evaluate_basis:_1": [2.0266705413493233e+00, 0.0, 0.0], 
            "evaluate_basis:_2": [-2.4985557203629258e+00, 0.0, 0.0], 
            "evaluate_basis:_3": [0.0, 1.4718852622922429e+00, 0.0], 
            "evaluate_basis:_4": [0.0, 2.0266705413493233e+00, 0.0], 
            "evaluate_basis:_5": [0.0, -2.4985557203629258e+00, 0.0], 
            "evaluate_basis:_6": [-2.0123796306119272e+02, 0.0, 0.0], 
            "evaluate_basis:_7": [0.0, -2.0123796306119272e+02, 0.0], 
            "evaluate_basis:_8": [0.0, 0.0, 1.4718852622922429e+00], 
            "evaluate_basis:_9": [0.0, 0.0, 2.0266705413493233e+00], 
            "evaluate_basis:_10": [0.0, 0.0, -2.4985557203629258e+00], 
            "evaluate_basis_all": [1.4718852622922429e+00, 0.0, 0.0, 2.0266705413493233e+00, 0.0, 0.0, -2.4985557203629258e+00, 0.0, 0.0, 0.0, 1.4718852622922429e+00, 0.0, 0.0, 2.0266705413493233e+00, 0.0, 0.0, -2.4985557203629258e+00, 0.0, -2.0123796306119272e+02, 0.0, 0.0, 0.0, -2.0123796306119272e+02, 0.0, 0.0, 0.0, 1.4718852622922429e+00, 0.0, 0.0, 2.0266705413493233e+00, 0.0, 0.0, -2.4985557203629258e+00], 
            "evaluate_basis_derivatives_0_0": [1.4718852622922429e+00, 0.0, 0.0], 
            "evaluate_basis_derivatives_0_1": [8.5585277568607676e-02, -2.2787085025842555e+00, 0.0, 0.0, 0.0, 0.0], 
            "evaluate_basis_derivatives_0_2": [0.0, 0.0, 0.0, 0.0, 0.0, 0.0, 0.0, 0.0, 0.0, 0.0, 0.0, 0.0], 
            "evaluate_basis_derivatives_1_0": [2.0266705413493233e+00, 0.0, 0.0], 
            "evaluate_basis_derivatives_1_1": [-2.3642938479375970e+00, 4.4932274890774304e-01, 0.0, 0.0, 0.0, 0.0], 
            "evaluate_basis_derivatives_1_2": [0.0, 0.0, 0.0, 0.0, 0.0, 0.0, 0.0, 0.0, 0.0, 0.0, 0.0, 0.0], 
            "evaluate_basis_derivatives_2_0": [-2.4985557203629258e+00, 0.0, 0.0], 
            "evaluate_basis_derivatives_2_1": [2.2787085020077340e+00, 1.8293856987949413e+00, 0.0, 0.0, 0.0, 0.0], 
            "evaluate_basis_derivatives_2_2": [0.0, 0.0, 0.0, 0.0, 0.0, 0.0, 0.0, 0.0, 0.0, 0.0, 0.0, 0.0], 
            "evaluate_basis_derivatives_3_0": [0.0, 1.4718852622922429e+00, 0.0], 
            "evaluate_basis_derivatives_3_1": [0.0, 0.0, 8.5585277568607676e-02, -2.2787085025842555e+00, 0.0, 0.0], 
            "evaluate_basis_derivatives_3_2": [0.0, 0.0, 0.0, 0.0, 0.0, 0.0, 0.0, 0.0, 0.0, 0.0, 0.0, 0.0], 
            "evaluate_basis_derivatives_4_0": [0.0, 2.0266705413493233e+00, 0.0], 
            "evaluate_basis_derivatives_4_1": [0.0, 0.0, -2.3642938479375970e+00, 4.4932274890774304e-01, 0.0, 0.0], 
            "evaluate_basis_derivatives_4_2": [0.0, 0.0, 0.0, 0.0, 0.0, 0.0, 0.0, 0.0, 0.0, 0.0, 0.0, 0.0], 
            "evaluate_basis_derivatives_5_0": [0.0, -2.4985557203629258e+00, 0.0], 
            "evaluate_basis_derivatives_5_1": [0.0, 0.0, 2.2787085020077340e+00, 1.8293856987949413e+00, 0.0, 0.0], 
            "evaluate_basis_derivatives_5_2": [0.0, 0.0, 0.0, 0.0, 0.0, 0.0, 0.0, 0.0, 0.0, 0.0, 0.0, 0.0], 
            "evaluate_basis_derivatives_6_0": [-2.0123796306119272e+02, 0.0, 0.0], 
            "evaluate_basis_derivatives_6_1": [4.0659198793036455e+02, 4.1427425927847219e+02, 0.0, 0.0, 0.0, 0.0], 
            "evaluate_basis_derivatives_6_2": [-3.7956633644984214e+02, -7.7280807139902345e+02, -7.7280808207625887e+02, -2.5274028816657929e+02, 0.0, 0.0, 0.0, 0.0, 0.0, 0.0, 0.0, 0.0], 
            "evaluate_basis_derivatives_7_0": [0.0, -2.0123796306119272e+02, 0.0], 
            "evaluate_basis_derivatives_7_1": [0.0, 0.0, 4.0659198793036455e+02, 4.1427425927847219e+02, 0.0, 0.0], 
            "evaluate_basis_derivatives_7_2": [0.0, 0.0, 0.0, 0.0, -3.7956633644984214e+02, -7.7280807139902345e+02, -7.7280808207625887e+02, -2.5274028816657929e+02, 0.0, 0.0, 0.0, 0.0], 
            "evaluate_basis_derivatives_8_0": [0.0, 0.0, 1.4718852622922429e+00], 
            "evaluate_basis_derivatives_8_1": [0.0, 0.0, 0.0, 0.0, 8.5585277568607676e-02, -2.2787085025842555e+00], 
            "evaluate_basis_derivatives_8_2": [0.0, 0.0, 0.0, 0.0, 0.0, 0.0, 0.0, 0.0, 0.0, 0.0, 0.0, 0.0], 
            "evaluate_basis_derivatives_9_0": [0.0, 0.0, 2.0266705413493233e+00], 
            "evaluate_basis_derivatives_9_1": [0.0, 0.0, 0.0, 0.0, -2.3642938479375970e+00, 4.4932274890774304e-01], 
            "evaluate_basis_derivatives_9_2": [0.0, 0.0, 0.0, 0.0, 0.0, 0.0, 0.0, 0.0, 0.0, 0.0, 0.0, 0.0], 
            "evaluate_basis_derivatives_10_0": [0.0, 0.0, -2.4985557203629258e+00], 
            "evaluate_basis_derivatives_10_1": [0.0, 0.0, 0.0, 0.0, 2.2787085020077340e+00, 1.8293856987949413e+00], 
            "evaluate_basis_derivatives_10_2": [0.0, 0.0, 0.0, 0.0, 0.0, 0.0, 0.0, 0.0, 0.0, 0.0, 0.0, 0.0], 
            "evaluate_basis_derivatives_all_0": [1.4718852622922429e+00, 0.0, 0.0, 2.0266705413493233e+00, 0.0, 0.0, -2.4985557203629258e+00, 0.0, 0.0, 0.0, 1.4718852622922429e+00, 0.0, 0.0, 2.0266705413493233e+00, 0.0, 0.0, -2.4985557203629258e+00, 0.0, -2.0123796306119272e+02, 0.0, 0.0, 0.0, -2.0123796306119272e+02, 0.0, 0.0, 0.0, 1.4718852622922429e+00, 0.0, 0.0, 2.0266705413493233e+00, 0.0, 0.0, -2.4985557203629258e+00], 
            "evaluate_basis_derivatives_all_1": [8.5585277568607676e-02, -2.2787085025842555e+00, 0.0, 0.0, 0.0, 0.0, -2.3642938479375970e+00, 4.4932274890774304e-01, 0.0, 0.0, 0.0, 0.0, 2.2787085020077340e+00, 1.8293856987949413e+00, 0.0, 0.0, 0.0, 0.0, 0.0, 0.0, 8.5585277568607676e-02, -2.2787085025842555e+00, 0.0, 0.0, 0.0, 0.0, -2.3642938479375970e+00, 4.4932274890774304e-01, 0.0, 0.0, 0.0, 0.0, 2.2787085020077340e+00, 1.8293856987949413e+00, 0.0, 0.0, 4.0659198793036455e+02, 4.1427425927847219e+02, 0.0, 0.0, 0.0, 0.0, 0.0, 0.0, 4.0659198793036455e+02, 4.1427425927847219e+02, 0.0, 0.0, 0.0, 0.0, 0.0, 0.0, 8.5585277568607676e-02, -2.2787085025842555e+00, 0.0, 0.0, 0.0, 0.0, -2.3642938479375970e+00, 4.4932274890774304e-01, 0.0, 0.0, 0.0, 0.0, 2.2787085020077340e+00, 1.8293856987949413e+00], 
            "evaluate_basis_derivatives_all_2": [0.0, 0.0, 0.0, 0.0, 0.0, 0.0, 0.0, 0.0, 0.0, 0.0, 0.0, 0.0, 0.0, 0.0, 0.0, 0.0, 0.0, 0.0, 0.0, 0.0, 0.0, 0.0, 0.0, 0.0, 0.0, 0.0, 0.0, 0.0, 0.0, 0.0, 0.0, 0.0, 0.0, 0.0, 0.0, 0.0, 0.0, 0.0, 0.0, 0.0, 0.0, 0.0, 0.0, 0.0, 0.0, 0.0, 0.0, 0.0, 0.0, 0.0, 0.0, 0.0, 0.0, 0.0, 0.0, 0.0, 0.0, 0.0, 0.0, 0.0, 0.0, 0.0, 0.0, 0.0, 0.0, 0.0, 0.0, 0.0, 0.0, 0.0, 0.0, 0.0, -3.7956633644984214e+02, -7.7280807139902345e+02, -7.7280808207625887e+02, -2.5274028816657929e+02, 0.0, 0.0, 0.0, 0.0, 0.0, 0.0, 0.0, 0.0, 0.0, 0.0, 0.0, 0.0, -3.7956633644984214e+02, -7.7280807139902345e+02, -7.7280808207625887e+02, -2.5274028816657929e+02, 0.0, 0.0, 0.0, 0.0, 0.0, 0.0, 0.0, 0.0, 0.0, 0.0, 0.0, 0.0, 0.0, 0.0, 0.0, 0.0, 0.0, 0.0, 0.0, 0.0, 0.0, 0.0, 0.0, 0.0, 0.0, 0.0, 0.0, 0.0, 0.0, 0.0, 0.0, 0.0, 0.0, 0.0, 0.0, 0.0, 0.0, 0.0, 0.0, 0.0], 
            "evaluate_dof_0": 3.0792300000000006e-01, 
            "evaluate_dof_1": 4.3028700000000003e-01, 
            "evaluate_dof_2": 7.7282099999999998e-01, 
            "evaluate_dof_3": 1.2316920000000002e+00, 
            "evaluate_dof_4": 1.7211480000000001e+00, 
            "evaluate_dof_5": 3.0912839999999999e+00, 
            "evaluate_dof_6": 5.1498232303368663e-01, 
            "evaluate_dof_7": 2.0599292921347465e+00, 
            "evaluate_dof_8": 2.7713070000000006e+00, 
            "evaluate_dof_9": 3.8725830000000010e+00, 
            "evaluate_dof_10": 6.9553890000000003e+00, 
            "evaluate_dofs": [3.0792300000000006e-01, 4.3028700000000003e-01, 7.7282099999999998e-01, 1.2316920000000002e+00, 1.7211480000000001e+00, 3.0912839999999999e+00, 5.1498232303368663e-01, 2.0599292921347465e+00, 2.7713070000000006e+00, 3.8725830000000010e+00, 6.9553890000000003e+00], 
            "interpolate_vertex_values": [3.0792300000000006e-01, 1.2316920000000002e+00, 2.7713070000000006e+00, 4.3028700000000003e-01, 1.7211480000000001e+00, 3.8725830000000010e+00, 7.7282099999999998e-01, 3.0912839999999999e+00, 6.9553890000000003e+00], 
            "num_sub_elements": 2, 
            "finite_element_0": {
                "cell_shape": 1, 
                "space_dimension": 8, 
                "value_rank": 1, 
                "value_dimension_0": 2, 
                "evaluate_basis:_0": [1.4718852622922429e+00, 0.0], 
                "evaluate_basis:_1": [2.0266705413493233e+00, 0.0], 
                "evaluate_basis:_2": [-2.4985557203629258e+00, 0.0], 
                "evaluate_basis:_3": [0.0, 1.4718852622922429e+00], 
                "evaluate_basis:_4": [0.0, 2.0266705413493233e+00], 
                "evaluate_basis:_5": [0.0, -2.4985557203629258e+00], 
                "evaluate_basis:_6": [-2.0123796306119272e+02, 0.0], 
                "evaluate_basis:_7": [0.0, -2.0123796306119272e+02], 
                "evaluate_basis_all": [1.4718852622922429e+00, 0.0, 2.0266705413493233e+00, 0.0, -2.4985557203629258e+00, 0.0, 0.0, 1.4718852622922429e+00, 0.0, 2.0266705413493233e+00, 0.0, -2.4985557203629258e+00, -2.0123796306119272e+02, 0.0, 0.0, -2.0123796306119272e+02], 
                "evaluate_basis_derivatives_0_0": [1.4718852622922429e+00, 0.0], 
                "evaluate_basis_derivatives_0_1": [8.5585277568607676e-02, -2.2787085025842555e+00, 0.0, 0.0], 
                "evaluate_basis_derivatives_0_2": [0.0, 0.0, 0.0, 0.0, 0.0, 0.0, 0.0, 0.0], 
                "evaluate_basis_derivatives_1_0": [2.0266705413493233e+00, 0.0], 
                "evaluate_basis_derivatives_1_1": [-2.3642938479375970e+00, 4.4932274890774304e-01, 0.0, 0.0], 
                "evaluate_basis_derivatives_1_2": [0.0, 0.0, 0.0, 0.0, 0.0, 0.0, 0.0, 0.0], 
                "evaluate_basis_derivatives_2_0": [-2.4985557203629258e+00, 0.0], 
                "evaluate_basis_derivatives_2_1": [2.2787085020077340e+00, 1.8293856987949413e+00, 0.0, 0.0], 
                "evaluate_basis_derivatives_2_2": [0.0, 0.0, 0.0, 0.0, 0.0, 0.0, 0.0, 0.0], 
                "evaluate_basis_derivatives_3_0": [0.0, 1.4718852622922429e+00], 
                "evaluate_basis_derivatives_3_1": [0.0, 0.0, 8.5585277568607676e-02, -2.2787085025842555e+00], 
                "evaluate_basis_derivatives_3_2": [0.0, 0.0, 0.0, 0.0, 0.0, 0.0, 0.0, 0.0], 
                "evaluate_basis_derivatives_4_0": [0.0, 2.0266705413493233e+00], 
                "evaluate_basis_derivatives_4_1": [0.0, 0.0, -2.3642938479375970e+00, 4.4932274890774304e-01], 
                "evaluate_basis_derivatives_4_2": [0.0, 0.0, 0.0, 0.0, 0.0, 0.0, 0.0, 0.0], 
                "evaluate_basis_derivatives_5_0": [0.0, -2.4985557203629258e+00], 
                "evaluate_basis_derivatives_5_1": [0.0, 0.0, 2.2787085020077340e+00, 1.8293856987949413e+00], 
                "evaluate_basis_derivatives_5_2": [0.0, 0.0, 0.0, 0.0, 0.0, 0.0, 0.0, 0.0], 
                "evaluate_basis_derivatives_6_0": [-2.0123796306119272e+02, 0.0], 
                "evaluate_basis_derivatives_6_1": [4.0659198793036455e+02, 4.1427425927847219e+02, 0.0, 0.0], 
                "evaluate_basis_derivatives_6_2": [-3.7956633644984214e+02, -7.7280807139902345e+02, -7.7280808207625887e+02, -2.5274028816657929e+02, 0.0, 0.0, 0.0, 0.0], 
                "evaluate_basis_derivatives_7_0": [0.0, -2.0123796306119272e+02], 
                "evaluate_basis_derivatives_7_1": [0.0, 0.0, 4.0659198793036455e+02, 4.1427425927847219e+02], 
                "evaluate_basis_derivatives_7_2": [0.0, 0.0, 0.0, 0.0, -3.7956633644984214e+02, -7.7280807139902345e+02, -7.7280808207625887e+02, -2.5274028816657929e+02], 
                "evaluate_basis_derivatives_all_0": [1.4718852622922429e+00, 0.0, 2.0266705413493233e+00, 0.0, -2.4985557203629258e+00, 0.0, 0.0, 1.4718852622922429e+00, 0.0, 2.0266705413493233e+00, 0.0, -2.4985557203629258e+00, -2.0123796306119272e+02, 0.0, 0.0, -2.0123796306119272e+02], 
                "evaluate_basis_derivatives_all_1": [8.5585277568607676e-02, -2.2787085025842555e+00, 0.0, 0.0, -2.3642938479375970e+00, 4.4932274890774304e-01, 0.0, 0.0, 2.2787085020077340e+00, 1.8293856987949413e+00, 0.0, 0.0, 0.0, 0.0, 8.5585277568607676e-02, -2.2787085025842555e+00, 0.0, 0.0, -2.3642938479375970e+00, 4.4932274890774304e-01, 0.0, 0.0, 2.2787085020077340e+00, 1.8293856987949413e+00, 4.0659198793036455e+02, 4.1427425927847219e+02, 0.0, 0.0, 0.0, 0.0, 4.0659198793036455e+02, 4.1427425927847219e+02], 
                "evaluate_basis_derivatives_all_2": [0.0, 0.0, 0.0, 0.0, 0.0, 0.0, 0.0, 0.0, 0.0, 0.0, 0.0, 0.0, 0.0, 0.0, 0.0, 0.0, 0.0, 0.0, 0.0, 0.0, 0.0, 0.0, 0.0, 0.0, 0.0, 0.0, 0.0, 0.0, 0.0, 0.0, 0.0, 0.0, 0.0, 0.0, 0.0, 0.0, 0.0, 0.0, 0.0, 0.0, 0.0, 0.0, 0.0, 0.0, 0.0, 0.0, 0.0, 0.0, -3.7956633644984214e+02, -7.7280807139902345e+02, -7.7280808207625887e+02, -2.5274028816657929e+02, 0.0, 0.0, 0.0, 0.0, 0.0, 0.0, 0.0, 0.0, -3.7956633644984214e+02, -7.7280807139902345e+02, -7.7280808207625887e+02, -2.5274028816657929e+02], 
                "evaluate_dof_0": 3.0792300000000006e-01, 
                "evaluate_dof_1": 4.3028700000000003e-01, 
                "evaluate_dof_2": 7.7282099999999998e-01, 
                "evaluate_dof_3": 1.2316920000000002e+00, 
                "evaluate_dof_4": 1.7211480000000001e+00, 
                "evaluate_dof_5": 3.0912839999999999e+00, 
                "evaluate_dof_6": 5.1498232303368663e-01, 
                "evaluate_dof_7": 2.0599292921347465e+00, 
                "evaluate_dofs": [3.0792300000000006e-01, 4.3028700000000003e-01, 7.7282099999999998e-01, 1.2316920000000002e+00, 1.7211480000000001e+00, 3.0912839999999999e+00, 5.1498232303368663e-01, 2.0599292921347465e+00], 
                "interpolate_vertex_values": [3.0792300000000006e-01, 1.2316920000000002e+00, 4.3028700000000003e-01, 1.7211480000000001e+00, 7.7282099999999998e-01, 3.0912839999999999e+00], 
                "num_sub_elements": 0, 
            },
            "finite_element_1": {
                "cell_shape": 1, 
                "space_dimension": 3, 
                "value_rank": 0, 
                "evaluate_basis:_0": [1.4718852622922429e+00], 
                "evaluate_basis:_1": [2.0266705413493233e+00], 
                "evaluate_basis:_2": [-2.4985557203629258e+00], 
                "evaluate_basis_all": [1.4718852622922429e+00, 2.0266705413493233e+00, -2.4985557203629258e+00], 
                "evaluate_basis_derivatives_0_0": [1.4718852622922429e+00], 
                "evaluate_basis_derivatives_0_1": [8.5585277568607676e-02, -2.2787085025842555e+00], 
                "evaluate_basis_derivatives_0_2": [0.0, 0.0, 0.0, 0.0], 
                "evaluate_basis_derivatives_1_0": [2.0266705413493233e+00], 
                "evaluate_basis_derivatives_1_1": [-2.3642938479375970e+00, 4.4932274890774304e-01], 
                "evaluate_basis_derivatives_1_2": [0.0, 0.0, 0.0, 0.0], 
                "evaluate_basis_derivatives_2_0": [-2.4985557203629258e+00], 
                "evaluate_basis_derivatives_2_1": [2.2787085020077340e+00, 1.8293856987949413e+00], 
                "evaluate_basis_derivatives_2_2": [0.0, 0.0, 0.0, 0.0], 
                "evaluate_basis_derivatives_all_0": [1.4718852622922429e+00, 2.0266705413493233e+00, -2.4985557203629258e+00], 
                "evaluate_basis_derivatives_all_1": [8.5585277568607676e-02, -2.2787085025842555e+00, -2.3642938479375970e+00, 4.4932274890774304e-01, 2.2787085020077340e+00, 1.8293856987949413e+00], 
                "evaluate_basis_derivatives_all_2": [0.0, 0.0, 0.0, 0.0, 0.0, 0.0, 0.0, 0.0, 0.0, 0.0, 0.0, 0.0], 
                "evaluate_dof_0": 3.0792300000000006e-01, 
                "evaluate_dof_1": 4.3028700000000003e-01, 
                "evaluate_dof_2": 7.7282099999999998e-01, 
                "evaluate_dofs": [3.0792300000000006e-01, 4.3028700000000003e-01, 7.7282099999999998e-01], 
                "interpolate_vertex_values": [3.0792300000000006e-01, 4.3028700000000003e-01, 7.7282099999999998e-01], 
                "num_sub_elements": 0, 
            },
        },
        "dofmap_0": {
            "needs_mesh_entities_0": 1, 
            "needs_mesh_entities_1": 0, 
            "needs_mesh_entities_2": 1, 
            "global_dimension": 50009, 
            "local_dimension": 11, 
            "geometric_dimension": 2, 
            "num_facet_dofs": 6, 
            "num_entity_dofs_0": 3, 
            "num_entity_dofs_1": 0, 
            "num_entity_dofs_2": 2, 
            "tabulate_dofs": [0, 0, 0, 1, 1, 1, 20002, 20003, 40008, 40008, 40008], 
            "tabulate_facet_dofs_0": [1, 2, 4, 5, 9, 10], 
            "tabulate_facet_dofs_1": [0, 2, 3, 5, 8, 10], 
            "tabulate_facet_dofs_2": [0, 1, 3, 4, 8, 9], 
            "tabulate_entity_dofs_0_0": [0, 3, 8], 
            "tabulate_entity_dofs_0_1": [1, 4, 9], 
            "tabulate_entity_dofs_0_2": [2, 5, 10], 
            "tabulate_entity_dofs_1_0": [], 
            "tabulate_entity_dofs_1_1": [], 
            "tabulate_entity_dofs_1_2": [], 
            "tabulate_entity_dofs_2_0": [6, 7], 
            "tabulate_coordinates_0": [9.0300000000000002e-01, 3.4100000000000003e-01], 
            "tabulate_coordinates_1": [5.6100000000000005e-01, 7.6700000000000002e-01], 
            "tabulate_coordinates_2": [9.8699999999999999e-01, 7.8300000000000003e-01], 
            "tabulate_coordinates_3": [9.0300000000000002e-01, 3.4100000000000003e-01], 
            "tabulate_coordinates_4": [5.6100000000000005e-01, 7.6700000000000002e-01], 
            "tabulate_coordinates_5": [9.8699999999999999e-01, 7.8300000000000003e-01], 
            "tabulate_coordinates_6": [8.1699999182999994e-01, 6.3033332703000000e-01], 
            "tabulate_coordinates_7": [8.1699999182999994e-01, 6.3033332703000000e-01], 
            "tabulate_coordinates_8": [9.0300000000000002e-01, 3.4100000000000003e-01], 
            "tabulate_coordinates_9": [5.6100000000000005e-01, 7.6700000000000002e-01], 
            "tabulate_coordinates_10": [9.8699999999999999e-01, 7.8300000000000003e-01], 
            "num_sub_dofmaps": 2, 
            "dofmap_0": {
                "needs_mesh_entities_0": 1, 
                "needs_mesh_entities_1": 0, 
                "needs_mesh_entities_2": 1, 
                "global_dimension": 40008, 
                "local_dimension": 8, 
                "geometric_dimension": 2, 
                "num_facet_dofs": 4, 
                "num_entity_dofs_0": 2, 
                "num_entity_dofs_1": 0, 
                "num_entity_dofs_2": 2, 
                "tabulate_dofs": [0, 0, 0, 1, 1, 1, 20002, 20003], 
                "tabulate_facet_dofs_0": [1, 2, 4, 5], 
                "tabulate_facet_dofs_1": [0, 2, 3, 5], 
                "tabulate_facet_dofs_2": [0, 1, 3, 4], 
                "tabulate_entity_dofs_0_0": [0, 3], 
                "tabulate_entity_dofs_0_1": [1, 4], 
                "tabulate_entity_dofs_0_2": [2, 5], 
                "tabulate_entity_dofs_1_0": [], 
                "tabulate_entity_dofs_1_1": [], 
                "tabulate_entity_dofs_1_2": [], 
                "tabulate_entity_dofs_2_0": [6, 7], 
                "tabulate_coordinates_0": [9.0300000000000002e-01, 3.4100000000000003e-01], 
                "tabulate_coordinates_1": [5.6100000000000005e-01, 7.6700000000000002e-01], 
                "tabulate_coordinates_2": [9.8699999999999999e-01, 7.8300000000000003e-01], 
                "tabulate_coordinates_3": [9.0300000000000002e-01, 3.4100000000000003e-01], 
                "tabulate_coordinates_4": [5.6100000000000005e-01, 7.6700000000000002e-01], 
                "tabulate_coordinates_5": [9.8699999999999999e-01, 7.8300000000000003e-01], 
                "tabulate_coordinates_6": [8.1699999182999994e-01, 6.3033332703000000e-01], 
                "tabulate_coordinates_7": [8.1699999182999994e-01, 6.3033332703000000e-01], 
                "num_sub_dofmaps": 0, 
            },
            "dofmap_1": {
                "needs_mesh_entities_0": 1, 
                "needs_mesh_entities_1": 0, 
                "needs_mesh_entities_2": 0, 
                "global_dimension": 10001, 
                "local_dimension": 3, 
                "geometric_dimension": 2, 
                "num_facet_dofs": 2, 
                "num_entity_dofs_0": 1, 
                "num_entity_dofs_1": 0, 
                "num_entity_dofs_2": 0, 
                "tabulate_dofs": [0, 0, 0], 
                "tabulate_facet_dofs_0": [1, 2], 
                "tabulate_facet_dofs_1": [0, 2], 
                "tabulate_facet_dofs_2": [0, 1], 
                "tabulate_entity_dofs_0_0": [0], 
                "tabulate_entity_dofs_0_1": [1], 
                "tabulate_entity_dofs_0_2": [2], 
                "tabulate_entity_dofs_1_0": [], 
                "tabulate_entity_dofs_1_1": [], 
                "tabulate_entity_dofs_1_2": [], 
                "tabulate_entity_dofs_2_0": [], 
                "tabulate_coordinates_0": [9.0300000000000002e-01, 3.4100000000000003e-01], 
                "tabulate_coordinates_1": [5.6100000000000005e-01, 7.6700000000000002e-01], 
                "tabulate_coordinates_2": [9.8699999999999999e-01, 7.8300000000000003e-01], 
                "num_sub_dofmaps": 0, 
            },
        },
        "dofmap_1": {
            "needs_mesh_entities_0": 1, 
            "needs_mesh_entities_1": 0, 
            "needs_mesh_entities_2": 1, 
            "global_dimension": 50009, 
            "local_dimension": 11, 
            "geometric_dimension": 2, 
            "num_facet_dofs": 6, 
            "num_entity_dofs_0": 3, 
            "num_entity_dofs_1": 0, 
            "num_entity_dofs_2": 2, 
            "tabulate_dofs": [0, 0, 0, 1, 1, 1, 20002, 20003, 40008, 40008, 40008], 
            "tabulate_facet_dofs_0": [1, 2, 4, 5, 9, 10], 
            "tabulate_facet_dofs_1": [0, 2, 3, 5, 8, 10], 
            "tabulate_facet_dofs_2": [0, 1, 3, 4, 8, 9], 
            "tabulate_entity_dofs_0_0": [0, 3, 8], 
            "tabulate_entity_dofs_0_1": [1, 4, 9], 
            "tabulate_entity_dofs_0_2": [2, 5, 10], 
            "tabulate_entity_dofs_1_0": [], 
            "tabulate_entity_dofs_1_1": [], 
            "tabulate_entity_dofs_1_2": [], 
            "tabulate_entity_dofs_2_0": [6, 7], 
            "tabulate_coordinates_0": [9.0300000000000002e-01, 3.4100000000000003e-01], 
            "tabulate_coordinates_1": [5.6100000000000005e-01, 7.6700000000000002e-01], 
            "tabulate_coordinates_2": [9.8699999999999999e-01, 7.8300000000000003e-01], 
            "tabulate_coordinates_3": [9.0300000000000002e-01, 3.4100000000000003e-01], 
            "tabulate_coordinates_4": [5.6100000000000005e-01, 7.6700000000000002e-01], 
            "tabulate_coordinates_5": [9.8699999999999999e-01, 7.8300000000000003e-01], 
            "tabulate_coordinates_6": [8.1699999182999994e-01, 6.3033332703000000e-01], 
            "tabulate_coordinates_7": [8.1699999182999994e-01, 6.3033332703000000e-01], 
            "tabulate_coordinates_8": [9.0300000000000002e-01, 3.4100000000000003e-01], 
            "tabulate_coordinates_9": [5.6100000000000005e-01, 7.6700000000000002e-01], 
            "tabulate_coordinates_10": [9.8699999999999999e-01, 7.8300000000000003e-01], 
            "num_sub_dofmaps": 2, 
            "dofmap_0": {
                "needs_mesh_entities_0": 1, 
                "needs_mesh_entities_1": 0, 
                "needs_mesh_entities_2": 1, 
                "global_dimension": 40008, 
                "local_dimension": 8, 
                "geometric_dimension": 2, 
                "num_facet_dofs": 4, 
                "num_entity_dofs_0": 2, 
                "num_entity_dofs_1": 0, 
                "num_entity_dofs_2": 2, 
                "tabulate_dofs": [0, 0, 0, 1, 1, 1, 20002, 20003], 
                "tabulate_facet_dofs_0": [1, 2, 4, 5], 
                "tabulate_facet_dofs_1": [0, 2, 3, 5], 
                "tabulate_facet_dofs_2": [0, 1, 3, 4], 
                "tabulate_entity_dofs_0_0": [0, 3], 
                "tabulate_entity_dofs_0_1": [1, 4], 
                "tabulate_entity_dofs_0_2": [2, 5], 
                "tabulate_entity_dofs_1_0": [], 
                "tabulate_entity_dofs_1_1": [], 
                "tabulate_entity_dofs_1_2": [], 
                "tabulate_entity_dofs_2_0": [6, 7], 
                "tabulate_coordinates_0": [9.0300000000000002e-01, 3.4100000000000003e-01], 
                "tabulate_coordinates_1": [5.6100000000000005e-01, 7.6700000000000002e-01], 
                "tabulate_coordinates_2": [9.8699999999999999e-01, 7.8300000000000003e-01], 
                "tabulate_coordinates_3": [9.0300000000000002e-01, 3.4100000000000003e-01], 
                "tabulate_coordinates_4": [5.6100000000000005e-01, 7.6700000000000002e-01], 
                "tabulate_coordinates_5": [9.8699999999999999e-01, 7.8300000000000003e-01], 
                "tabulate_coordinates_6": [8.1699999182999994e-01, 6.3033332703000000e-01], 
                "tabulate_coordinates_7": [8.1699999182999994e-01, 6.3033332703000000e-01], 
                "num_sub_dofmaps": 0, 
            },
            "dofmap_1": {
                "needs_mesh_entities_0": 1, 
                "needs_mesh_entities_1": 0, 
                "needs_mesh_entities_2": 0, 
                "global_dimension": 10001, 
                "local_dimension": 3, 
                "geometric_dimension": 2, 
                "num_facet_dofs": 2, 
                "num_entity_dofs_0": 1, 
                "num_entity_dofs_1": 0, 
                "num_entity_dofs_2": 0, 
                "tabulate_dofs": [0, 0, 0], 
                "tabulate_facet_dofs_0": [1, 2], 
                "tabulate_facet_dofs_1": [0, 2], 
                "tabulate_facet_dofs_2": [0, 1], 
                "tabulate_entity_dofs_0_0": [0], 
                "tabulate_entity_dofs_0_1": [1], 
                "tabulate_entity_dofs_0_2": [2], 
                "tabulate_entity_dofs_1_0": [], 
                "tabulate_entity_dofs_1_1": [], 
                "tabulate_entity_dofs_1_2": [], 
                "tabulate_entity_dofs_2_0": [], 
                "tabulate_coordinates_0": [9.0300000000000002e-01, 3.4100000000000003e-01], 
                "tabulate_coordinates_1": [5.6100000000000005e-01, 7.6700000000000002e-01], 
                "tabulate_coordinates_2": [9.8699999999999999e-01, 7.8300000000000003e-01], 
                "num_sub_dofmaps": 0, 
            },
        },
        "default_cell_integral": 1, 
        "cell_integral": {
            "tabulate_tensor": [4.8604959473509202e-01, -1.1462010780691957e-01, -3.7142948692817246e-01, 0.0, 0.0, 0.0, 0.0, 0.0, -2.6666666516019163e-03, -2.6666666516019163e-03, -2.6666666516019159e-03, -1.1462010780691957e-01, 5.4138048866615329e-01, -4.2676038085923390e-01, 0.0, 0.0, 0.0, 0.0, 0.0, 7.3666666250502735e-02, 7.3666666250502735e-02, 7.3666666250502735e-02, -3.7142948692817246e-01, -4.2676038085923390e-01, 7.9818986778740630e-01, 0.0, 0.0, 0.0, 0.0, 0.0, -7.0999999598900812e-02, -7.0999999598900812e-02, -7.0999999598900812e-02, 0.0, 0.0, 0.0, 4.8604959473509202e-01, -1.1462010780691957e-01, -3.7142948692817246e-01, 0.0, 0.0, 7.0999999598900798e-02, 7.0999999598900798e-02, 7.0999999598900798e-02, 0.0, 0.0, 0.0, -1.1462010780691957e-01, 5.4138048866615329e-01, -4.2676038085923390e-01, 0.0, 0.0, -1.3999999920910014e-02, -1.3999999920910016e-02, -1.3999999920910016e-02, 0.0, 0.0, 0.0, -3.7142948692817246e-01, -4.2676038085923390e-01, 7.9818986778740630e-01, 0.0, 0.0, -5.6999999677990791e-02, -5.6999999677990791e-02, -5.6999999677990791e-02, 0.0, 0.0, 0.0, 0.0, 0.0, 0.0, 7.3937608637261532e+00, 0.0, 3.5999999648119937e-03, -9.9449999027930933e-02, 9.5849999063118946e-02, 0.0, 0.0, 0.0, 0.0, 0.0, 0.0, 0.0, 7.3937608637261532e+00, -9.5849999063118918e-02, 1.8899999815262893e-02, 7.6949999247856060e-02, 2.6666666516019163e-03, -7.3666666250502735e-02, 7.0999999598900812e-02, -7.0999999598900798e-02, 1.3999999920910014e-02, 5.6999999677990791e-02, -3.5999999648119937e-03, 9.5849999063118918e-02, 0.0, 0.0, 0.0, 2.6666666516019163e-03, -7.3666666250502735e-02, 7.0999999598900812e-02, -7.0999999598900798e-02, 1.3999999920910016e-02, 5.6999999677990791e-02, 9.9449999027930933e-02, -1.8899999815262893e-02, 0.0, 0.0, 0.0, 2.6666666516019159e-03, -7.3666666250502735e-02, 7.0999999598900812e-02, -7.0999999598900798e-02, 1.3999999920910016e-02, 5.6999999677990791e-02, -9.5849999063118946e-02, -7.6949999247856060e-02, 0.0, 0.0, 0.0], 
        },
        "default_exterior_facet_integral": 0, 
        "default_interior_facet_integral": 0, 
        "default_point_integral": 0, 
    },
}
