{
    "form_0": {
        "num_coefficients": 0, 
        "has_cell_integrals": 1, 
        "has_exterior_facet_integrals": 0, 
        "has_interior_facet_integrals": 0, 
        "has_point_integrals": 0, 
        "num_cell_domains": 0, 
        "num_exterior_facet_domains": 0, 
        "num_interior_facet_domains": 0, 
        "num_point_domains": 0, 
        "finite_element_0": {
            "cell_shape": 1, 
            "space_dimension": 10, 
            "value_rank": 0, 
            "evaluate_basis:_0": [6.0722982439051840e+00], 
            "evaluate_basis:_1": [2.1002899274089625e+01], 
            "evaluate_basis:_2": [-1.0078178334052765e+02], 
            "evaluate_basis:_3": [-1.1575757274913173e+02], 
            "evaluate_basis:_4": [1.9358967788149991e+02], 
            "evaluate_basis:_5": [-5.6526177183805430e+01], 
            "evaluate_basis:_6": [1.4059601114040527e+02], 
            "evaluate_basis:_7": [4.5850460530414274e+01], 
            "evaluate_basis:_8": [6.8192139288041844e+01], 
            "evaluate_basis:_9": [-2.0123796306119272e+02], 
            "evaluate_basis_all": [6.0722982439051840e+00, 2.1002899274089625e+01, -1.0078178334052765e+02, -1.1575757274913173e+02, 1.9358967788149991e+02, -5.6526177183805430e+01, 1.4059601114040527e+02, 4.5850460530414274e+01, 6.8192139288041844e+01, -2.0123796306119272e+02], 
            "evaluate_basis_derivatives_0_0": [6.0722982439051840e+00], 
            "evaluate_basis_derivatives_0_1": [1.4549523648357052e+00, -3.8738173942949338e+01], 
            "evaluate_basis_derivatives_0_2": [2.2517983113039008e-01, -5.9952116341582098e+00, -5.9952138737826601e+00, 1.5962251471041640e+02], 
            "evaluate_basis_derivatives_1_0": [2.1002899274089625e+01], 
            "evaluate_basis_derivatives_1_1": [-9.0339140358869912e+01, 1.7168523258109502e+01], 
            "evaluate_basis_derivatives_1_2": [2.5557013907047858e+02, -4.8569889126034191e+01, -4.8569891733682937e+01, 9.2304792944223664e+00], 
            "evaluate_basis_derivatives_2_0": [-1.0078178334052765e+02], 
            "evaluate_basis_derivatives_2_1": [2.4556399463255994e+02, 1.9714292526839318e+02], 
            "evaluate_basis_derivatives_2_2": [-3.9702473739713201e+02, -3.1873816945966934e+02, -3.1873816945966934e+02, -2.5588838956621339e+02], 
            "evaluate_basis_derivatives_3_0": [-1.1575757274913173e+02], 
            "evaluate_basis_derivatives_3_1": [4.0223832397962019e+02, 2.8375066054096152e+01], 
            "evaluate_basis_derivatives_3_2": [-9.1822456132912828e+02, -9.4127199298078196e+01, -9.4127195042645369e+01, 6.8940525528829042e+01], 
            "evaluate_basis_derivatives_4_0": [1.9358967788149991e+02], 
            "evaluate_basis_derivatives_4_1": [-5.5816950723518983e+02, -2.2388011941666247e+02], 
            "evaluate_basis_derivatives_4_2": [1.0595198853725130e+03, 4.6567523868007549e+02, 4.6567523997067929e+02, 6.4827470645568326e+01], 
            "evaluate_basis_derivatives_5_0": [-5.6526177183805430e+01], 
            "evaluate_basis_derivatives_5_1": [4.4016566988246041e+01, 2.4203056336037747e+02], 
            "evaluate_basis_derivatives_5_2": [1.3251460854985680e+01, -1.6431469979116764e+02, -1.6431469336936505e+02, -6.4410514324719838e+02], 
            "evaluate_basis_derivatives_6_0": [1.4059601114040527e+02], 
            "evaluate_basis_derivatives_6_1": [-2.3318184069599377e+02, -4.1143011765485113e+02], 
            "evaluate_basis_derivatives_6_2": [1.7828690720619738e+02, 5.2805697508029755e+02, 5.2805697378969376e+02, 7.3295754603529440e+02], 
            "evaluate_basis_derivatives_7_0": [4.5850460530414274e+01], 
            "evaluate_basis_derivatives_7_1": [-4.7376048978556113e+01, -1.5258395589866456e+02], 
            "evaluate_basis_derivatives_7_2": [-1.3861092576563408e+01, 1.8054511524733340e+02, 1.8054511624316763e+02, 2.1197021864520147e+02], 
            "evaluate_basis_derivatives_8_0": [6.8192139288041844e+01], 
            "evaluate_basis_derivatives_8_1": [-1.7079926522726709e+02, -7.2358951520606468e+01], 
            "evaluate_basis_derivatives_8_2": [2.0182311905165537e+02, 2.3027588250542163e+02, 2.3027588635686067e+02, -9.4814957317982916e+01], 
            "evaluate_basis_derivatives_9_0": [-2.0123796306119272e+02], 
            "evaluate_basis_derivatives_9_1": [4.0659198793036455e+02, 4.1427425927847219e+02], 
            "evaluate_basis_derivatives_9_2": [-3.7956633644984214e+02, -7.7280807139902345e+02, -7.7280808207625887e+02, -2.5274028816657929e+02], 
            "evaluate_basis_derivatives_all_0": [6.0722982439051840e+00, 2.1002899274089625e+01, -1.0078178334052765e+02, -1.1575757274913173e+02, 1.9358967788149991e+02, -5.6526177183805430e+01, 1.4059601114040527e+02, 4.5850460530414274e+01, 6.8192139288041844e+01, -2.0123796306119272e+02], 
            "evaluate_basis_derivatives_all_1": [1.4549523648357052e+00, -3.8738173942949338e+01, -9.0339140358869912e+01, 1.7168523258109502e+01, 2.4556399463255994e+02, 1.9714292526839318e+02, 4.0223832397962019e+02, 2.8375066054096152e+01, -5.5816950723518983e+02, -2.2388011941666247e+02, 4.4016566988246041e+01, 2.4203056336037747e+02, -2.3318184069599377e+02, -4.1143011765485113e+02, -4.7376048978556113e+01, -1.5258395589866456e+02, -1.7079926522726709e+02, -7.2358951520606468e+01, 4.0659198793036455e+02, 4.1427425927847219e+02], 
            "evaluate_basis_derivatives_all_2": [2.2517983113039008e-01, -5.9952116341582098e+00, -5.9952138737826601e+00, 1.5962251471041640e+02, 2.5557013907047858e+02, -4.8569889126034191e+01, -4.8569891733682937e+01, 9.2304792944223664e+00, -3.9702473739713201e+02, -3.1873816945966934e+02, -3.1873816945966934e+02, -2.5588838956621339e+02, -9.1822456132912828e+02, -9.4127199298078196e+01, -9.4127195042645369e+01, 6.8940525528829042e+01, 1.0595198853725130e+03, 4.6567523868007549e+02, 4.6567523997067929e+02, 6.4827470645568326e+01, 1.3251460854985680e+01, -1.6431469979116764e+02, -1.6431469336936505e+02, -6.4410514324719838e+02, 1.7828690720619738e+02, 5.2805697508029755e+02, 5.2805697378969376e+02, 7.3295754603529440e+02, -1.3861092576563408e+01, 1.8054511524733340e+02, 1.8054511624316763e+02, 2.1197021864520147e+02, 2.0182311905165537e+02, 2.3027588250542163e+02, 2.3027588635686067e+02, -9.4814957317982916e+01, -3.7956633644984214e+02, -7.7280807139902345e+02, -7.7280808207625887e+02, -2.5274028816657929e+02], 
            "evaluate_dof_0": 3.0792300000000006e-01, 
            "evaluate_dof_1": 4.3028700000000003e-01, 
            "evaluate_dof_2": 7.7282099999999998e-01, 
            "evaluate_dof_3": 5.4295033219912670e-01, 
            "evaluate_dof_4": 6.5712833448268670e-01, 
            "evaluate_dof_5": 4.5463833182492674e-01, 
            "evaluate_dof_6": 6.0960433492424670e-01, 
            "evaluate_dof_7": 3.8108699943023999e-01, 
            "evaluate_dof_8": 4.2187500024600011e-01, 
            "evaluate_dof_9": 5.1498232303368663e-01, 
            "evaluate_dofs": [3.0792300000000006e-01, 4.3028700000000003e-01, 7.7282099999999998e-01, 5.4295033219912670e-01, 6.5712833448268670e-01, 4.5463833182492674e-01, 6.0960433492424670e-01, 3.8108699943023999e-01, 4.2187500024600011e-01, 5.1498232303368663e-01], 
            "interpolate_vertex_values": [3.0792300000000006e-01, 4.3028700000000003e-01, 7.7282099999999998e-01], 
            "num_sub_elements": 0, 
        },
        "finite_element_1": {
            "cell_shape": 1, 
            "space_dimension": 10, 
            "value_rank": 0, 
            "evaluate_basis:_0": [6.0722982439051840e+00], 
            "evaluate_basis:_1": [2.1002899274089625e+01], 
            "evaluate_basis:_2": [-1.0078178334052765e+02], 
            "evaluate_basis:_3": [-1.1575757274913173e+02], 
            "evaluate_basis:_4": [1.9358967788149991e+02], 
            "evaluate_basis:_5": [-5.6526177183805430e+01], 
            "evaluate_basis:_6": [1.4059601114040527e+02], 
            "evaluate_basis:_7": [4.5850460530414274e+01], 
            "evaluate_basis:_8": [6.8192139288041844e+01], 
            "evaluate_basis:_9": [-2.0123796306119272e+02], 
            "evaluate_basis_all": [6.0722982439051840e+00, 2.1002899274089625e+01, -1.0078178334052765e+02, -1.1575757274913173e+02, 1.9358967788149991e+02, -5.6526177183805430e+01, 1.4059601114040527e+02, 4.5850460530414274e+01, 6.8192139288041844e+01, -2.0123796306119272e+02], 
            "evaluate_basis_derivatives_0_0": [6.0722982439051840e+00], 
            "evaluate_basis_derivatives_0_1": [1.4549523648357052e+00, -3.8738173942949338e+01], 
            "evaluate_basis_derivatives_0_2": [2.2517983113039008e-01, -5.9952116341582098e+00, -5.9952138737826601e+00, 1.5962251471041640e+02], 
            "evaluate_basis_derivatives_1_0": [2.1002899274089625e+01], 
            "evaluate_basis_derivatives_1_1": [-9.0339140358869912e+01, 1.7168523258109502e+01], 
            "evaluate_basis_derivatives_1_2": [2.5557013907047858e+02, -4.8569889126034191e+01, -4.8569891733682937e+01, 9.2304792944223664e+00], 
            "evaluate_basis_derivatives_2_0": [-1.0078178334052765e+02], 
            "evaluate_basis_derivatives_2_1": [2.4556399463255994e+02, 1.9714292526839318e+02], 
            "evaluate_basis_derivatives_2_2": [-3.9702473739713201e+02, -3.1873816945966934e+02, -3.1873816945966934e+02, -2.5588838956621339e+02], 
            "evaluate_basis_derivatives_3_0": [-1.1575757274913173e+02], 
            "evaluate_basis_derivatives_3_1": [4.0223832397962019e+02, 2.8375066054096152e+01], 
            "evaluate_basis_derivatives_3_2": [-9.1822456132912828e+02, -9.4127199298078196e+01, -9.4127195042645369e+01, 6.8940525528829042e+01], 
            "evaluate_basis_derivatives_4_0": [1.9358967788149991e+02], 
            "evaluate_basis_derivatives_4_1": [-5.5816950723518983e+02, -2.2388011941666247e+02], 
            "evaluate_basis_derivatives_4_2": [1.0595198853725130e+03, 4.6567523868007549e+02, 4.6567523997067929e+02, 6.4827470645568326e+01], 
            "evaluate_basis_derivatives_5_0": [-5.6526177183805430e+01], 
            "evaluate_basis_derivatives_5_1": [4.4016566988246041e+01, 2.4203056336037747e+02], 
            "evaluate_basis_derivatives_5_2": [1.3251460854985680e+01, -1.6431469979116764e+02, -1.6431469336936505e+02, -6.4410514324719838e+02], 
            "evaluate_basis_derivatives_6_0": [1.4059601114040527e+02], 
            "evaluate_basis_derivatives_6_1": [-2.3318184069599377e+02, -4.1143011765485113e+02], 
            "evaluate_basis_derivatives_6_2": [1.7828690720619738e+02, 5.2805697508029755e+02, 5.2805697378969376e+02, 7.3295754603529440e+02], 
            "evaluate_basis_derivatives_7_0": [4.5850460530414274e+01], 
            "evaluate_basis_derivatives_7_1": [-4.7376048978556113e+01, -1.5258395589866456e+02], 
            "evaluate_basis_derivatives_7_2": [-1.3861092576563408e+01, 1.8054511524733340e+02, 1.8054511624316763e+02, 2.1197021864520147e+02], 
            "evaluate_basis_derivatives_8_0": [6.8192139288041844e+01], 
            "evaluate_basis_derivatives_8_1": [-1.7079926522726709e+02, -7.2358951520606468e+01], 
            "evaluate_basis_derivatives_8_2": [2.0182311905165537e+02, 2.3027588250542163e+02, 2.3027588635686067e+02, -9.4814957317982916e+01], 
            "evaluate_basis_derivatives_9_0": [-2.0123796306119272e+02], 
            "evaluate_basis_derivatives_9_1": [4.0659198793036455e+02, 4.1427425927847219e+02], 
            "evaluate_basis_derivatives_9_2": [-3.7956633644984214e+02, -7.7280807139902345e+02, -7.7280808207625887e+02, -2.5274028816657929e+02], 
            "evaluate_basis_derivatives_all_0": [6.0722982439051840e+00, 2.1002899274089625e+01, -1.0078178334052765e+02, -1.1575757274913173e+02, 1.9358967788149991e+02, -5.6526177183805430e+01, 1.4059601114040527e+02, 4.5850460530414274e+01, 6.8192139288041844e+01, -2.0123796306119272e+02], 
            "evaluate_basis_derivatives_all_1": [1.4549523648357052e+00, -3.8738173942949338e+01, -9.0339140358869912e+01, 1.7168523258109502e+01, 2.4556399463255994e+02, 1.9714292526839318e+02, 4.0223832397962019e+02, 2.8375066054096152e+01, -5.5816950723518983e+02, -2.2388011941666247e+02, 4.4016566988246041e+01, 2.4203056336037747e+02, -2.3318184069599377e+02, -4.1143011765485113e+02, -4.7376048978556113e+01, -1.5258395589866456e+02, -1.7079926522726709e+02, -7.2358951520606468e+01, 4.0659198793036455e+02, 4.1427425927847219e+02], 
            "evaluate_basis_derivatives_all_2": [2.2517983113039008e-01, -5.9952116341582098e+00, -5.9952138737826601e+00, 1.5962251471041640e+02, 2.5557013907047858e+02, -4.8569889126034191e+01, -4.8569891733682937e+01, 9.2304792944223664e+00, -3.9702473739713201e+02, -3.1873816945966934e+02, -3.1873816945966934e+02, -2.5588838956621339e+02, -9.1822456132912828e+02, -9.4127199298078196e+01, -9.4127195042645369e+01, 6.8940525528829042e+01, 1.0595198853725130e+03, 4.6567523868007549e+02, 4.6567523997067929e+02, 6.4827470645568326e+01, 1.3251460854985680e+01, -1.6431469979116764e+02, -1.6431469336936505e+02, -6.4410514324719838e+02, 1.7828690720619738e+02, 5.2805697508029755e+02, 5.2805697378969376e+02, 7.3295754603529440e+02, -1.3861092576563408e+01, 1.8054511524733340e+02, 1.8054511624316763e+02, 2.1197021864520147e+02, 2.0182311905165537e+02, 2.3027588250542163e+02, 2.3027588635686067e+02, -9.4814957317982916e+01, -3.7956633644984214e+02, -7.7280807139902345e+02, -7.7280808207625887e+02, -2.5274028816657929e+02], 
            "evaluate_dof_0": 3.0792300000000006e-01, 
            "evaluate_dof_1": 4.3028700000000003e-01, 
            "evaluate_dof_2": 7.7282099999999998e-01, 
            "evaluate_dof_3": 5.4295033219912670e-01, 
            "evaluate_dof_4": 6.5712833448268670e-01, 
            "evaluate_dof_5": 4.5463833182492674e-01, 
            "evaluate_dof_6": 6.0960433492424670e-01, 
            "evaluate_dof_7": 3.8108699943023999e-01, 
            "evaluate_dof_8": 4.2187500024600011e-01, 
            "evaluate_dof_9": 5.1498232303368663e-01, 
            "evaluate_dofs": [3.0792300000000006e-01, 4.3028700000000003e-01, 7.7282099999999998e-01, 5.4295033219912670e-01, 6.5712833448268670e-01, 4.5463833182492674e-01, 6.0960433492424670e-01, 3.8108699943023999e-01, 4.2187500024600011e-01, 5.1498232303368663e-01], 
            "interpolate_vertex_values": [3.0792300000000006e-01, 4.3028700000000003e-01, 7.7282099999999998e-01], 
            "num_sub_elements": 0, 
        },
        "dofmap_0": {
            "needs_mesh_entities_0": 1, 
            "needs_mesh_entities_1": 1, 
            "needs_mesh_entities_2": 1, 
            "global_dimension": 40008, 
            "local_dimension": 10, 
            "geometric_dimension": 2, 
            "num_facet_dofs": 4, 
            "num_entity_dofs_0": 1, 
            "num_entity_dofs_1": 2, 
            "num_entity_dofs_2": 1, 
            "tabulate_dofs": [0, 0, 0, 10001, 10002, 10003, 10004, 10005, 10006, 30005], 
            "tabulate_facet_dofs_0": [1, 2, 3, 4], 
            "tabulate_facet_dofs_1": [0, 2, 5, 6], 
            "tabulate_facet_dofs_2": [0, 1, 7, 8], 
            "tabulate_entity_dofs_0_0": [0], 
            "tabulate_entity_dofs_0_1": [1], 
            "tabulate_entity_dofs_0_2": [2], 
            "tabulate_entity_dofs_1_0": [3, 4], 
            "tabulate_entity_dofs_1_1": [5, 6], 
            "tabulate_entity_dofs_1_2": [7, 8], 
            "tabulate_entity_dofs_2_0": [9], 
            "tabulate_coordinates_0": [9.0300000000000002e-01, 3.4100000000000003e-01], 
            "tabulate_coordinates_1": [5.6100000000000005e-01, 7.6700000000000002e-01], 
            "tabulate_coordinates_2": [9.8699999999999999e-01, 7.8300000000000003e-01], 
            "tabulate_coordinates_3": [7.0299999857999995e-01, 7.7233333328000009e-01], 
            "tabulate_coordinates_4": [8.4500000141999998e-01, 7.7766666672000007e-01], 
            "tabulate_coordinates_5": [9.3099999972000003e-01, 4.8833333186000005e-01], 
            "tabulate_coordinates_6": [9.5900000027999999e-01, 6.3566666814000006e-01], 
            "tabulate_coordinates_7": [7.8900000114000002e-01, 4.8299999857999998e-01], 
            "tabulate_coordinates_8": [6.7499999886000006e-01, 6.2500000142000012e-01], 
            "tabulate_coordinates_9": [8.1699999182999994e-01, 6.3033332703000000e-01], 
            "num_sub_dofmaps": 0, 
        },
        "dofmap_1": {
            "needs_mesh_entities_0": 1, 
            "needs_mesh_entities_1": 1, 
            "needs_mesh_entities_2": 1, 
            "global_dimension": 40008, 
            "local_dimension": 10, 
            "geometric_dimension": 2, 
            "num_facet_dofs": 4, 
            "num_entity_dofs_0": 1, 
            "num_entity_dofs_1": 2, 
            "num_entity_dofs_2": 1, 
            "tabulate_dofs": [0, 0, 0, 10001, 10002, 10003, 10004, 10005, 10006, 30005], 
            "tabulate_facet_dofs_0": [1, 2, 3, 4], 
            "tabulate_facet_dofs_1": [0, 2, 5, 6], 
            "tabulate_facet_dofs_2": [0, 1, 7, 8], 
            "tabulate_entity_dofs_0_0": [0], 
            "tabulate_entity_dofs_0_1": [1], 
            "tabulate_entity_dofs_0_2": [2], 
            "tabulate_entity_dofs_1_0": [3, 4], 
            "tabulate_entity_dofs_1_1": [5, 6], 
            "tabulate_entity_dofs_1_2": [7, 8], 
            "tabulate_entity_dofs_2_0": [9], 
            "tabulate_coordinates_0": [9.0300000000000002e-01, 3.4100000000000003e-01], 
            "tabulate_coordinates_1": [5.6100000000000005e-01, 7.6700000000000002e-01], 
            "tabulate_coordinates_2": [9.8699999999999999e-01, 7.8300000000000003e-01], 
            "tabulate_coordinates_3": [7.0299999857999995e-01, 7.7233333328000009e-01], 
            "tabulate_coordinates_4": [8.4500000141999998e-01, 7.7766666672000007e-01], 
            "tabulate_coordinates_5": [9.3099999972000003e-01, 4.8833333186000005e-01], 
            "tabulate_coordinates_6": [9.5900000027999999e-01, 6.3566666814000006e-01], 
            "tabulate_coordinates_7": [7.8900000114000002e-01, 4.8299999857999998e-01], 
            "tabulate_coordinates_8": [6.7499999886000006e-01, 6.2500000142000012e-01], 
            "tabulate_coordinates_9": [8.1699999182999994e-01, 6.3033332703000000e-01], 
            "num_sub_dofmaps": 0, 
        },
        "default_cell_integral": 1, 
        "cell_integral": {
            "tabulate_tensor": [4.1314216539990833e-01, -2.0058519426764791e-02, -6.5000162028919770e-02, -3.6453718806018123e-02, -3.6453716366691084e-02, -4.9283330168414746e-01, 2.5931140793629914e-01, -1.2687993079978896e-01, 1.0522578330893533e-01, -1.3150548691664987e-08, -2.0058519426764791e-02, 4.6017342636546932e-01, -7.4683068737453270e-02, -5.6753000888378669e-01, 2.9665976898691498e-01, -4.0603533604383027e-02, -4.0603535198358388e-02, 1.0937559215950060e-01, -1.2273011327080621e-01, -1.4647580384719028e-08, -6.5000162028919770e-02, -7.4683068737453270e-02, 6.7846140383613573e-01, 3.1592047257403039e-01, -5.4826930241918848e-01, 2.8272192037397992e-01, -4.6942277769056684e-01, -5.9864234752171411e-02, -5.9864238785473797e-02, -2.1595810056895814e-08, -3.6453718806018123e-02, -5.6753000888378669e-01, 3.1592047257403039e-01, 3.0807336105378722e+00, -1.4803365025405359e+00, 7.7368553187125363e-02, 7.7368586211319368e-02, 2.5071493260312316e-01, -1.2535745083997947e+00, -4.6421141141332634e-01, -3.6453716366691084e-02, 2.9665976898691498e-01, -5.4826930241918848e-01, -1.4803365025405359e+00, 3.0807335868549455e+00, 7.7368589026063694e-02, -3.8684286788332556e-01, 2.5071487097891310e-01, 2.5071492499329273e-01, -1.5042893462522324e+00, -4.9283330168414746e-01, -4.0603533604383027e-02, 2.8272192037397992e-01, 7.7368553187125363e-02, 7.7368589026063694e-02, 3.0807336215069201e+00, -1.3682914444249874e+00, -1.4403162680069408e+00, 2.8806324057668187e-01, -4.6421137251981476e-01, 2.5931140793629914e-01, -4.0603535198358388e-02, -4.6942277769056684e-01, 7.7368586211319368e-02, -3.8684286788332556e-01, -1.3682914444249874e+00, 3.0807336137172605e+00, 2.8806323578159554e-01, 2.8806325262153759e-01, -1.7283794662657370e+00, -1.2687993079978896e-01, 1.0937559215950060e-01, -5.9864234752171411e-02, 2.5071493260312316e-01, 2.5071487097891310e-01, -1.4403162680069408e+00, 2.8806323578159554e-01, 3.0807335920369283e+00, -8.4825247291103290e-01, -1.5042893153196715e+00, 1.0522578330893533e-01, -1.2273011327080621e-01, -5.9864238785473797e-02, -1.2535745083997947e+00, 2.5071492499329273e-01, 2.8806324057668187e-01, 2.8806325262153759e-01, -8.4825247291103290e-01, 3.0807336079301959e+00, -1.7283794742266880e+00, -1.3150548691664987e-08, -1.4647580384719028e-08, -2.1595810056895814e-08, -4.6421141141332634e-01, -1.5042893462522324e+00, -4.6421137251981476e-01, -1.7283794662657370e+00, -1.5042893153196715e+00, -1.7283794742266880e+00, 7.3937604332008258e+00], 
        },
        "default_exterior_facet_integral": 0, 
        "default_interior_facet_integral": 0, 
        "default_point_integral": 0, 
    },
    "form_1": {
        "num_coefficients": 1, 
        "has_cell_integrals": 1, 
        "has_exterior_facet_integrals": 0, 
        "has_interior_facet_integrals": 0, 
        "has_point_integrals": 0, 
        "num_cell_domains": 0, 
        "num_exterior_facet_domains": 0, 
        "num_interior_facet_domains": 0, 
        "num_point_domains": 0, 
        "finite_element_0": {
            "cell_shape": 1, 
            "space_dimension": 10, 
            "value_rank": 0, 
            "evaluate_basis:_0": [6.0722982439051840e+00], 
            "evaluate_basis:_1": [2.1002899274089625e+01], 
            "evaluate_basis:_2": [-1.0078178334052765e+02], 
            "evaluate_basis:_3": [-1.1575757274913173e+02], 
            "evaluate_basis:_4": [1.9358967788149991e+02], 
            "evaluate_basis:_5": [-5.6526177183805430e+01], 
            "evaluate_basis:_6": [1.4059601114040527e+02], 
            "evaluate_basis:_7": [4.5850460530414274e+01], 
            "evaluate_basis:_8": [6.8192139288041844e+01], 
            "evaluate_basis:_9": [-2.0123796306119272e+02], 
            "evaluate_basis_all": [6.0722982439051840e+00, 2.1002899274089625e+01, -1.0078178334052765e+02, -1.1575757274913173e+02, 1.9358967788149991e+02, -5.6526177183805430e+01, 1.4059601114040527e+02, 4.5850460530414274e+01, 6.8192139288041844e+01, -2.0123796306119272e+02], 
            "evaluate_basis_derivatives_0_0": [6.0722982439051840e+00], 
            "evaluate_basis_derivatives_0_1": [1.4549523648357052e+00, -3.8738173942949338e+01], 
            "evaluate_basis_derivatives_0_2": [2.2517983113039008e-01, -5.9952116341582098e+00, -5.9952138737826601e+00, 1.5962251471041640e+02], 
            "evaluate_basis_derivatives_1_0": [2.1002899274089625e+01], 
            "evaluate_basis_derivatives_1_1": [-9.0339140358869912e+01, 1.7168523258109502e+01], 
            "evaluate_basis_derivatives_1_2": [2.5557013907047858e+02, -4.8569889126034191e+01, -4.8569891733682937e+01, 9.2304792944223664e+00], 
            "evaluate_basis_derivatives_2_0": [-1.0078178334052765e+02], 
            "evaluate_basis_derivatives_2_1": [2.4556399463255994e+02, 1.9714292526839318e+02], 
            "evaluate_basis_derivatives_2_2": [-3.9702473739713201e+02, -3.1873816945966934e+02, -3.1873816945966934e+02, -2.5588838956621339e+02], 
            "evaluate_basis_derivatives_3_0": [-1.1575757274913173e+02], 
            "evaluate_basis_derivatives_3_1": [4.0223832397962019e+02, 2.8375066054096152e+01], 
            "evaluate_basis_derivatives_3_2": [-9.1822456132912828e+02, -9.4127199298078196e+01, -9.4127195042645369e+01, 6.8940525528829042e+01], 
            "evaluate_basis_derivatives_4_0": [1.9358967788149991e+02], 
            "evaluate_basis_derivatives_4_1": [-5.5816950723518983e+02, -2.2388011941666247e+02], 
            "evaluate_basis_derivatives_4_2": [1.0595198853725130e+03, 4.6567523868007549e+02, 4.6567523997067929e+02, 6.4827470645568326e+01], 
            "evaluate_basis_derivatives_5_0": [-5.6526177183805430e+01], 
            "evaluate_basis_derivatives_5_1": [4.4016566988246041e+01, 2.4203056336037747e+02], 
            "evaluate_basis_derivatives_5_2": [1.3251460854985680e+01, -1.6431469979116764e+02, -1.6431469336936505e+02, -6.4410514324719838e+02], 
            "evaluate_basis_derivatives_6_0": [1.4059601114040527e+02], 
            "evaluate_basis_derivatives_6_1": [-2.3318184069599377e+02, -4.1143011765485113e+02], 
            "evaluate_basis_derivatives_6_2": [1.7828690720619738e+02, 5.2805697508029755e+02, 5.2805697378969376e+02, 7.3295754603529440e+02], 
            "evaluate_basis_derivatives_7_0": [4.5850460530414274e+01], 
            "evaluate_basis_derivatives_7_1": [-4.7376048978556113e+01, -1.5258395589866456e+02], 
            "evaluate_basis_derivatives_7_2": [-1.3861092576563408e+01, 1.8054511524733340e+02, 1.8054511624316763e+02, 2.1197021864520147e+02], 
            "evaluate_basis_derivatives_8_0": [6.8192139288041844e+01], 
            "evaluate_basis_derivatives_8_1": [-1.7079926522726709e+02, -7.2358951520606468e+01], 
            "evaluate_basis_derivatives_8_2": [2.0182311905165537e+02, 2.3027588250542163e+02, 2.3027588635686067e+02, -9.4814957317982916e+01], 
            "evaluate_basis_derivatives_9_0": [-2.0123796306119272e+02], 
            "evaluate_basis_derivatives_9_1": [4.0659198793036455e+02, 4.1427425927847219e+02], 
            "evaluate_basis_derivatives_9_2": [-3.7956633644984214e+02, -7.7280807139902345e+02, -7.7280808207625887e+02, -2.5274028816657929e+02], 
            "evaluate_basis_derivatives_all_0": [6.0722982439051840e+00, 2.1002899274089625e+01, -1.0078178334052765e+02, -1.1575757274913173e+02, 1.9358967788149991e+02, -5.6526177183805430e+01, 1.4059601114040527e+02, 4.5850460530414274e+01, 6.8192139288041844e+01, -2.0123796306119272e+02], 
            "evaluate_basis_derivatives_all_1": [1.4549523648357052e+00, -3.8738173942949338e+01, -9.0339140358869912e+01, 1.7168523258109502e+01, 2.4556399463255994e+02, 1.9714292526839318e+02, 4.0223832397962019e+02, 2.8375066054096152e+01, -5.5816950723518983e+02, -2.2388011941666247e+02, 4.4016566988246041e+01, 2.4203056336037747e+02, -2.3318184069599377e+02, -4.1143011765485113e+02, -4.7376048978556113e+01, -1.5258395589866456e+02, -1.7079926522726709e+02, -7.2358951520606468e+01, 4.0659198793036455e+02, 4.1427425927847219e+02], 
            "evaluate_basis_derivatives_all_2": [2.2517983113039008e-01, -5.9952116341582098e+00, -5.9952138737826601e+00, 1.5962251471041640e+02, 2.5557013907047858e+02, -4.8569889126034191e+01, -4.8569891733682937e+01, 9.2304792944223664e+00, -3.9702473739713201e+02, -3.1873816945966934e+02, -3.1873816945966934e+02, -2.5588838956621339e+02, -9.1822456132912828e+02, -9.4127199298078196e+01, -9.4127195042645369e+01, 6.8940525528829042e+01, 1.0595198853725130e+03, 4.6567523868007549e+02, 4.6567523997067929e+02, 6.4827470645568326e+01, 1.3251460854985680e+01, -1.6431469979116764e+02, -1.6431469336936505e+02, -6.4410514324719838e+02, 1.7828690720619738e+02, 5.2805697508029755e+02, 5.2805697378969376e+02, 7.3295754603529440e+02, -1.3861092576563408e+01, 1.8054511524733340e+02, 1.8054511624316763e+02, 2.1197021864520147e+02, 2.0182311905165537e+02, 2.3027588250542163e+02, 2.3027588635686067e+02, -9.4814957317982916e+01, -3.7956633644984214e+02, -7.7280807139902345e+02, -7.7280808207625887e+02, -2.5274028816657929e+02], 
            "evaluate_dof_0": 3.0792300000000006e-01, 
            "evaluate_dof_1": 4.3028700000000003e-01, 
            "evaluate_dof_2": 7.7282099999999998e-01, 
            "evaluate_dof_3": 5.4295033219912670e-01, 
            "evaluate_dof_4": 6.5712833448268670e-01, 
            "evaluate_dof_5": 4.5463833182492674e-01, 
            "evaluate_dof_6": 6.0960433492424670e-01, 
            "evaluate_dof_7": 3.8108699943023999e-01, 
            "evaluate_dof_8": 4.2187500024600011e-01, 
            "evaluate_dof_9": 5.1498232303368663e-01, 
            "evaluate_dofs": [3.0792300000000006e-01, 4.3028700000000003e-01, 7.7282099999999998e-01, 5.4295033219912670e-01, 6.5712833448268670e-01, 4.5463833182492674e-01, 6.0960433492424670e-01, 3.8108699943023999e-01, 4.2187500024600011e-01, 5.1498232303368663e-01], 
            "interpolate_vertex_values": [3.0792300000000006e-01, 4.3028700000000003e-01, 7.7282099999999998e-01], 
            "num_sub_elements": 0, 
        },
        "finite_element_1": {
            "cell_shape": 1, 
            "space_dimension": 10, 
            "value_rank": 0, 
            "evaluate_basis:_0": [6.0722982439051840e+00], 
            "evaluate_basis:_1": [2.1002899274089625e+01], 
            "evaluate_basis:_2": [-1.0078178334052765e+02], 
            "evaluate_basis:_3": [-1.1575757274913173e+02], 
            "evaluate_basis:_4": [1.9358967788149991e+02], 
            "evaluate_basis:_5": [-5.6526177183805430e+01], 
            "evaluate_basis:_6": [1.4059601114040527e+02], 
            "evaluate_basis:_7": [4.5850460530414274e+01], 
            "evaluate_basis:_8": [6.8192139288041844e+01], 
            "evaluate_basis:_9": [-2.0123796306119272e+02], 
            "evaluate_basis_all": [6.0722982439051840e+00, 2.1002899274089625e+01, -1.0078178334052765e+02, -1.1575757274913173e+02, 1.9358967788149991e+02, -5.6526177183805430e+01, 1.4059601114040527e+02, 4.5850460530414274e+01, 6.8192139288041844e+01, -2.0123796306119272e+02], 
            "evaluate_basis_derivatives_0_0": [6.0722982439051840e+00], 
            "evaluate_basis_derivatives_0_1": [1.4549523648357052e+00, -3.8738173942949338e+01], 
            "evaluate_basis_derivatives_0_2": [2.2517983113039008e-01, -5.9952116341582098e+00, -5.9952138737826601e+00, 1.5962251471041640e+02], 
            "evaluate_basis_derivatives_1_0": [2.1002899274089625e+01], 
            "evaluate_basis_derivatives_1_1": [-9.0339140358869912e+01, 1.7168523258109502e+01], 
            "evaluate_basis_derivatives_1_2": [2.5557013907047858e+02, -4.8569889126034191e+01, -4.8569891733682937e+01, 9.2304792944223664e+00], 
            "evaluate_basis_derivatives_2_0": [-1.0078178334052765e+02], 
            "evaluate_basis_derivatives_2_1": [2.4556399463255994e+02, 1.9714292526839318e+02], 
            "evaluate_basis_derivatives_2_2": [-3.9702473739713201e+02, -3.1873816945966934e+02, -3.1873816945966934e+02, -2.5588838956621339e+02], 
            "evaluate_basis_derivatives_3_0": [-1.1575757274913173e+02], 
            "evaluate_basis_derivatives_3_1": [4.0223832397962019e+02, 2.8375066054096152e+01], 
            "evaluate_basis_derivatives_3_2": [-9.1822456132912828e+02, -9.4127199298078196e+01, -9.4127195042645369e+01, 6.8940525528829042e+01], 
            "evaluate_basis_derivatives_4_0": [1.9358967788149991e+02], 
            "evaluate_basis_derivatives_4_1": [-5.5816950723518983e+02, -2.2388011941666247e+02], 
            "evaluate_basis_derivatives_4_2": [1.0595198853725130e+03, 4.6567523868007549e+02, 4.6567523997067929e+02, 6.4827470645568326e+01], 
            "evaluate_basis_derivatives_5_0": [-5.6526177183805430e+01], 
            "evaluate_basis_derivatives_5_1": [4.4016566988246041e+01, 2.4203056336037747e+02], 
            "evaluate_basis_derivatives_5_2": [1.3251460854985680e+01, -1.6431469979116764e+02, -1.6431469336936505e+02, -6.4410514324719838e+02], 
            "evaluate_basis_derivatives_6_0": [1.4059601114040527e+02], 
            "evaluate_basis_derivatives_6_1": [-2.3318184069599377e+02, -4.1143011765485113e+02], 
            "evaluate_basis_derivatives_6_2": [1.7828690720619738e+02, 5.2805697508029755e+02, 5.2805697378969376e+02, 7.3295754603529440e+02], 
            "evaluate_basis_derivatives_7_0": [4.5850460530414274e+01], 
            "evaluate_basis_derivatives_7_1": [-4.7376048978556113e+01, -1.5258395589866456e+02], 
            "evaluate_basis_derivatives_7_2": [-1.3861092576563408e+01, 1.8054511524733340e+02, 1.8054511624316763e+02, 2.1197021864520147e+02], 
            "evaluate_basis_derivatives_8_0": [6.8192139288041844e+01], 
            "evaluate_basis_derivatives_8_1": [-1.7079926522726709e+02, -7.2358951520606468e+01], 
            "evaluate_basis_derivatives_8_2": [2.0182311905165537e+02, 2.3027588250542163e+02, 2.3027588635686067e+02, -9.4814957317982916e+01], 
            "evaluate_basis_derivatives_9_0": [-2.0123796306119272e+02], 
            "evaluate_basis_derivatives_9_1": [4.0659198793036455e+02, 4.1427425927847219e+02], 
            "evaluate_basis_derivatives_9_2": [-3.7956633644984214e+02, -7.7280807139902345e+02, -7.7280808207625887e+02, -2.5274028816657929e+02], 
            "evaluate_basis_derivatives_all_0": [6.0722982439051840e+00, 2.1002899274089625e+01, -1.0078178334052765e+02, -1.1575757274913173e+02, 1.9358967788149991e+02, -5.6526177183805430e+01, 1.4059601114040527e+02, 4.5850460530414274e+01, 6.8192139288041844e+01, -2.0123796306119272e+02], 
            "evaluate_basis_derivatives_all_1": [1.4549523648357052e+00, -3.8738173942949338e+01, -9.0339140358869912e+01, 1.7168523258109502e+01, 2.4556399463255994e+02, 1.9714292526839318e+02, 4.0223832397962019e+02, 2.8375066054096152e+01, -5.5816950723518983e+02, -2.2388011941666247e+02, 4.4016566988246041e+01, 2.4203056336037747e+02, -2.3318184069599377e+02, -4.1143011765485113e+02, -4.7376048978556113e+01, -1.5258395589866456e+02, -1.7079926522726709e+02, -7.2358951520606468e+01, 4.0659198793036455e+02, 4.1427425927847219e+02], 
            "evaluate_basis_derivatives_all_2": [2.2517983113039008e-01, -5.9952116341582098e+00, -5.9952138737826601e+00, 1.5962251471041640e+02, 2.5557013907047858e+02, -4.8569889126034191e+01, -4.8569891733682937e+01, 9.2304792944223664e+00, -3.9702473739713201e+02, -3.1873816945966934e+02, -3.1873816945966934e+02, -2.5588838956621339e+02, -9.1822456132912828e+02, -9.4127199298078196e+01, -9.4127195042645369e+01, 6.8940525528829042e+01, 1.0595198853725130e+03, 4.6567523868007549e+02, 4.6567523997067929e+02, 6.4827470645568326e+01, 1.3251460854985680e+01, -1.6431469979116764e+02, -1.6431469336936505e+02, -6.4410514324719838e+02, 1.7828690720619738e+02, 5.2805697508029755e+02, 5.2805697378969376e+02, 7.3295754603529440e+02, -1.3861092576563408e+01, 1.8054511524733340e+02, 1.8054511624316763e+02, 2.1197021864520147e+02, 2.0182311905165537e+02, 2.3027588250542163e+02, 2.3027588635686067e+02, -9.4814957317982916e+01, -3.7956633644984214e+02, -7.7280807139902345e+02, -7.7280808207625887e+02, -2.5274028816657929e+02], 
            "evaluate_dof_0": 3.0792300000000006e-01, 
            "evaluate_dof_1": 4.3028700000000003e-01, 
            "evaluate_dof_2": 7.7282099999999998e-01, 
            "evaluate_dof_3": 5.4295033219912670e-01, 
            "evaluate_dof_4": 6.5712833448268670e-01, 
            "evaluate_dof_5": 4.5463833182492674e-01, 
            "evaluate_dof_6": 6.0960433492424670e-01, 
            "evaluate_dof_7": 3.8108699943023999e-01, 
            "evaluate_dof_8": 4.2187500024600011e-01, 
            "evaluate_dof_9": 5.1498232303368663e-01, 
            "evaluate_dofs": [3.0792300000000006e-01, 4.3028700000000003e-01, 7.7282099999999998e-01, 5.4295033219912670e-01, 6.5712833448268670e-01, 4.5463833182492674e-01, 6.0960433492424670e-01, 3.8108699943023999e-01, 4.2187500024600011e-01, 5.1498232303368663e-01], 
            "interpolate_vertex_values": [3.0792300000000006e-01, 4.3028700000000003e-01, 7.7282099999999998e-01], 
            "num_sub_elements": 0, 
        },
        "dofmap_0": {
            "needs_mesh_entities_0": 1, 
            "needs_mesh_entities_1": 1, 
            "needs_mesh_entities_2": 1, 
            "global_dimension": 40008, 
            "local_dimension": 10, 
            "geometric_dimension": 2, 
            "num_facet_dofs": 4, 
            "num_entity_dofs_0": 1, 
            "num_entity_dofs_1": 2, 
            "num_entity_dofs_2": 1, 
            "tabulate_dofs": [0, 0, 0, 10001, 10002, 10003, 10004, 10005, 10006, 30005], 
            "tabulate_facet_dofs_0": [1, 2, 3, 4], 
            "tabulate_facet_dofs_1": [0, 2, 5, 6], 
            "tabulate_facet_dofs_2": [0, 1, 7, 8], 
            "tabulate_entity_dofs_0_0": [0], 
            "tabulate_entity_dofs_0_1": [1], 
            "tabulate_entity_dofs_0_2": [2], 
            "tabulate_entity_dofs_1_0": [3, 4], 
            "tabulate_entity_dofs_1_1": [5, 6], 
            "tabulate_entity_dofs_1_2": [7, 8], 
            "tabulate_entity_dofs_2_0": [9], 
            "tabulate_coordinates_0": [9.0300000000000002e-01, 3.4100000000000003e-01], 
            "tabulate_coordinates_1": [5.6100000000000005e-01, 7.6700000000000002e-01], 
            "tabulate_coordinates_2": [9.8699999999999999e-01, 7.8300000000000003e-01], 
            "tabulate_coordinates_3": [7.0299999857999995e-01, 7.7233333328000009e-01], 
            "tabulate_coordinates_4": [8.4500000141999998e-01, 7.7766666672000007e-01], 
            "tabulate_coordinates_5": [9.3099999972000003e-01, 4.8833333186000005e-01], 
            "tabulate_coordinates_6": [9.5900000027999999e-01, 6.3566666814000006e-01], 
            "tabulate_coordinates_7": [7.8900000114000002e-01, 4.8299999857999998e-01], 
            "tabulate_coordinates_8": [6.7499999886000006e-01, 6.2500000142000012e-01], 
            "tabulate_coordinates_9": [8.1699999182999994e-01, 6.3033332703000000e-01], 
            "num_sub_dofmaps": 0, 
        },
        "dofmap_1": {
            "needs_mesh_entities_0": 1, 
            "needs_mesh_entities_1": 1, 
            "needs_mesh_entities_2": 1, 
            "global_dimension": 40008, 
            "local_dimension": 10, 
            "geometric_dimension": 2, 
            "num_facet_dofs": 4, 
            "num_entity_dofs_0": 1, 
            "num_entity_dofs_1": 2, 
            "num_entity_dofs_2": 1, 
            "tabulate_dofs": [0, 0, 0, 10001, 10002, 10003, 10004, 10005, 10006, 30005], 
            "tabulate_facet_dofs_0": [1, 2, 3, 4], 
            "tabulate_facet_dofs_1": [0, 2, 5, 6], 
            "tabulate_facet_dofs_2": [0, 1, 7, 8], 
            "tabulate_entity_dofs_0_0": [0], 
            "tabulate_entity_dofs_0_1": [1], 
            "tabulate_entity_dofs_0_2": [2], 
            "tabulate_entity_dofs_1_0": [3, 4], 
            "tabulate_entity_dofs_1_1": [5, 6], 
            "tabulate_entity_dofs_1_2": [7, 8], 
            "tabulate_entity_dofs_2_0": [9], 
            "tabulate_coordinates_0": [9.0300000000000002e-01, 3.4100000000000003e-01], 
            "tabulate_coordinates_1": [5.6100000000000005e-01, 7.6700000000000002e-01], 
            "tabulate_coordinates_2": [9.8699999999999999e-01, 7.8300000000000003e-01], 
            "tabulate_coordinates_3": [7.0299999857999995e-01, 7.7233333328000009e-01], 
            "tabulate_coordinates_4": [8.4500000141999998e-01, 7.7766666672000007e-01], 
            "tabulate_coordinates_5": [9.3099999972000003e-01, 4.8833333186000005e-01], 
            "tabulate_coordinates_6": [9.5900000027999999e-01, 6.3566666814000006e-01], 
            "tabulate_coordinates_7": [7.8900000114000002e-01, 4.8299999857999998e-01], 
            "tabulate_coordinates_8": [6.7499999886000006e-01, 6.2500000142000012e-01], 
            "tabulate_coordinates_9": [8.1699999182999994e-01, 6.3033332703000000e-01], 
            "num_sub_dofmaps": 0, 
        },
        "default_cell_integral": 1, 
        "cell_integral": {
            "tabulate_tensor": [1.3715083422665151e-03, 1.5871105753046180e-03, 1.8027128083427204e-03, 4.1437358381908214e-03, 4.2814430610750688e-03, 5.0951676295296899e-03, 5.0325734164348391e-03, 5.8462979848894602e-03, 5.9840052077737077e-03, 3.6129370516161288e-02], 
        },
        "default_exterior_facet_integral": 0, 
        "default_interior_facet_integral": 0, 
        "default_point_integral": 0, 
    },
}
