{
    "form_0": {
        "num_coefficients": 0, 
        "has_cell_integrals": 1, 
        "has_exterior_facet_integrals": 0, 
        "has_interior_facet_integrals": 0, 
        "has_point_integrals": 0, 
        "num_cell_domains": 0, 
        "num_exterior_facet_domains": 0, 
        "num_interior_facet_domains": 0, 
        "num_point_domains": 0, 
        "finite_element_0": {
            "cell_shape": 1, 
            "space_dimension": 4, 
            "value_rank": 1, 
            "value_dimension_0": 4, 
            "evaluate_basis:_0": [4.3487018191378013e-01, 2.3629580674572376e-01, -7.2524354460797602e-01, 0.0], 
            "evaluate_basis:_1": [5.6668428968355777e-01, -1.4838461134722323e+00, -3.7588066977974038e-01, 0.0], 
            "evaluate_basis:_2": [6.8086601704295080e-01, 1.5307024630206463e+00, -1.5042303558503498e+00, 0.0], 
            "evaluate_basis:_3": [0.0, 0.0, 1.0000000000000000e+00, 0.0], 
            "evaluate_basis_all": [4.3487018191378013e-01, 2.3629580674572376e-01, -7.2524354460797602e-01, 0.0, 5.6668428968355777e-01, -1.4838461134722323e+00, -3.7588066977974038e-01, 0.0, 6.8086601704295080e-01, 1.5307024630206463e+00, -1.5042303558503498e+00, 0.0, 0.0, 0.0, 1.0000000000000000e+00, 0.0], 
            "evaluate_basis_derivatives_0_0": [4.3487018191378013e-01, 2.3629580674572376e-01, -7.2524354460797602e-01, 0.0], 
            "evaluate_basis_derivatives_0_1": [-9.6636422995587590e-01, 4.1690614724747826e-01, 1.3123826460500978e+00, 4.1690620382302934e-01, -2.8399403207185077e+00, 2.7884629174242881e-01, 1.3123826280776734e+00, 2.7884637632915377e-01, -2.0507390943266048e+00, 0.0, 0.0, 0.0], 
            "evaluate_basis_derivatives_0_2": [0.0, 0.0, 0.0, 0.0, 0.0, 0.0, 0.0, 0.0, 0.0, 0.0, 0.0, 0.0, 0.0, 0.0, 0.0, 0.0, 0.0, 0.0, 0.0, 0.0, 0.0, 0.0, 0.0, 0.0, 0.0, 0.0, 0.0, 0.0, 0.0, 0.0, 0.0, 0.0, 0.0, 0.0, 0.0, 0.0], 
            "evaluate_basis_derivatives_1_0": [5.6668428968355777e-01, -1.4838461134722323e+00, -3.7588066977974038e-01, 0.0], 
            "evaluate_basis_derivatives_1_1": [9.6636422995587590e-01, -4.1690614724747826e-01, -1.3123826460500978e+00, -4.1690620382302934e-01, 2.8399403207185077e+00, -2.7884629174242881e-01, -1.3123826280776734e+00, -2.7884637632915377e-01, 2.0507390943266048e+00, 0.0, 0.0, 0.0], 
            "evaluate_basis_derivatives_1_2": [0.0, 0.0, 0.0, 0.0, 0.0, 0.0, 0.0, 0.0, 0.0, 0.0, 0.0, 0.0, 0.0, 0.0, 0.0, 0.0, 0.0, 0.0, 0.0, 0.0, 0.0, 0.0, 0.0, 0.0, 0.0, 0.0, 0.0, 0.0, 0.0, 0.0, 0.0, 0.0, 0.0, 0.0, 0.0, 0.0], 
            "evaluate_basis_derivatives_2_0": [6.8086601704295080e-01, 1.5307024630206463e+00, -1.5042303558503498e+00, 0.0], 
            "evaluate_basis_derivatives_2_1": [-9.6636422995587590e-01, 4.1690614724747826e-01, 1.3123826460500978e+00, 4.1690620382302934e-01, -2.8399403207185077e+00, 2.7884629174242881e-01, 1.3123826280776734e+00, 2.7884637632915377e-01, -2.0507390943266048e+00, 0.0, 0.0, 0.0], 
            "evaluate_basis_derivatives_2_2": [0.0, 0.0, 0.0, 0.0, 0.0, 0.0, 0.0, 0.0, 0.0, 0.0, 0.0, 0.0, 0.0, 0.0, 0.0, 0.0, 0.0, 0.0, 0.0, 0.0, 0.0, 0.0, 0.0, 0.0, 0.0, 0.0, 0.0, 0.0, 0.0, 0.0, 0.0, 0.0, 0.0, 0.0, 0.0, 0.0], 
            "evaluate_basis_derivatives_3_0": [0.0, 0.0, 1.0000000000000000e+00, 0.0], 
            "evaluate_basis_derivatives_3_1": [0.0, 0.0, 0.0, 0.0, 0.0, 0.0, 0.0, 0.0, 0.0, 0.0, 0.0, 0.0], 
            "evaluate_basis_derivatives_3_2": [0.0, 0.0, 0.0, 0.0, 0.0, 0.0, 0.0, 0.0, 0.0, 0.0, 0.0, 0.0, 0.0, 0.0, 0.0, 0.0, 0.0, 0.0, 0.0, 0.0, 0.0, 0.0, 0.0, 0.0, 0.0, 0.0, 0.0, 0.0, 0.0, 0.0, 0.0, 0.0, 0.0, 0.0, 0.0, 0.0], 
            "evaluate_basis_derivatives_all_0": [4.3487018191378013e-01, 2.3629580674572376e-01, -7.2524354460797602e-01, 0.0, 5.6668428968355777e-01, -1.4838461134722323e+00, -3.7588066977974038e-01, 0.0, 6.8086601704295080e-01, 1.5307024630206463e+00, -1.5042303558503498e+00, 0.0, 0.0, 0.0, 1.0000000000000000e+00, 0.0], 
            "evaluate_basis_derivatives_all_1": [-9.6636422995587590e-01, 4.1690614724747826e-01, 1.3123826460500978e+00, 4.1690620382302934e-01, -2.8399403207185077e+00, 2.7884629174242881e-01, 1.3123826280776734e+00, 2.7884637632915377e-01, -2.0507390943266048e+00, 0.0, 0.0, 0.0, 9.6636422995587590e-01, -4.1690614724747826e-01, -1.3123826460500978e+00, -4.1690620382302934e-01, 2.8399403207185077e+00, -2.7884629174242881e-01, -1.3123826280776734e+00, -2.7884637632915377e-01, 2.0507390943266048e+00, 0.0, 0.0, 0.0, -9.6636422995587590e-01, 4.1690614724747826e-01, 1.3123826460500978e+00, 4.1690620382302934e-01, -2.8399403207185077e+00, 2.7884629174242881e-01, 1.3123826280776734e+00, 2.7884637632915377e-01, -2.0507390943266048e+00, 0.0, 0.0, 0.0, 0.0, 0.0, 0.0, 0.0, 0.0, 0.0, 0.0, 0.0, 0.0, 0.0, 0.0, 0.0], 
            "evaluate_basis_derivatives_all_2": [0.0, 0.0, 0.0, 0.0, 0.0, 0.0, 0.0, 0.0, 0.0, 0.0, 0.0, 0.0, 0.0, 0.0, 0.0, 0.0, 0.0, 0.0, 0.0, 0.0, 0.0, 0.0, 0.0, 0.0, 0.0, 0.0, 0.0, 0.0, 0.0, 0.0, 0.0, 0.0, 0.0, 0.0, 0.0, 0.0, 0.0, 0.0, 0.0, 0.0, 0.0, 0.0, 0.0, 0.0, 0.0, 0.0, 0.0, 0.0, 0.0, 0.0, 0.0, 0.0, 0.0, 0.0, 0.0, 0.0, 0.0, 0.0, 0.0, 0.0, 0.0, 0.0, 0.0, 0.0, 0.0, 0.0, 0.0, 0.0, 0.0, 0.0, 0.0, 0.0, 0.0, 0.0, 0.0, 0.0, 0.0, 0.0, 0.0, 0.0, 0.0, 0.0, 0.0, 0.0, 0.0, 0.0, 0.0, 0.0, 0.0, 0.0, 0.0, 0.0, 0.0, 0.0, 0.0, 0.0, 0.0, 0.0, 0.0, 0.0, 0.0, 0.0, 0.0, 0.0, 0.0, 0.0, 0.0, 0.0, 0.0, 0.0, 0.0, 0.0, 0.0, 0.0, 0.0, 0.0, 0.0, 0.0, 0.0, 0.0, 0.0, 0.0, 0.0, 0.0, 0.0, 0.0, 0.0, 0.0, 0.0, 0.0, 0.0, 0.0, 0.0, 0.0, 0.0, 0.0, 0.0, 0.0, 0.0, 0.0, 0.0, 0.0, 0.0, 0.0], 
            "evaluate_dof_0": -1.3214417072408602e+00, 
            "evaluate_dof_1": -1.9264611723259857e+00, 
            "evaluate_dof_2": -1.8029583011621708e+00, 
            "evaluate_dof_3": 1.6270694672768037e+01, 
            "evaluate_dofs": [-1.3214417072408602e+00, -1.9264611723259857e+00, -1.8029583011621708e+00, 1.6270694672768037e+01], 
            "interpolate_vertex_values": [0.0, 0.0, 0.0, 0.0, 0.0, 0.0, 0.0, 0.0, 0.0, 0.0, 0.0, 0.0], 
            "num_sub_elements": 2, 
            "finite_element_0": {
                "cell_shape": 1, 
                "space_dimension": 3, 
                "value_rank": 1, 
                "value_dimension_0": 3, 
                "evaluate_basis:_0": [4.3487018191378013e-01, 2.3629580674572376e-01, -7.2524354460797602e-01], 
                "evaluate_basis:_1": [5.6668428968355777e-01, -1.4838461134722323e+00, -3.7588066977974038e-01], 
                "evaluate_basis:_2": [6.8086601704295080e-01, 1.5307024630206463e+00, -1.5042303558503498e+00], 
                "evaluate_basis_all": [4.3487018191378013e-01, 2.3629580674572376e-01, -7.2524354460797602e-01, 5.6668428968355777e-01, -1.4838461134722323e+00, -3.7588066977974038e-01, 6.8086601704295080e-01, 1.5307024630206463e+00, -1.5042303558503498e+00], 
                "evaluate_basis_derivatives_0_0": [4.3487018191378013e-01, 2.3629580674572376e-01, -7.2524354460797602e-01], 
                "evaluate_basis_derivatives_0_1": [-9.6636422995587590e-01, 4.1690614724747826e-01, 1.3123826460500978e+00, 4.1690620382302934e-01, -2.8399403207185077e+00, 2.7884629174242881e-01, 1.3123826280776734e+00, 2.7884637632915377e-01, -2.0507390943266048e+00], 
                "evaluate_basis_derivatives_0_2": [0.0, 0.0, 0.0, 0.0, 0.0, 0.0, 0.0, 0.0, 0.0, 0.0, 0.0, 0.0, 0.0, 0.0, 0.0, 0.0, 0.0, 0.0, 0.0, 0.0, 0.0, 0.0, 0.0, 0.0, 0.0, 0.0, 0.0], 
                "evaluate_basis_derivatives_1_0": [5.6668428968355777e-01, -1.4838461134722323e+00, -3.7588066977974038e-01], 
                "evaluate_basis_derivatives_1_1": [9.6636422995587590e-01, -4.1690614724747826e-01, -1.3123826460500978e+00, -4.1690620382302934e-01, 2.8399403207185077e+00, -2.7884629174242881e-01, -1.3123826280776734e+00, -2.7884637632915377e-01, 2.0507390943266048e+00], 
                "evaluate_basis_derivatives_1_2": [0.0, 0.0, 0.0, 0.0, 0.0, 0.0, 0.0, 0.0, 0.0, 0.0, 0.0, 0.0, 0.0, 0.0, 0.0, 0.0, 0.0, 0.0, 0.0, 0.0, 0.0, 0.0, 0.0, 0.0, 0.0, 0.0, 0.0], 
                "evaluate_basis_derivatives_2_0": [6.8086601704295080e-01, 1.5307024630206463e+00, -1.5042303558503498e+00], 
                "evaluate_basis_derivatives_2_1": [-9.6636422995587590e-01, 4.1690614724747826e-01, 1.3123826460500978e+00, 4.1690620382302934e-01, -2.8399403207185077e+00, 2.7884629174242881e-01, 1.3123826280776734e+00, 2.7884637632915377e-01, -2.0507390943266048e+00], 
                "evaluate_basis_derivatives_2_2": [0.0, 0.0, 0.0, 0.0, 0.0, 0.0, 0.0, 0.0, 0.0, 0.0, 0.0, 0.0, 0.0, 0.0, 0.0, 0.0, 0.0, 0.0, 0.0, 0.0, 0.0, 0.0, 0.0, 0.0, 0.0, 0.0, 0.0], 
                "evaluate_basis_derivatives_all_0": [4.3487018191378013e-01, 2.3629580674572376e-01, -7.2524354460797602e-01, 5.6668428968355777e-01, -1.4838461134722323e+00, -3.7588066977974038e-01, 6.8086601704295080e-01, 1.5307024630206463e+00, -1.5042303558503498e+00], 
                "evaluate_basis_derivatives_all_1": [-9.6636422995587590e-01, 4.1690614724747826e-01, 1.3123826460500978e+00, 4.1690620382302934e-01, -2.8399403207185077e+00, 2.7884629174242881e-01, 1.3123826280776734e+00, 2.7884637632915377e-01, -2.0507390943266048e+00, 9.6636422995587590e-01, -4.1690614724747826e-01, -1.3123826460500978e+00, -4.1690620382302934e-01, 2.8399403207185077e+00, -2.7884629174242881e-01, -1.3123826280776734e+00, -2.7884637632915377e-01, 2.0507390943266048e+00, -9.6636422995587590e-01, 4.1690614724747826e-01, 1.3123826460500978e+00, 4.1690620382302934e-01, -2.8399403207185077e+00, 2.7884629174242881e-01, 1.3123826280776734e+00, 2.7884637632915377e-01, -2.0507390943266048e+00], 
                "evaluate_basis_derivatives_all_2": [0.0, 0.0, 0.0, 0.0, 0.0, 0.0, 0.0, 0.0, 0.0, 0.0, 0.0, 0.0, 0.0, 0.0, 0.0, 0.0, 0.0, 0.0, 0.0, 0.0, 0.0, 0.0, 0.0, 0.0, 0.0, 0.0, 0.0, 0.0, 0.0, 0.0, 0.0, 0.0, 0.0, 0.0, 0.0, 0.0, 0.0, 0.0, 0.0, 0.0, 0.0, 0.0, 0.0, 0.0, 0.0, 0.0, 0.0, 0.0, 0.0, 0.0, 0.0, 0.0, 0.0, 0.0, 0.0, 0.0, 0.0, 0.0, 0.0, 0.0, 0.0, 0.0, 0.0, 0.0, 0.0, 0.0, 0.0, 0.0, 0.0, 0.0, 0.0, 0.0, 0.0, 0.0, 0.0, 0.0, 0.0, 0.0, 0.0, 0.0, 0.0], 
                "evaluate_dof_0": -1.3214417072408602e+00, 
                "evaluate_dof_1": -1.9264611723259857e+00, 
                "evaluate_dof_2": -1.8029583011621708e+00, 
                "evaluate_dofs": [-1.3214417072408602e+00, -1.9264611723259857e+00, -1.8029583011621708e+00], 
                "interpolate_vertex_values": [-2.3729760384811280e+00, 6.9596000538337588e-02, 3.5257537886675037e+00, -3.5727770384675073e+00, 1.5640849654336517e+00, 4.8448332506408320e+00, -2.0782880735721934e+00, 1.6202160063686870e+00, 2.5925752331225418e+00], 
                "num_sub_elements": 0, 
            },
            "finite_element_1": {
                "cell_shape": 1, 
                "space_dimension": 1, 
                "value_rank": 0, 
                "evaluate_basis:_0": [1.0000000000000000e+00], 
                "evaluate_basis_all": [1.0000000000000000e+00], 
                "evaluate_basis_derivatives_0_0": [1.0000000000000000e+00], 
                "evaluate_basis_derivatives_0_1": [0.0, 0.0, 0.0], 
                "evaluate_basis_derivatives_0_2": [0.0, 0.0, 0.0, 0.0, 0.0, 0.0, 0.0, 0.0, 0.0], 
                "evaluate_basis_derivatives_all_0": [1.0000000000000000e+00], 
                "evaluate_basis_derivatives_all_1": [0.0, 0.0, 0.0], 
                "evaluate_basis_derivatives_all_2": [0.0, 0.0, 0.0, 0.0, 0.0, 0.0, 0.0, 0.0, 0.0], 
                "evaluate_dof_0": 2.5422960426200059e-01, 
                "evaluate_dofs": [2.5422960426200059e-01], 
                "interpolate_vertex_values": [2.5422960426200059e-01, 2.5422960426200059e-01, 2.5422960426200059e-01], 
                "num_sub_elements": 0, 
            },
        },
        "finite_element_1": {
            "cell_shape": 1, 
            "space_dimension": 4, 
            "value_rank": 1, 
            "value_dimension_0": 4, 
            "evaluate_basis:_0": [4.3487018191378013e-01, 2.3629580674572376e-01, -7.2524354460797602e-01, 0.0], 
            "evaluate_basis:_1": [5.6668428968355777e-01, -1.4838461134722323e+00, -3.7588066977974038e-01, 0.0], 
            "evaluate_basis:_2": [6.8086601704295080e-01, 1.5307024630206463e+00, -1.5042303558503498e+00, 0.0], 
            "evaluate_basis:_3": [0.0, 0.0, 1.0000000000000000e+00, 0.0], 
            "evaluate_basis_all": [4.3487018191378013e-01, 2.3629580674572376e-01, -7.2524354460797602e-01, 0.0, 5.6668428968355777e-01, -1.4838461134722323e+00, -3.7588066977974038e-01, 0.0, 6.8086601704295080e-01, 1.5307024630206463e+00, -1.5042303558503498e+00, 0.0, 0.0, 0.0, 1.0000000000000000e+00, 0.0], 
            "evaluate_basis_derivatives_0_0": [4.3487018191378013e-01, 2.3629580674572376e-01, -7.2524354460797602e-01, 0.0], 
            "evaluate_basis_derivatives_0_1": [-9.6636422995587590e-01, 4.1690614724747826e-01, 1.3123826460500978e+00, 4.1690620382302934e-01, -2.8399403207185077e+00, 2.7884629174242881e-01, 1.3123826280776734e+00, 2.7884637632915377e-01, -2.0507390943266048e+00, 0.0, 0.0, 0.0], 
            "evaluate_basis_derivatives_0_2": [0.0, 0.0, 0.0, 0.0, 0.0, 0.0, 0.0, 0.0, 0.0, 0.0, 0.0, 0.0, 0.0, 0.0, 0.0, 0.0, 0.0, 0.0, 0.0, 0.0, 0.0, 0.0, 0.0, 0.0, 0.0, 0.0, 0.0, 0.0, 0.0, 0.0, 0.0, 0.0, 0.0, 0.0, 0.0, 0.0], 
            "evaluate_basis_derivatives_1_0": [5.6668428968355777e-01, -1.4838461134722323e+00, -3.7588066977974038e-01, 0.0], 
            "evaluate_basis_derivatives_1_1": [9.6636422995587590e-01, -4.1690614724747826e-01, -1.3123826460500978e+00, -4.1690620382302934e-01, 2.8399403207185077e+00, -2.7884629174242881e-01, -1.3123826280776734e+00, -2.7884637632915377e-01, 2.0507390943266048e+00, 0.0, 0.0, 0.0], 
            "evaluate_basis_derivatives_1_2": [0.0, 0.0, 0.0, 0.0, 0.0, 0.0, 0.0, 0.0, 0.0, 0.0, 0.0, 0.0, 0.0, 0.0, 0.0, 0.0, 0.0, 0.0, 0.0, 0.0, 0.0, 0.0, 0.0, 0.0, 0.0, 0.0, 0.0, 0.0, 0.0, 0.0, 0.0, 0.0, 0.0, 0.0, 0.0, 0.0], 
            "evaluate_basis_derivatives_2_0": [6.8086601704295080e-01, 1.5307024630206463e+00, -1.5042303558503498e+00, 0.0], 
            "evaluate_basis_derivatives_2_1": [-9.6636422995587590e-01, 4.1690614724747826e-01, 1.3123826460500978e+00, 4.1690620382302934e-01, -2.8399403207185077e+00, 2.7884629174242881e-01, 1.3123826280776734e+00, 2.7884637632915377e-01, -2.0507390943266048e+00, 0.0, 0.0, 0.0], 
            "evaluate_basis_derivatives_2_2": [0.0, 0.0, 0.0, 0.0, 0.0, 0.0, 0.0, 0.0, 0.0, 0.0, 0.0, 0.0, 0.0, 0.0, 0.0, 0.0, 0.0, 0.0, 0.0, 0.0, 0.0, 0.0, 0.0, 0.0, 0.0, 0.0, 0.0, 0.0, 0.0, 0.0, 0.0, 0.0, 0.0, 0.0, 0.0, 0.0], 
            "evaluate_basis_derivatives_3_0": [0.0, 0.0, 1.0000000000000000e+00, 0.0], 
            "evaluate_basis_derivatives_3_1": [0.0, 0.0, 0.0, 0.0, 0.0, 0.0, 0.0, 0.0, 0.0, 0.0, 0.0, 0.0], 
            "evaluate_basis_derivatives_3_2": [0.0, 0.0, 0.0, 0.0, 0.0, 0.0, 0.0, 0.0, 0.0, 0.0, 0.0, 0.0, 0.0, 0.0, 0.0, 0.0, 0.0, 0.0, 0.0, 0.0, 0.0, 0.0, 0.0, 0.0, 0.0, 0.0, 0.0, 0.0, 0.0, 0.0, 0.0, 0.0, 0.0, 0.0, 0.0, 0.0], 
            "evaluate_basis_derivatives_all_0": [4.3487018191378013e-01, 2.3629580674572376e-01, -7.2524354460797602e-01, 0.0, 5.6668428968355777e-01, -1.4838461134722323e+00, -3.7588066977974038e-01, 0.0, 6.8086601704295080e-01, 1.5307024630206463e+00, -1.5042303558503498e+00, 0.0, 0.0, 0.0, 1.0000000000000000e+00, 0.0], 
            "evaluate_basis_derivatives_all_1": [-9.6636422995587590e-01, 4.1690614724747826e-01, 1.3123826460500978e+00, 4.1690620382302934e-01, -2.8399403207185077e+00, 2.7884629174242881e-01, 1.3123826280776734e+00, 2.7884637632915377e-01, -2.0507390943266048e+00, 0.0, 0.0, 0.0, 9.6636422995587590e-01, -4.1690614724747826e-01, -1.3123826460500978e+00, -4.1690620382302934e-01, 2.8399403207185077e+00, -2.7884629174242881e-01, -1.3123826280776734e+00, -2.7884637632915377e-01, 2.0507390943266048e+00, 0.0, 0.0, 0.0, -9.6636422995587590e-01, 4.1690614724747826e-01, 1.3123826460500978e+00, 4.1690620382302934e-01, -2.8399403207185077e+00, 2.7884629174242881e-01, 1.3123826280776734e+00, 2.7884637632915377e-01, -2.0507390943266048e+00, 0.0, 0.0, 0.0, 0.0, 0.0, 0.0, 0.0, 0.0, 0.0, 0.0, 0.0, 0.0, 0.0, 0.0, 0.0], 
            "evaluate_basis_derivatives_all_2": [0.0, 0.0, 0.0, 0.0, 0.0, 0.0, 0.0, 0.0, 0.0, 0.0, 0.0, 0.0, 0.0, 0.0, 0.0, 0.0, 0.0, 0.0, 0.0, 0.0, 0.0, 0.0, 0.0, 0.0, 0.0, 0.0, 0.0, 0.0, 0.0, 0.0, 0.0, 0.0, 0.0, 0.0, 0.0, 0.0, 0.0, 0.0, 0.0, 0.0, 0.0, 0.0, 0.0, 0.0, 0.0, 0.0, 0.0, 0.0, 0.0, 0.0, 0.0, 0.0, 0.0, 0.0, 0.0, 0.0, 0.0, 0.0, 0.0, 0.0, 0.0, 0.0, 0.0, 0.0, 0.0, 0.0, 0.0, 0.0, 0.0, 0.0, 0.0, 0.0, 0.0, 0.0, 0.0, 0.0, 0.0, 0.0, 0.0, 0.0, 0.0, 0.0, 0.0, 0.0, 0.0, 0.0, 0.0, 0.0, 0.0, 0.0, 0.0, 0.0, 0.0, 0.0, 0.0, 0.0, 0.0, 0.0, 0.0, 0.0, 0.0, 0.0, 0.0, 0.0, 0.0, 0.0, 0.0, 0.0, 0.0, 0.0, 0.0, 0.0, 0.0, 0.0, 0.0, 0.0, 0.0, 0.0, 0.0, 0.0, 0.0, 0.0, 0.0, 0.0, 0.0, 0.0, 0.0, 0.0, 0.0, 0.0, 0.0, 0.0, 0.0, 0.0, 0.0, 0.0, 0.0, 0.0, 0.0, 0.0, 0.0, 0.0, 0.0, 0.0], 
            "evaluate_dof_0": -1.3214417072408602e+00, 
            "evaluate_dof_1": -1.9264611723259857e+00, 
            "evaluate_dof_2": -1.8029583011621708e+00, 
            "evaluate_dof_3": 1.6270694672768037e+01, 
            "evaluate_dofs": [-1.3214417072408602e+00, -1.9264611723259857e+00, -1.8029583011621708e+00, 1.6270694672768037e+01], 
            "interpolate_vertex_values": [0.0, 0.0, 0.0, 0.0, 0.0, 0.0, 0.0, 0.0, 0.0, 0.0, 0.0, 0.0], 
            "num_sub_elements": 2, 
            "finite_element_0": {
                "cell_shape": 1, 
                "space_dimension": 3, 
                "value_rank": 1, 
                "value_dimension_0": 3, 
                "evaluate_basis:_0": [4.3487018191378013e-01, 2.3629580674572376e-01, -7.2524354460797602e-01], 
                "evaluate_basis:_1": [5.6668428968355777e-01, -1.4838461134722323e+00, -3.7588066977974038e-01], 
                "evaluate_basis:_2": [6.8086601704295080e-01, 1.5307024630206463e+00, -1.5042303558503498e+00], 
                "evaluate_basis_all": [4.3487018191378013e-01, 2.3629580674572376e-01, -7.2524354460797602e-01, 5.6668428968355777e-01, -1.4838461134722323e+00, -3.7588066977974038e-01, 6.8086601704295080e-01, 1.5307024630206463e+00, -1.5042303558503498e+00], 
                "evaluate_basis_derivatives_0_0": [4.3487018191378013e-01, 2.3629580674572376e-01, -7.2524354460797602e-01], 
                "evaluate_basis_derivatives_0_1": [-9.6636422995587590e-01, 4.1690614724747826e-01, 1.3123826460500978e+00, 4.1690620382302934e-01, -2.8399403207185077e+00, 2.7884629174242881e-01, 1.3123826280776734e+00, 2.7884637632915377e-01, -2.0507390943266048e+00], 
                "evaluate_basis_derivatives_0_2": [0.0, 0.0, 0.0, 0.0, 0.0, 0.0, 0.0, 0.0, 0.0, 0.0, 0.0, 0.0, 0.0, 0.0, 0.0, 0.0, 0.0, 0.0, 0.0, 0.0, 0.0, 0.0, 0.0, 0.0, 0.0, 0.0, 0.0], 
                "evaluate_basis_derivatives_1_0": [5.6668428968355777e-01, -1.4838461134722323e+00, -3.7588066977974038e-01], 
                "evaluate_basis_derivatives_1_1": [9.6636422995587590e-01, -4.1690614724747826e-01, -1.3123826460500978e+00, -4.1690620382302934e-01, 2.8399403207185077e+00, -2.7884629174242881e-01, -1.3123826280776734e+00, -2.7884637632915377e-01, 2.0507390943266048e+00], 
                "evaluate_basis_derivatives_1_2": [0.0, 0.0, 0.0, 0.0, 0.0, 0.0, 0.0, 0.0, 0.0, 0.0, 0.0, 0.0, 0.0, 0.0, 0.0, 0.0, 0.0, 0.0, 0.0, 0.0, 0.0, 0.0, 0.0, 0.0, 0.0, 0.0, 0.0], 
                "evaluate_basis_derivatives_2_0": [6.8086601704295080e-01, 1.5307024630206463e+00, -1.5042303558503498e+00], 
                "evaluate_basis_derivatives_2_1": [-9.6636422995587590e-01, 4.1690614724747826e-01, 1.3123826460500978e+00, 4.1690620382302934e-01, -2.8399403207185077e+00, 2.7884629174242881e-01, 1.3123826280776734e+00, 2.7884637632915377e-01, -2.0507390943266048e+00], 
                "evaluate_basis_derivatives_2_2": [0.0, 0.0, 0.0, 0.0, 0.0, 0.0, 0.0, 0.0, 0.0, 0.0, 0.0, 0.0, 0.0, 0.0, 0.0, 0.0, 0.0, 0.0, 0.0, 0.0, 0.0, 0.0, 0.0, 0.0, 0.0, 0.0, 0.0], 
                "evaluate_basis_derivatives_all_0": [4.3487018191378013e-01, 2.3629580674572376e-01, -7.2524354460797602e-01, 5.6668428968355777e-01, -1.4838461134722323e+00, -3.7588066977974038e-01, 6.8086601704295080e-01, 1.5307024630206463e+00, -1.5042303558503498e+00], 
                "evaluate_basis_derivatives_all_1": [-9.6636422995587590e-01, 4.1690614724747826e-01, 1.3123826460500978e+00, 4.1690620382302934e-01, -2.8399403207185077e+00, 2.7884629174242881e-01, 1.3123826280776734e+00, 2.7884637632915377e-01, -2.0507390943266048e+00, 9.6636422995587590e-01, -4.1690614724747826e-01, -1.3123826460500978e+00, -4.1690620382302934e-01, 2.8399403207185077e+00, -2.7884629174242881e-01, -1.3123826280776734e+00, -2.7884637632915377e-01, 2.0507390943266048e+00, -9.6636422995587590e-01, 4.1690614724747826e-01, 1.3123826460500978e+00, 4.1690620382302934e-01, -2.8399403207185077e+00, 2.7884629174242881e-01, 1.3123826280776734e+00, 2.7884637632915377e-01, -2.0507390943266048e+00], 
                "evaluate_basis_derivatives_all_2": [0.0, 0.0, 0.0, 0.0, 0.0, 0.0, 0.0, 0.0, 0.0, 0.0, 0.0, 0.0, 0.0, 0.0, 0.0, 0.0, 0.0, 0.0, 0.0, 0.0, 0.0, 0.0, 0.0, 0.0, 0.0, 0.0, 0.0, 0.0, 0.0, 0.0, 0.0, 0.0, 0.0, 0.0, 0.0, 0.0, 0.0, 0.0, 0.0, 0.0, 0.0, 0.0, 0.0, 0.0, 0.0, 0.0, 0.0, 0.0, 0.0, 0.0, 0.0, 0.0, 0.0, 0.0, 0.0, 0.0, 0.0, 0.0, 0.0, 0.0, 0.0, 0.0, 0.0, 0.0, 0.0, 0.0, 0.0, 0.0, 0.0, 0.0, 0.0, 0.0, 0.0, 0.0, 0.0, 0.0, 0.0, 0.0, 0.0, 0.0, 0.0], 
                "evaluate_dof_0": -1.3214417072408602e+00, 
                "evaluate_dof_1": -1.9264611723259857e+00, 
                "evaluate_dof_2": -1.8029583011621708e+00, 
                "evaluate_dofs": [-1.3214417072408602e+00, -1.9264611723259857e+00, -1.8029583011621708e+00], 
                "interpolate_vertex_values": [-2.3729760384811280e+00, 6.9596000538337588e-02, 3.5257537886675037e+00, -3.5727770384675073e+00, 1.5640849654336517e+00, 4.8448332506408320e+00, -2.0782880735721934e+00, 1.6202160063686870e+00, 2.5925752331225418e+00], 
                "num_sub_elements": 0, 
            },
            "finite_element_1": {
                "cell_shape": 1, 
                "space_dimension": 1, 
                "value_rank": 0, 
                "evaluate_basis:_0": [1.0000000000000000e+00], 
                "evaluate_basis_all": [1.0000000000000000e+00], 
                "evaluate_basis_derivatives_0_0": [1.0000000000000000e+00], 
                "evaluate_basis_derivatives_0_1": [0.0, 0.0, 0.0], 
                "evaluate_basis_derivatives_0_2": [0.0, 0.0, 0.0, 0.0, 0.0, 0.0, 0.0, 0.0, 0.0], 
                "evaluate_basis_derivatives_all_0": [1.0000000000000000e+00], 
                "evaluate_basis_derivatives_all_1": [0.0, 0.0, 0.0], 
                "evaluate_basis_derivatives_all_2": [0.0, 0.0, 0.0, 0.0, 0.0, 0.0, 0.0, 0.0, 0.0], 
                "evaluate_dof_0": 2.5422960426200059e-01, 
                "evaluate_dofs": [2.5422960426200059e-01], 
                "interpolate_vertex_values": [2.5422960426200059e-01, 2.5422960426200059e-01, 2.5422960426200059e-01], 
                "num_sub_elements": 0, 
            },
        },
        "dofmap_0": {
            "needs_mesh_entities_0": 0, 
            "needs_mesh_entities_1": 1, 
            "needs_mesh_entities_2": 1, 
            "global_dimension": 20005, 
            "local_dimension": 4, 
            "geometric_dimension": 3, 
            "num_facet_dofs": 1, 
            "num_entity_dofs_0": 0, 
            "num_entity_dofs_1": 1, 
            "num_entity_dofs_2": 1, 
            "tabulate_dofs": [0, 1, 2, 10002], 
            "tabulate_facet_dofs_0": [0], 
            "tabulate_facet_dofs_1": [1], 
            "tabulate_facet_dofs_2": [2], 
            "tabulate_entity_dofs_0_0": [], 
            "tabulate_entity_dofs_0_1": [], 
            "tabulate_entity_dofs_0_2": [], 
            "tabulate_entity_dofs_1_0": [0], 
            "tabulate_entity_dofs_1_1": [1], 
            "tabulate_entity_dofs_1_2": [2], 
            "tabulate_entity_dofs_2_0": [3], 
            "tabulate_coordinates_0": [7.7400000000000002e-01, 7.7500000000000002e-01, 5.1200000000000001e-01], 
            "tabulate_coordinates_1": [9.4500000000000006e-01, 5.6200000000000006e-01, 3.2400000000000001e-01], 
            "tabulate_coordinates_2": [7.3199999999999998e-01, 5.5400000000000005e-01, 6.4500000000000002e-01], 
            "tabulate_coordinates_3": [8.1699999182999994e-01, 6.3033332703000000e-01, 4.9366666173000001e-01], 
            "num_sub_dofmaps": 2, 
            "dofmap_0": {
                "needs_mesh_entities_0": 0, 
                "needs_mesh_entities_1": 1, 
                "needs_mesh_entities_2": 0, 
                "global_dimension": 10002, 
                "local_dimension": 3, 
                "geometric_dimension": 3, 
                "num_facet_dofs": 1, 
                "num_entity_dofs_0": 0, 
                "num_entity_dofs_1": 1, 
                "num_entity_dofs_2": 0, 
                "tabulate_dofs": [0, 1, 2], 
                "tabulate_facet_dofs_0": [0], 
                "tabulate_facet_dofs_1": [1], 
                "tabulate_facet_dofs_2": [2], 
                "tabulate_entity_dofs_0_0": [], 
                "tabulate_entity_dofs_0_1": [], 
                "tabulate_entity_dofs_0_2": [], 
                "tabulate_entity_dofs_1_0": [0], 
                "tabulate_entity_dofs_1_1": [1], 
                "tabulate_entity_dofs_1_2": [2], 
                "tabulate_entity_dofs_2_0": [], 
                "tabulate_coordinates_0": [7.7400000000000002e-01, 7.7500000000000002e-01, 5.1200000000000001e-01], 
                "tabulate_coordinates_1": [9.4500000000000006e-01, 5.6200000000000006e-01, 3.2400000000000001e-01], 
                "tabulate_coordinates_2": [7.3199999999999998e-01, 5.5400000000000005e-01, 6.4500000000000002e-01], 
                "num_sub_dofmaps": 0, 
            },
            "dofmap_1": {
                "needs_mesh_entities_0": 0, 
                "needs_mesh_entities_1": 0, 
                "needs_mesh_entities_2": 1, 
                "global_dimension": 10003, 
                "local_dimension": 1, 
                "geometric_dimension": 3, 
                "num_facet_dofs": 0, 
                "num_entity_dofs_0": 0, 
                "num_entity_dofs_1": 0, 
                "num_entity_dofs_2": 1, 
                "tabulate_dofs": [0], 
                "tabulate_facet_dofs_0": [], 
                "tabulate_facet_dofs_1": [], 
                "tabulate_facet_dofs_2": [], 
                "tabulate_entity_dofs_0_0": [], 
                "tabulate_entity_dofs_0_1": [], 
                "tabulate_entity_dofs_0_2": [], 
                "tabulate_entity_dofs_1_0": [], 
                "tabulate_entity_dofs_1_1": [], 
                "tabulate_entity_dofs_1_2": [], 
                "tabulate_entity_dofs_2_0": [0], 
                "tabulate_coordinates_0": [8.1699999182999994e-01, 6.3033332703000000e-01, 4.9366666173000001e-01], 
                "num_sub_dofmaps": 0, 
            },
        },
        "dofmap_1": {
            "needs_mesh_entities_0": 0, 
            "needs_mesh_entities_1": 1, 
            "needs_mesh_entities_2": 1, 
            "global_dimension": 20005, 
            "local_dimension": 4, 
            "geometric_dimension": 3, 
            "num_facet_dofs": 1, 
            "num_entity_dofs_0": 0, 
            "num_entity_dofs_1": 1, 
            "num_entity_dofs_2": 1, 
            "tabulate_dofs": [0, 1, 2, 10002], 
            "tabulate_facet_dofs_0": [0], 
            "tabulate_facet_dofs_1": [1], 
            "tabulate_facet_dofs_2": [2], 
            "tabulate_entity_dofs_0_0": [], 
            "tabulate_entity_dofs_0_1": [], 
            "tabulate_entity_dofs_0_2": [], 
            "tabulate_entity_dofs_1_0": [0], 
            "tabulate_entity_dofs_1_1": [1], 
            "tabulate_entity_dofs_1_2": [2], 
            "tabulate_entity_dofs_2_0": [3], 
            "tabulate_coordinates_0": [7.7400000000000002e-01, 7.7500000000000002e-01, 5.1200000000000001e-01], 
            "tabulate_coordinates_1": [9.4500000000000006e-01, 5.6200000000000006e-01, 3.2400000000000001e-01], 
            "tabulate_coordinates_2": [7.3199999999999998e-01, 5.5400000000000005e-01, 6.4500000000000002e-01], 
            "tabulate_coordinates_3": [8.1699999182999994e-01, 6.3033332703000000e-01, 4.9366666173000001e-01], 
            "num_sub_dofmaps": 2, 
            "dofmap_0": {
                "needs_mesh_entities_0": 0, 
                "needs_mesh_entities_1": 1, 
                "needs_mesh_entities_2": 0, 
                "global_dimension": 10002, 
                "local_dimension": 3, 
                "geometric_dimension": 3, 
                "num_facet_dofs": 1, 
                "num_entity_dofs_0": 0, 
                "num_entity_dofs_1": 1, 
                "num_entity_dofs_2": 0, 
                "tabulate_dofs": [0, 1, 2], 
                "tabulate_facet_dofs_0": [0], 
                "tabulate_facet_dofs_1": [1], 
                "tabulate_facet_dofs_2": [2], 
                "tabulate_entity_dofs_0_0": [], 
                "tabulate_entity_dofs_0_1": [], 
                "tabulate_entity_dofs_0_2": [], 
                "tabulate_entity_dofs_1_0": [0], 
                "tabulate_entity_dofs_1_1": [1], 
                "tabulate_entity_dofs_1_2": [2], 
                "tabulate_entity_dofs_2_0": [], 
                "tabulate_coordinates_0": [7.7400000000000002e-01, 7.7500000000000002e-01, 5.1200000000000001e-01], 
                "tabulate_coordinates_1": [9.4500000000000006e-01, 5.6200000000000006e-01, 3.2400000000000001e-01], 
                "tabulate_coordinates_2": [7.3199999999999998e-01, 5.5400000000000005e-01, 6.4500000000000002e-01], 
                "num_sub_dofmaps": 0, 
            },
            "dofmap_1": {
                "needs_mesh_entities_0": 0, 
                "needs_mesh_entities_1": 0, 
                "needs_mesh_entities_2": 1, 
                "global_dimension": 10003, 
                "local_dimension": 1, 
                "geometric_dimension": 3, 
                "num_facet_dofs": 0, 
                "num_entity_dofs_0": 0, 
                "num_entity_dofs_1": 0, 
                "num_entity_dofs_2": 1, 
                "tabulate_dofs": [0], 
                "tabulate_facet_dofs_0": [], 
                "tabulate_facet_dofs_1": [], 
                "tabulate_facet_dofs_2": [], 
                "tabulate_entity_dofs_0_0": [], 
                "tabulate_entity_dofs_0_1": [], 
                "tabulate_entity_dofs_0_2": [], 
                "tabulate_entity_dofs_1_0": [], 
                "tabulate_entity_dofs_1_1": [], 
                "tabulate_entity_dofs_1_2": [], 
                "tabulate_entity_dofs_2_0": [0], 
                "tabulate_coordinates_0": [8.1699999182999994e-01, 6.3033332703000000e-01, 4.9366666173000001e-01], 
                "num_sub_dofmaps": 0, 
            },
        },
        "default_cell_integral": 1, 
        "cell_integral": {
            "tabulate_tensor": [1.8853336242025825e-01, 5.5199709216287349e-02, 2.6135106784693787e-02, -1.0000000199999999e+00, 5.5199709216287349e-02, 3.4507261538871770e-01, 1.3040415349575776e-01, 1.0000000199999999e+00, 2.6135106784693787e-02, 1.3040415349575776e-01, 2.6373780182778100e-01, -1.0000000199999999e+00, -1.0000000199999999e+00, 1.0000000199999999e+00, -1.0000000199999999e+00, 0.0], 
        },
        "default_exterior_facet_integral": 0, 
        "default_interior_facet_integral": 0, 
        "default_point_integral": 0, 
    },
}
